351.8264840, 0.0060827
353.1963470, 0.0060827
355.7077626, 0.0060827
357.3059361, 0.0060827
358.4474886, 0.0060827
359.5890411, 0.0060827
361.6438356, 0.0072993
363.9269406, 0.0072993
366.2100457, 0.0121655
368.0365297, 0.0316302
370.0913242, 0.0729927
371.9178082, 0.1654501
374.2009132, 0.3187348
376.0273973, 0.4866180
378.3105023, 0.6180049
380.1369863, 0.7347932
381.9634703, 0.8223844
384.0182648, 0.8637470
385.8447489, 0.8978102
388.1278539, 0.8454988
389.9543379, 0.7980535
392.2374429, 0.6703163
393.8356164, 0.5364964
396.1187215, 0.4306569
397.9452055, 0.3552311
399.7716895, 0.2968370
402.0547945, 0.2372263
403.8812785, 0.2080292
406.1643836, 0.1776156
407.9908676, 0.1605839
410.0456621, 0.1423358
411.8721461, 0.1216545
413.9269406, 0.1216545
415.5251142, 0.1192214
418.2648402, 0.1094891
419.1780822, 0.1094891
420.0913242, 0.1143552
422.8310502, 0.1082725
424.4292237, 0.1119221
426.2557078, 0.1131387
428.0821918, 0.1289538
430.1369863, 0.1277372
431.9634703, 0.1362530
433.7899543, 0.1411192
435.6164384, 0.1569343
438.1278539, 0.1557178
439.9543379, 0.1654501
442.2374429, 0.1836983
444.0639269, 0.1958637
446.3470320, 0.2165450
447.7168950, 0.2287105
450.0000000, 0.2420925
452.2831050, 0.2579075
453.8812785, 0.2810219
456.1643836, 0.2956204
458.2191781, 0.3223844
460.2739726, 0.3406326
461.8721461, 0.3625304
463.6986301, 0.3734793
465.9817352, 0.3941606
468.2648402, 0.4270073
470.3196347, 0.4452555
472.1461187, 0.4708029
474.2009132, 0.4927007
476.0273973, 0.5206813
477.3972603, 0.5462287
480.3652968, 0.5498783
482.1917808, 0.5839416
484.2465753, 0.6107056
486.3013699, 0.6240876
488.1278539, 0.6411192
489.7260274, 0.6934307
492.0091324, 0.6897810
493.6073059, 0.7518248
496.1187215, 0.7445255
498.1735160, 0.7627737
499.7716895, 0.7785888
502.0547945, 0.8004866
503.6529680, 0.8236010
506.6210046, 0.8442822
508.2191781, 0.8540146
510.0456621, 0.8625304
511.8721461, 0.8844282
513.9269406, 0.9014599
515.9817352, 0.8941606
518.0365297, 0.9051095
519.8630137, 0.9233577
520.0913242, 0.9245742
522.1461187, 0.9221411
523.5159817, 0.9440389
525.7990868, 0.9452555
527.8538813, 0.9659367
530.1369863, 0.9708029
532.1917808, 0.9501217
533.7899543, 0.9732360
536.0730594, 0.9659367
538.1278539, 0.9878345
539.7260274, 0.9744526
541.7808219, 0.9695864
544.0639269, 0.9793187
546.3470320, 0.9902676
547.9452055, 0.9841849
550.2283105, 0.9817518
551.8264840, 0.9683698
554.3378995, 0.9768856
555.9360731, 0.9708029
558.2191781, 0.9683698
560.2739726, 0.9525547
561.8721461, 0.9793187
563.9269406, 0.9440389
566.2100457, 0.9513382
568.2648402, 0.9294404
570.0913242, 0.9306569
572.3744292, 0.9282238
573.9726027, 0.9221411
575.7990868, 0.9038929
577.8538813, 0.9087591
579.6803653, 0.8941606
581.9634703, 0.9026764
583.5616438, 0.8746959
585.6164384, 0.8673966
587.8995434, 0.8625304
590.1826484, 0.8552311
591.7808219, 0.8357664
594.0639269, 0.8284672
595.8904110, 0.8236010
597.9452055, 0.8090024
599.7716895, 0.8004866
602.0547945, 0.8004866
603.8812785, 0.7834550
605.9360731, 0.7761557
607.9908676, 0.7615572
610.0456621, 0.7579075
611.6438356, 0.7311436
613.9269406, 0.7457421
615.7534247, 0.7323601
617.1232877, 0.7250608
619.8630137, 0.7262774
622.1461187, 0.7080292
623.5159817, 0.6946472
625.7990868, 0.6678832
627.8538813, 0.6666667
629.9086758, 0.6520681
631.9634703, 0.6411192
634.0182648, 0.6216545
636.3013699, 0.6180049
638.3561644, 0.6094891
639.2694064, 0.5912409
641.7808219, 0.5936740
643.8356164, 0.5839416
645.2054795, 0.5705596
647.2602740, 0.5620438
649.0867580, 0.5486618
