3.54286	-0.04141
3.5378	0.00533
3.53276	0.01785
3.52774	0.00899
3.52273	0.01694
3.51773	0.01454
3.51275	0.01135
3.50778	0.00106
3.50282	0.01735
3.49788	-0.00412
3.49296	0.02333
3.48805	0.03533
3.48315	0.01627
3.47826	0.02235
3.47339	0.04288
3.46853	0.06334
3.46369	0.03972
3.45886	0.03233
3.45404	0.08191
3.44924	0.05392
3.44444	0.07415
3.43967	0.11414
3.4349	0.13362
3.43015	0.12315
3.42541	0.11816
3.42069	0.17812
3.41598	0.20519
3.41128	0.25852
3.40659	0.27834
3.40192	0.35353
3.39726	0.40856
3.39261	0.50955
3.38798	0.55034
3.38336	0.66659
3.37875	0.78237
3.37415	0.87424
3.36957	1.06839
3.36499	1.11968
3.36043	1.38724
3.35589	1.55491
3.35135	1.67225
3.34683	1.93429
3.34232	2.16075
3.33782	2.37248
3.33333	2.64904
3.32886	2.80534
3.3244	2.93531
3.31995	3.14138
3.31551	3.19325
3.31108	3.4073
3.30667	3.57461
3.30226	3.72081
3.29787	3.96874
3.29349	4.03272
3.28912	4.12434
3.28477	4.33899
3.28042	4.446
3.27609	4.51324
3.27177	4.58259
3.26746	4.73528
3.26316	4.64893
3.25887	4.66682
3.25459	4.81647
3.25033	4.62029
3.24607	4.77328
3.24183	4.80008
3.2376	4.59511
3.23338	4.76667
3.22917	4.60926
3.22497	4.57236
3.22078	4.68961
3.2166	4.41115
3.21244	4.48684
3.20828	4.38392
3.20413	4.18182
3.2	4.23966
3.19588	4.06696
3.19176	3.9163
3.18766	3.98339
3.18357	3.84681
3.17949	3.65468
3.17542	3.57286
3.17136	3.54383
3.16731	3.45574
3.16327	3.24827
3.15924	3.17939
3.15522	3.11809
3.15121	3.02145
3.14721	2.96997
3.14322	2.82331
3.13924	2.75101
3.13527	2.65886
3.13131	2.51371
3.12736	2.49888
3.12343	2.38847
3.1195	2.28633
3.11558	2.31227
3.11167	2.1239
3.10777	2.09651
3.10388	1.99256
3.1	1.89737
3.09613	1.93233
3.09227	1.78049
3.08842	1.7635
3.08458	1.72801
3.08075	1.56117
3.07692	1.60958
3.07311	1.52613
3.06931	1.42298
3.06551	1.40795
3.06173	1.36976
3.05795	1.27426
3.05419	1.21777
3.05043	1.22113
3.04668	1.19983
3.04294	1.14615
3.03922	1.07697
3.0355	1.07908
3.03178	0.99221
3.02808	0.9392
3.02439	0.92784
3.02071	0.95077
3.01703	0.89995
3.01337	0.81891
3.00971	0.8336
3.00606	0.76418
3.00242	0.74345
2.99879	0.7417
2.99517	0.69856
2.99156	0.67235
2.98795	0.6757
2.98436	0.65641
2.98077	0.57485
2.97719	0.5861
2.97362	0.57931
2.97006	0.55459
2.96651	0.54924
2.96296	0.52978
2.95943	0.47854
2.9559	0.49101
2.95238	0.48585
2.94887	0.41897
2.94537	0.40975
2.94187	0.43841
2.93839	0.4187
2.93491	0.40813
2.93144	0.35497
2.92798	0.34154
2.92453	0.33072
2.92108	0.32627
2.91765	0.29756
2.91422	0.33971
2.9108	0.29426
2.90739	0.3002
2.90398	0.24288
2.90058	0.30588
2.8972	0.27907
2.89382	0.26403
2.89044	0.2571
2.88708	0.2552
2.88372	0.25866
2.88037	0.22963
2.87703	0.21558
2.8737	0.1972
2.87037	0.19253
2.86705	0.20459
2.86374	0.16649
2.86044	0.2184
2.85714	0.1755
2.85386	0.18947
2.85057	0.14863
2.8473	0.16282
2.84404	0.16588
2.84078	0.16014
2.83753	0.15192
2.83429	0.19761
2.83105	0.12565
2.82782	0.14086
2.8246	0.14215
2.82139	0.12897
2.81818	0.10579
2.81498	0.08978
2.81179	0.09939
2.80861	0.15499
2.80543	0.12429
2.80226	0.10371
2.7991	0.12716
2.79594	0.09856
2.79279	0.09404
2.78965	0.0836
2.78652	0.10784
2.78339	0.09186
2.78027	0.09837
2.77716	0.07286
2.77405	0.08832
2.77095	0.09894
2.76786	0.10485
2.76477	0.08209
2.76169	0.11169
2.75862	0.07318
2.75556	0.0555
2.7525	0.08048
2.74945	0.07135
2.7464	0.04821
2.74336	0.05555
2.74033	0.06331
2.73731	0.09742
2.73429	0.09399
2.73128	0.07376
2.72827	0.07573
2.72527	0.07219
2.72228	0.06218
2.7193	0.05854
2.71632	0.05798
2.71335	0.04989
2.71038	0.038
2.70742	0.08096
2.70447	0.04892
2.70153	0.0449
2.69859	0.05827
2.69565	0.0508
2.69273	0.07162
2.6898	0.07
2.68689	0.05566
2.68398	0.05897
2.68108	0.06532
2.67819	0.06956
2.6753	0.09686
2.67241	0.0555
2.66954	0.04884
2.66667	0.02915
2.6638	0.06969
2.66094	0.0503
2.65809	0.03687
2.65525	0.03972
2.65241	0.048
2.64957	0.01166
2.64674	0.04808
2.64392	0.07551
2.64111	0.00651
2.6383	0.04468
2.63549	0.04901
2.6327	0.0277
2.6299	0.05739
2.62712	0.05962
2.62434	0.06567
2.62156	0.04243
2.6188	0.09538
2.61603	0.04652
2.61328	0.0639
2.61053	0.03476
2.60778	0.05427
2.60504	0.01663
2.60231	0.03574
2.59958	0.04178
2.59686	0.05219
2.59414	0.0388
2.59143	0.08356
2.58873	0.04561
2.58603	0.10022
2.58333	0.05361
2.58065	0.06942
2.57796	0.03961
2.57529	0.05347
2.57261	0.07745
2.56995	0.09007
2.56729	0.04265
2.56463	0.05744
2.56198	0.03833
2.55934	0.07602
2.5567	0.05879
2.55407	0.07379
2.55144	0.0536
2.54882	0.04528
2.5462	0.06446
2.54359	0.04005
2.54098	0.07957
2.53838	0.06845
2.53579	0.06021
2.5332	0.03942
2.53061	0.01589
2.52803	0.02978
2.52546	0.02788
2.52289	0.02898
2.52033	0.04312
2.51777	0.03554
2.51521	0.07798
2.51266	0.06292
2.51012	0.0484
2.50758	0.04593
2.50505	0.02089
2.50252	0.05747
2.5	0.04565
2.49748	0.03916
2.49497	0.0674
2.49246	0.05328
2.48996	0.02984
2.48746	0.0477
2.48497	0.05779
2.48248	0.05889
2.48	0.06581
2.47752	0.07183
2.47505	0.05382
2.47258	0.02394
2.47012	0.03639
2.46766	0.02981
2.46521	0.02851
2.46276	0.04252
2.46032	0.04544
2.45788	0.06105
2.45545	0.01793
2.45302	0.03216
2.45059	0.0725
2.44817	0.06045
2.44576	0.03952
2.44335	0.07041
2.44094	0.05754
2.43854	0.04307
2.43615	0.04696
2.43376	0.04022
2.43137	0.03938
2.42899	0.04385
2.42661	0.02015
2.42424	0.01254
2.42188	0.04255
2.41951	0.0376
2.41715	0.05542
2.4148	0.02772
2.41245	0.03374
2.41011	0.0608
2.40777	0.04305
2.40543	0.03473
2.4031	0.03617
2.40077	0.04288
2.39845	0.05805
2.39614	0.04998
2.39382	0.03184
2.39151	0.05054
2.38921	0.01876
2.38691	0.0255
2.38462	0.03559
2.38232	0.0355
2.38004	0.06057
2.37776	0.0499
2.37548	0.047
2.37321	0.05592
2.37094	0.03713
2.36867	0.05233
2.36641	0.0225
2.36416	0.02209
2.3619	0.05241
2.35966	0.03506
2.35741	0.05247
2.35518	0.04078
2.35294	0.03352
2.35071	0.06923
2.34848	0.06168
2.34626	0.02635
2.34405	0.02038
2.34183	0.03204
2.33962	0.02369
2.33742	0.04548
2.33522	0.0312
2.33302	0.04186
2.33083	0.03875
2.32864	0.02688
2.32645	0.04692
2.32427	0.07018
2.3221	0.0245
2.31993	0.01265
2.31776	0.04937
2.31559	0.04641
2.31343	0.0335
2.31128	0.04291
2.30912	0.05111
2.30698	0.01625
2.30483	0.06999
2.30269	0.04912
2.30056	0.04254
2.29842	0.03757
2.2963	0.03601
2.29417	0.0494
2.29205	0.06374
2.28994	0.04047
2.28782	0.06165
2.28571	0.03653
2.28361	0.05963
2.28151	0.04135
2.27941	0.0428
2.27732	0.05143
2.27523	0.06227
2.27314	0.05139
2.27106	0.07141
2.26898	0.06031
2.26691	0.06562
2.26484	0.05071
2.26277	-5.673E-4
2.26071	0.04017
2.25865	0.01257
2.2566	0.0461
2.25455	0.04703
2.2525	0.07381
2.25045	0.04051
2.24841	0.04323
2.24638	0.04396
2.24434	0.02408
2.24231	0.04443
2.24029	0.02606
2.23827	0.02504
2.23625	0.02147
2.23423	0.03595
2.23222	0.01505
2.23022	0.00828
2.22821	0.04155
2.22621	0.04222
2.22422	0.05883
2.22222	0.04343
2.22023	0.04779
2.21825	0.0467
2.21626	0.02539
2.21429	0.03756
2.21231	0.06445
2.21034	0.03215
2.20837	0.0273
2.20641	0.02598
2.20444	0.04205
2.20249	0.06399
2.20053	0.0407
2.19858	0.06634
2.19663	0.03892
2.19469	0.06552
2.19275	0.05237
2.19081	0.00479
2.18888	0.03406
2.18695	0.0778
2.18502	0.01881
2.1831	0.05999
2.18118	0.07422
2.17926	0.02228
2.17735	0.0542
2.17544	0.04473
2.17353	0.0654
2.17163	0.0247
2.16973	0.01203
2.16783	0.05301
2.16594	0.06881
2.16405	0.0384
2.16216	0.03629
2.16028	0.00193
2.1584	0.0182
2.15652	0.04476
2.15465	0.0276
2.15278	0.0566
2.15091	0.03221
2.14905	0.04121
2.14719	0.05237
2.14533	0.04188
2.14347	0.01194
2.14162	0.05852
2.13978	0.01241
2.13793	0.03059
2.13609	0.03128
2.13425	0.05683
2.13242	0.03786
2.13058	0.03712
2.12876	0.03539
2.12693	0.0536
2.12511	0.02504
2.12329	0.02035
2.12147	0.04401
2.11966	0.0383
2.11785	0.04207
2.11604	0.02566
2.11424	0.04776
2.11244	0.07541
2.11064	0.01516
2.10884	0.0069
2.10705	0.05189
2.10526	0.04906
2.10348	0.0299
2.10169	0.01859
2.09992	0.07333
2.09814	0.03804
2.09637	0.03124
2.09459	0.0533
2.09283	0.03007
2.09106	0.04143
2.0893	0.02871
2.08754	0.01763
2.08579	0.02835
2.08403	0.04569
2.08228	0.00607
2.08054	0.05296
2.07879	0.02744
2.07705	0.06621
2.07531	0.03752
2.07358	0.01462
2.07185	0.06687
2.07012	0.02783
2.06839	0.03243
2.06667	0.04832
2.06495	0.02199
2.06323	0.01654
2.06151	0.04011
2.0598	0.02462
2.05809	0.02392
2.05638	0.04652
2.05468	0.04586
2.05298	0.02691
2.05128	0.03753
2.04959	0.05233
2.04789	0.03788
2.0462	0.00789
2.04452	0.04566
2.04283	0.0395
2.04115	0.05685
2.03947	0.03476
2.0378	0.03671
2.03612	0.01258
2.03445	0.00958
2.03279	0.05766
2.03112	0.01948
2.02946	0.07388
2.0278	0.02784
2.02614	0.03216
2.02449	0.07541
2.02284	0.02331
2.02119	0.06143
2.01954	0.03412
2.0179	0.06683
2.01626	0.04711
2.01462	0.05049
2.01299	0.04116
2.01135	0.02278
2.00972	0.03647
2.0081	0.03073
2.00647	0.03666
2.00485	0.05491
2.00323	0.04376
2.00161	0.03985
2	0.056
1.99839	0.00844
1.99678	0.04479
1.99517	0.03994
1.99357	0.00846
1.99197	0.00711
1.99037	0.02392
1.98877	0.04175
1.98718	0.03269
1.98559	0.02691
1.984	0.00853
1.98241	-0.00554
1.98083	0.06606
1.97925	0.05395
1.97767	0.04921
1.9761	0.0336
1.97452	0.01751
1.97295	0.00897
1.97138	0.0357
1.96982	0.00605
1.96825	0.06428
1.96669	0.04418
1.96513	0.06623
1.96358	0.05161
1.96203	0.0229
1.96047	0.01272
1.95893	0.05637
1.95738	0.01268
1.95584	0.04962
1.95429	0.04011
1.95276	0.04573
1.95122	0.01973
1.94969	0.04228
1.94815	0.05324
1.94662	0.04369
1.9451	0.02409
1.94357	0.04621
1.94205	0.03163
1.94053	0.03104
1.93901	0.02073
1.9375	0.03463
1.93599	0.04397
1.93448	0.02485
1.93297	0.07446
1.93146	0.06159
1.92996	0.03741
1.92846	0.05211
1.92696	0.04316
1.92547	0.01335
1.92397	0.01581
1.92248	0.0285
1.92099	0.03847
1.9195	0.05551
1.91802	0.03982
1.91654	0.01379
1.91506	0.07173
1.91358	9.272E-4
1.9121	0.06856
1.91063	0.04286
1.90916	0.01468
1.90769	0.03959
1.90623	0.03794
1.90476	0.03024
1.9033	0.03598
1.90184	0.01948
1.90038	0.01804
1.89893	0.0294
1.89748	0.0701
1.89602	0.02666
1.89458	0.03621
1.89313	0.04968
1.89169	0.01898
1.89024	0.0059
1.8888	0.05625
1.88737	0.01609
1.88593	0.02932
1.8845	0.05145
1.88307	0.04096
1.88164	0.05633
1.88021	0.04299
1.87879	0.02266
1.87737	0.03861
1.87595	0.02598
1.87453	0.01324
1.87311	0.0408
1.8717	0.02377
1.87029	0.02548
1.86888	0.03135
1.86747	0.02636
1.86606	0.02658
1.86466	0.01142
1.86326	0.03352
1.86186	0.02783
1.86047	0.02838
1.85907	0.03988
1.85768	0.00273
1.85629	0.05356
1.8549	0.037
1.85351	0.03351
1.85213	0.05652
1.85075	0.0065
1.84937	0.00915
1.84799	0.03928
1.84661	0.0481
1.84524	0.00572
1.84387	0.04921
1.8425	0.03407
1.84113	0.02986
1.83976	0.03359
1.8384	0.0348
1.83704	0.02236
1.83568	0.03068
1.83432	0.04731
1.83296	0.0257
1.83161	-0.00967
1.83026	0.0329
1.82891	0.00294
1.82756	0.03744
1.82622	0.01275
1.82487	0.04077
1.82353	0.04063
1.82219	0.04016
1.82085	0.04008
1.81952	0.03669
1.81818	0.00325
1.81685	0.0356
1.81552	0.01544
1.81419	0.02183
1.81287	0.03099
1.81154	0.05015
1.81022	0.03157
1.8089	0.03292
1.80758	0.02868
1.80626	0.04568
1.80495	0.04224
1.80364	0.024
1.80233	0.02469
1.80102	0.02527
1.79971	0.01843
1.7984	0.02823
1.7971	0.04115
1.7958	0.03903
1.7945	0.01994
1.7932	0.03626
1.79191	0.02772
1.79061	0.02087
1.78932	0.03746
1.78803	0.02688
1.78674	0.00477
1.78546	0.04501
1.78417	0.04976
1.78289	0.03151
1.78161	0.02864
1.78033	0.02589
1.77905	0.02007
1.77778	0.03872
1.7765	0.03202
1.77523	0.04468
1.77396	0.04217
1.77269	0.04081
1.77143	0.04214
1.77016	0.0035
1.7689	0.03163
1.76764	0.04908
1.76638	0.04727
1.76512	0.01059
1.76387	0.0109
1.76262	0.04324
1.76136	0.03116
1.76011	0.03791
1.75887	0.0385
1.75762	0.05383
1.75637	0.07835
1.75513	0.03109
1.75389	0.02169
1.75265	0.02843
1.75141	8.601E-4
1.75018	0.01335
1.74894	0.02422
1.74771	0.01175
1.74648	0.00495
1.74525	0.01346
1.74402	0.03333
1.7428	0.00731
1.74157	0.02047
1.74035	0.00181
1.73913	0.0567
1.73791	0.00669
1.73669	0.01931
1.73548	0.01867
1.73427	0.00374
1.73305	0.02687
1.73184	0.02827
1.73064	0.01107
1.72943	0.05087
1.72822	0.02299
1.72702	0.02471
1.72582	0.03537
1.72462	0.02913
1.72342	0.04826
1.72222	0.0431
1.72103	0.03705
1.71983	0.00818
1.71864	0.0369
1.71745	0.01914
1.71626	0.01651
1.71508	0.02061
1.71389	0.03956
1.71271	0.04871
1.71153	0.02748
1.71034	0.01055
1.70917	0.02073
1.70799	-0.01254
1.70681	-0.00299
1.70564	0.02244
1.70447	0.00121
1.7033	0.02022
1.70213	0.0268
1.70096	0.01554
1.69979	-0.00234
1.69863	0.01383
1.69747	0.02205
1.69631	0.02497
1.69515	0.01095
1.69399	0.02949
1.69283	0.03167
1.69168	0.00931
1.69052	-0.01448
1.68937	-0.00947
1.68822	0.02882
1.68707	0.01488
1.68593	0.01988
1.68478	0.0031
1.68364	0.01362
1.6825	0.00342
1.68136	-0.02475
1.68022	0.00684
1.67908	0.00857
1.67794	0.03994
1.67681	-0.00731
1.67568	0.0016
1.67454	0.00135
1.67341	0.00584
1.67229	0.00901
1.67116	0.00939
1.67003	0.01283
1.66891	0.0265
1.66779	-0.00823
1.66667	0.03443
1.66555	0.00396
1.66443	0.01486
1.66331	0.00601
1.6622	0.02014
1.66109	0.03143
1.65997	0.01792
1.65886	0.03498
1.65775	-0.00359
1.65665	0.02354
1.65554	0.03609
1.65444	0.00624
1.65333	-0.00689
1.65223	0.03212
1.65113	0.02356
1.65003	0.00513
1.64894	0.01627
1.64784	0.0232
1.64675	0.0322
1.64565	0.01537
1.64456	4.88E-4
1.64347	-0.01183
1.64238	0.01274
1.6413	0.03881
1.64021	0.042
1.63913	0.02441
1.63804	0.01089
1.63696	0.02191
1.63588	0.01285
1.63481	0.01802
1.63373	0.02668
1.63265	-0.01294
1.63158	0.00157
1.63051	0.02172
1.62943	-0.01
1.62837	-0.01355
1.6273	0.04781
1.62623	0.0344
1.62516	0.02137
1.6241	0.02787
1.62304	0.02174
1.62198	0.022
1.62092	0.00531
1.61986	-0.0233
1.6188	-0.02917
1.61774	0.0276
1.61669	-1.708E-4
1.61564	0.0165
1.61458	-0.00763
1.61353	0.03024
1.61248	0.01063
1.61144	0.02511
1.61039	0.01293
1.60934	0.01471
1.6083	0.02404
1.60726	-0.01729
1.60622	0.0251
1.60518	0.0176
1.60414	0.02137
1.6031	0.00248
1.60207	0.03148
1.60103	0.03322
1.6	0.00686
1.59897	-0.00575
1.59794	0.02666
1.59691	-0.01218
1.59588	0.00519
1.59486	0.0103
1.59383	0.02734
1.59281	0.00724
1.59178	-0.00801
1.59076	-0.01238
1.58974	0.00936
1.58873	9.76E-4
1.58771	0.00262
1.58669	0.00515
1.58568	0.00857
1.58466	0.00609
1.58365	-0.01359
1.58264	0.00675
1.58163	-0.00194
1.58062	-0.0125
1.57962	0.00106
1.57861	0.00657
1.57761	0.02949
1.57661	0.02071
1.5756	0.00359
1.5746	0.01323
1.5736	0.01049
1.57261	-4.758E-4
1.57161	0.01356
1.57061	0.02437
1.56962	-0.00717
1.56863	0.01779
1.56764	0.00593
1.56665	0.04334
1.56566	-0.00332
1.56467	0.01931
1.56368	0.01092
1.5627	0.00162
1.56171	-0.00957
1.56073	3.416E-4
1.55975	-0.01111
1.55877	-0.00707
1.55779	0.03517
1.55681	0.0098
1.55583	-0.00601
1.55486	0.00633
1.55388	0.02057
1.55291	0.00533
1.55194	-0.00239
1.55097	-0.00329
1.55	-0.02688
1.54903	0.01648
1.54806	0.02464
1.5471	0.00796
1.54613	0.00193
1.54517	0.0037
1.54421	-7.32E-5
1.54325	0.0042
1.54229	-0.00702
1.54133	-0.00468
1.54037	0.0062
1.53942	-0.01971
1.53846	0.02763
1.53751	0.00855
1.53656	0.01002
1.5356	0.02244
1.53465	-0.01128
1.5337	0.02689
1.53276	-0.00615
1.53181	0.03265
1.53086	-0.02906
1.52992	0.01081
1.52898	-0.01807
1.52803	0.0121
1.52709	0.02102
1.52615	0.00233
1.52522	-0.0084
1.52428	-0.00867
1.52334	0.01777
1.52241	-0.00321
1.52147	-0.00429
1.52054	0.02664
1.51961	0.01982
1.51868	0.01138
1.51775	-0.02834
1.51682	0.01571
1.51589	0.03515
1.51497	0.04277
1.51404	0.01974
1.51312	-0.00748
1.5122	0.02006
1.51127	0.00343
1.51035	-0.0111
1.50943	-0.00669
1.50852	0.0018
1.5076	0.02564
1.50668	-0.02936
1.50577	-0.00365
1.50485	0.0077
1.50394	0.02302
1.50303	0.05459
1.50212	0.00955
1.50121	0.01711
1.5003	-0.02571
1.4994	0.01343
1.49849	0.00876
1.49758	-0.0075
1.49668	0.01427
1.49578	-0.00573
1.49488	0.01433
1.49398	-0.00243
1.49308	-0.01482
1.49218	0.03564
1.49128	-0.01122
1.49038	-0.00457
1.48949	0.00204
1.4886	0.00884
1.4877	0.00738
1.48681	0.03013
1.48592	0.00436
1.48503	0.01621
1.48414	0.00303
1.48325	0.01971
1.48237	0.0087
1.48148	0.00194
1.4806	-0.00486
1.47971	0.01243
1.47883	0.00816
1.47795	0.01484
1.47707	-0.01573
1.47619	-0.00182
1.47531	-0.0293
1.47444	-0.04372
1.47356	0.01768
1.47268	-0.02209
1.47181	-0.04686
1.47094	-0.05208
1.47007	0.00499
1.46919	0.01521
1.46832	-0.01329
1.46746	-0.0139
1.46659	0.00675
1.46572	-0.00496
1.46486	0.00575
1.46399	0.02704
1.46313	-0.0046
1.46226	0.0238
1.4614	0.01065
1.46054	0.01916
1.45968	-0.01407
1.45882	0.00278
1.45797	0.00495
1.45711	0.04019
1.45625	-0.01017
1.4554	0.01546
1.45455	-0.01494
1.45369	0.01506
1.45284	-0.0161
1.45199	0.01518
1.45114	-0.03744
1.45029	0.01406
1.44944	0.02367
1.4486	-0.00377
1.44775	-0.01351
1.44691	-0.00254
1.44606	0.00773
1.44522	-0.01195
1.44438	-0.02723
1.44354	-0.01543
1.4427	0.00705
1.44186	-9.394E-4
1.44102	3.66E-5
1.44019	0.00866
1.43935	-0.00541
1.43852	0.00544
1.43768	0.01034
1.43685	0.0115
1.43602	-0.00511
1.43519	0.01568
1.43436	0.0019
1.43353	-0.01449
1.4327	-0.01283
1.43187	0.01636
1.43104	0.0156
1.43022	-0.00838
1.42939	0.00576
1.42857	0.01313
1.42775	0.01189
1.42693	-0.01675
1.42611	0.00463
1.42529	-0.0177
1.42447	-0.00662
1.42365	-0.01723
1.42283	-0.00335
1.42202	0.01685
1.4212	-0.00974
1.42039	-0.01768
1.41958	0.01174
1.41876	-0.00909
1.41795	-0.00844
1.41714	8.967E-4
1.41633	0.02334
1.41553	-0.03414
1.41472	0.01866
1.41391	-0.02278
1.41311	0.00673
1.4123	-0.00384
1.4115	0.00922
1.41069	0.00583
1.40989	0.04104
1.40909	-0.02317
1.40829	-0.00467
1.40749	-0.00465
1.40669	0.01363
1.4059	0.00144
1.4051	0.01378
1.4043	-0.02632
1.40351	0.01726
1.40271	-6.405E-4
1.40192	-6.039E-4
1.40113	0.00708
1.40034	0.01618
1.39955	0.02428
1.39876	0.00481
1.39797	-0.00548
1.39718	0.0203
1.3964	0.00533
1.39561	0.00157
1.39483	0.00966
1.39404	0.0126
1.39326	0.03789
1.39248	-0.0073
1.39169	-0.01061
1.39091	0.00483
1.39013	0.01335
1.38936	0.02228
1.38858	-0.00385
1.3878	-0.02327
1.38702	0.04235
1.38625	-8.479E-4
1.38547	-0.04763
1.3847	-0.0016
1.38393	-0.01732
1.38316	0.02178
1.38239	0.01627
1.38162	-0.03414
1.38085	0.0156
1.38008	0.00795
1.37931	0.02471
1.37854	-0.00652
1.37778	0.00733
