3.54286	0.00677	0.00135
3.5378	-0.00551	-0.0011
3.53276	0.01931	0.00386
3.52774	0.01506	0.00301
3.52273	0.00348	6.954E-4
3.51773	-0.01385	-0.00277
3.51275	-0.01215	-0.00243
3.50778	0.02114	0.00423
3.50282	0.03594	0.00719
3.49788	0.0138	0.00276
3.49296	0.029	0.0058
3.48805	0.01151	0.0023
3.48315	0.00264	5.2704E-4
3.47826	0.02937	0.00587
3.47339	0.0056	0.00112
3.46853	0.00286	5.7218E-4
3.46369	-0.01186	-0.00237
3.45886	0.01844	0.00369
3.45404	0.05131	0.01026
3.44924	0.03117	0.00623
3.44444	0.06601	0.0132
3.43967	0.03501	0.007
3.4349	0.03782	0.00756
3.43015	0.03959	0.00792
3.42541	0.03989	0.00798
3.42069	0.05469	0.01094
3.41598	0.05062	0.01012
3.41128	0.08142	0.01628
3.40659	0.11161	0.02232
3.40192	0.11362	0.02272
3.39726	0.15261	0.03052
3.39261	0.17058	0.03412
3.38798	0.23547	0.04709
3.38336	0.36362	0.07272
3.37875	0.71568	0.14314
3.37415	1.42583	0.28517
3.36957	3.23754	0.64751
3.36499	6.15735	1.23147
3.36043	8.62434	1.72487
3.35589	7.18371	1.43674
3.35135	4.91974	0.98395
3.34683	3.7731	0.75462
3.34232	2.88817	0.57763
3.33782	2.34524	0.46905
3.33333	1.98343	0.39669
3.32886	1.62437	0.32487
3.3244	1.39947	0.27989
3.31995	1.19101	0.2382
3.31551	0.97703	0.19541
3.31108	0.87737	0.17547
3.30667	0.76397	0.15279
3.30226	0.6819	0.13638
3.29787	0.58769	0.11754
3.29349	0.50032	0.10006
3.28912	0.48868	0.09774
3.28477	0.44874	0.08975
3.28042	0.3892	0.07784
3.27609	0.3686	0.07372
3.27177	0.36062	0.07212
3.26746	0.32475	0.06495
3.26316	0.29106	0.05821
3.25887	0.28956	0.05791
3.25459	0.25174	0.05035
3.25033	0.23465	0.04693
3.24607	0.2075	0.0415
3.24183	0.19362	0.03872
3.2376	0.20393	0.04079
3.23338	0.18638	0.03728
3.22917	0.17142	0.03428
3.22497	0.1869	0.03738
3.22078	0.15238	0.03048
3.2166	0.13691	0.02738
3.21244	0.13126	0.02625
3.20828	0.11499	0.023
3.20413	0.11032	0.02206
3.2	0.11214	0.02243
3.19588	0.10423	0.02085
3.19176	0.10417	0.02083
3.18766	0.07349	0.0147
3.18357	0.07427	0.01485
3.17949	0.10501	0.021
3.17542	0.08888	0.01778
3.17136	0.06123	0.01225
3.16731	0.04937	0.00987
3.16327	0.05512	0.01102
3.15924	0.06402	0.0128
3.15522	0.0608	0.01216
3.15121	0.04973	0.00995
3.14721	0.0503	0.01006
3.14322	0.03586	0.00717
3.13924	0.02965	0.00593
3.13527	0.03256	0.00651
3.13131	0.06012	0.01202
3.12736	0.03875	0.00775
3.12343	0.05303	0.01061
3.1195	0.01267	0.00253
3.11558	0.02205	0.00441
3.11167	0.02119	0.00424
3.10777	0.01377	0.00275
3.10388	0.01093	0.00219
3.1	0.01253	0.00251
3.09613	0.00698	0.0014
3.09227	0.0171	0.00342
3.08842	0.01594	0.00319
3.08458	0.00533	0.00107
3.08075	0.02247	0.00449
3.07692	0.01698	0.0034
3.07311	-0.00132	-2.6474E-4
3.06931	0.03654	0.00731
3.06551	0.03395	0.00679
3.06173	0.01032	0.00206
3.05795	0.02344	0.00469
3.05419	-0.01342	-0.00268
3.05043	0.00755	0.00151
3.04668	-0.00329	-6.5758E-4
3.04294	0.05563	0.01113
3.03922	0.02786	0.00557
3.0355	0.02053	0.00411
3.03178	0.00483	9.6502E-4
3.02808	-0.00406	-8.113E-4
3.02439	-0.00384	-7.6738E-4
3.02071	0.0092	0.00184
3.01703	-0.02045	-0.00409
3.01337	-0.00733	-0.00147
3.00971	-0.00955	-0.00191
3.00606	2.257E-4	4.514E-5
3.00242	0.03845	0.00769
2.99879	-0.00329	-6.5758E-4
2.99517	-0.0025	-5.002E-4
2.99156	0.01021	0.00204
2.98795	0.02952	0.0059
2.98436	0.02149	0.0043
2.98077	0.01073	0.00215
2.97719	0.01223	0.00245
2.97362	-0.00279	-5.5754E-4
2.97006	0.00472	9.4306E-4
2.96651	-0.00319	-6.3806E-4
2.96296	0.00653	0.00131
2.95943	0.02535	0.00507
2.9559	0.02034	0.00407
2.95238	0.00952	0.0019
2.94887	0.0027	5.4046E-4
2.94537	-0.00681	-0.00136
2.94187	-0.0049	-9.7966E-4
2.93839	-0.01784	-0.00357
2.93491	8.479E-4	1.6958E-4
2.93144	0.00414	8.2716E-4
2.92798	0.006	0.0012
2.92453	0.00636	0.00127
2.92108	0.01152	0.0023
2.91765	0.00392	7.8446E-4
2.91422	0.04191	0.00838
2.9108	0.03231	0.00646
2.90739	0.0173	0.00346
2.90398	-0.0304	-0.00608
2.90058	-0.00511	-0.00102
2.8972	0.01552	0.0031
2.89382	0.01333	0.00267
2.89044	0.01321	0.00264
2.88708	0.00676	0.00135
2.88372	0.00673	0.00135
2.88037	0.01724	0.00345
2.87703	-0.00468	-9.3574E-4
2.8737	-0.01208	-0.00242
2.87037	-0.01688	-0.00338
2.86705	-0.02392	-0.00478
2.86374	-0.02012	-0.00402
2.86044	-0.02707	-0.00541
2.85714	-0.0033	-6.6002E-4
2.85386	-0.00153	-3.0622E-4
2.85057	0.01542	0.00308
2.8473	0.02135	0.00427
2.84404	-0.01569	-0.00314
2.84078	0.01989	0.00398
2.83753	0.00493	9.8576E-4
2.83429	0.0101	0.00202
2.83105	0.0178	0.00356
2.82782	0.03253	0.00651
2.8246	-0.00618	-0.00124
2.82139	0.00704	0.00141
2.81818	0.02211	0.00442
2.81498	-0.00983	-0.00197
2.81179	-0.01119	-0.00224
2.80861	0.01962	0.00392
2.80543	-0.01292	-0.00258
2.80226	0.00696	0.00139
2.7991	0.01839	0.00368
2.79594	-0.00398	-7.9544E-4
2.79279	0.00544	0.00109
2.78965	-0.00131	-2.623E-4
2.78652	-0.00717	-0.00143
2.78339	0.02162	0.00432
2.78027	0.01063	0.00213
2.77716	-0.00329	-6.588E-4
2.77405	0.04014	0.00803
2.77095	0.03198	0.0064
2.76786	-0.00484	-9.6746E-4
2.76477	0.00404	8.0764E-4
2.76169	0.00892	0.00178
2.75862	-0.00754	-0.00151
2.75556	-2.257E-4	-4.514E-5
2.7525	0.01574	0.00315
2.74945	-0.0063	-0.00126
2.7464	0.02755	0.00551
2.74336	0.02011	0.00402
2.74033	0.00856	0.00171
2.73731	0.00682	0.00136
2.73429	0.00309	6.1854E-4
2.73128	-0.04027	-0.00805
2.72827	-0.00246	-4.9166E-4
2.72527	0.0023	4.5994E-4
2.72228	-2.928E-4	-5.856E-5
2.7193	0.01302	0.0026
2.71632	0.01269	0.00254
2.71335	-0.01588	-0.00318
2.71038	-0.0217	-0.00434
2.70742	-0.00117	-2.3302E-4
2.70447	0.00281	5.6242E-4
2.70153	-0.00844	-0.00169
2.69859	-0.00389	-7.7714E-4
2.69565	0.02658	0.00532
2.69273	0.00297	5.9414E-4
2.6898	-0.0068	-0.00136
2.68689	0.00484	9.6868E-4
2.68398	0.00958	0.00192
2.68108	-0.00852	-0.0017
2.67819	0.0131	0.00262
2.6753	0.02054	0.00411
2.67241	-0.00579	-0.00116
2.66954	0.03355	0.00671
2.66667	0.02706	0.00541
2.6638	-0.00636	-0.00127
2.66094	-0.00401	-8.0276E-4
2.65809	9.882E-4	1.9764E-4
2.65525	0.00544	0.00109
2.65241	-0.01185	-0.00237
2.64957	0.01551	0.0031
2.64674	-0.01264	-0.00253
2.64392	0.01321	0.00264
2.64111	0.03462	0.00692
2.6383	0.00151	3.0134E-4
2.63549	0.00645	0.00129
2.6327	-0.00622	-0.00124
2.6299	0.0139	0.00278
2.62712	-0.00234	-4.6848E-4
2.62434	0.00639	0.00128
2.62156	0.00866	0.00173
2.6188	-0.00275	-5.5022E-4
2.61603	-0.0106	-0.00212
2.61328	-0.00728	-0.00146
2.61053	-0.00265	-5.307E-4
2.60778	0.00208	4.1602E-4
2.60504	0.0086	0.00172
2.60231	0.00838	0.00168
2.59958	0.02611	0.00522
2.59686	0.01621	0.00324
2.59414	-0.00117	-2.3302E-4
2.59143	0.00826	0.00165
2.58873	0.01425	0.00285
2.58603	0.01638	0.00328
2.58333	0.00198	3.965E-4
2.58065	0.01324	0.00265
2.57796	0.02835	0.00567
2.57529	0.01862	0.00372
2.57261	0.00855	0.00171
2.56995	0.00711	0.00142
2.56729	0.0157	0.00314
2.56463	0.01947	0.00389
2.56198	0.02284	0.00457
2.55934	0.0134	0.00268
2.5567	0.01139	0.00228
2.55407	0.00825	0.00165
2.55144	0.02067	0.00413
2.54882	0.01754	0.00351
2.5462	0.01506	0.00301
2.54359	0.00168	3.3672E-4
2.54098	0.03332	0.00666
2.53838	0.0012	2.3912E-4
2.53579	0.03189	0.00638
2.5332	0.04918	0.00984
2.53061	0.01372	0.00274
2.52803	0.02378	0.00476
2.52546	0.01621	0.00324
2.52289	0.04265	0.00853
2.52033	0.01616	0.00323
2.51777	0.05564	0.01113
2.51521	0.02333	0.00467
2.51266	0.04585	0.00917
2.51012	0.0482	0.00964
2.50758	0.04138	0.00828
2.50505	0.03656	0.00731
2.50252	0.02686	0.00537
2.5	0.06151	0.0123
2.49748	0.05985	0.01197
2.49497	0.04412	0.00882
2.49246	0.03037	0.00607
2.48996	0.02882	0.00576
2.48746	0.05126	0.01025
2.48497	0.08058	0.01612
2.48248	0.03648	0.0073
2.48	0.0669	0.01338
2.47752	0.05693	0.01139
2.47505	0.03714	0.00743
2.47258	0.06806	0.01361
2.47012	0.06323	0.01265
2.46766	0.0493	0.00986
2.46521	0.07854	0.01571
2.46276	0.08802	0.0176
2.46032	0.05693	0.01139
2.45788	0.07319	0.01464
2.45545	0.08711	0.01742
2.45302	0.09441	0.01888
2.45059	0.07092	0.01418
2.44817	0.06224	0.01245
2.44576	0.07508	0.01502
2.44335	0.11774	0.02355
2.44094	0.06125	0.01225
2.43854	0.09089	0.01818
2.43615	0.09226	0.01845
2.43376	0.08842	0.01768
2.43137	0.10566	0.02113
2.42899	0.08931	0.01786
2.42661	0.07492	0.01498
2.42424	0.09337	0.01867
2.42188	0.08635	0.01727
2.41951	0.10292	0.02058
2.41715	0.13477	0.02695
2.4148	0.11701	0.0234
2.41245	0.11796	0.02359
2.41011	0.09509	0.01902
2.40777	0.10726	0.02145
2.40543	0.12335	0.02467
2.4031	0.12267	0.02453
2.40077	0.10535	0.02107
2.39845	0.13016	0.02603
2.39614	0.12335	0.02467
2.39382	0.15656	0.03131
2.39151	0.1201	0.02402
2.38921	0.13007	0.02601
2.38691	0.11314	0.02263
2.38462	0.14049	0.0281
2.38232	0.13582	0.02716
2.38004	0.14778	0.02956
2.37776	0.17659	0.03532
2.37548	0.13981	0.02796
2.37321	0.15037	0.03007
2.37094	0.15484	0.03097
2.36867	0.15116	0.03023
2.36641	0.16663	0.03333
2.36416	0.16798	0.0336
2.3619	0.1634	0.03268
2.35966	0.17882	0.03576
2.35741	0.15606	0.03121
2.35518	0.16429	0.03286
2.35294	0.18099	0.0362
2.35071	0.17358	0.03472
2.34848	0.18606	0.03721
2.34626	0.18792	0.03758
2.34405	0.18456	0.03691
2.34183	0.19657	0.03931
2.33962	0.19163	0.03833
2.33742	0.18903	0.03781
2.33522	0.17767	0.03553
2.33302	0.19804	0.03961
2.33083	0.19853	0.03971
2.32864	0.21115	0.04223
2.32645	0.20023	0.04005
2.32427	0.22851	0.0457
2.3221	0.23361	0.04672
2.31993	0.21187	0.04237
2.31776	0.21915	0.04383
2.31559	0.24812	0.04962
2.31343	0.21626	0.04325
2.31128	0.23048	0.0461
2.30912	0.24403	0.04881
2.30698	0.21897	0.04379
2.30483	0.22256	0.04451
2.30269	0.25632	0.05126
2.30056	0.26197	0.05239
2.29842	0.28306	0.05661
2.2963	0.2667	0.05334
2.29417	0.24481	0.04896
2.29205	0.27181	0.05436
2.28994	0.26277	0.05255
2.28782	0.27188	0.05438
2.28571	0.29614	0.05923
2.28361	0.28503	0.05701
2.28151	0.30539	0.06108
2.27941	0.30007	0.06001
2.27732	0.27215	0.05443
2.27523	0.31749	0.0635
2.27314	0.3351	0.06702
2.27106	0.32544	0.06509
2.26898	0.30981	0.06196
2.26691	0.3191	0.06382
2.26484	0.33778	0.06756
2.26277	0.34219	0.06844
2.26071	0.33895	0.06779
2.25865	0.3297	0.06594
2.2566	0.36021	0.07204
2.25455	0.33095	0.06619
2.2525	0.33612	0.06722
2.25045	0.36248	0.0725
2.24841	0.3555	0.0711
2.24638	0.38791	0.07758
2.24434	0.4015	0.0803
2.24231	0.36652	0.0733
2.24029	0.38028	0.07606
2.23827	0.40179	0.08036
2.23625	0.39258	0.07852
2.23423	0.4144	0.08288
2.23222	0.427	0.0854
2.23022	0.42167	0.08433
2.22821	0.41268	0.08254
2.22621	0.4385	0.0877
2.22422	0.44649	0.0893
2.22222	0.4507	0.09014
2.22023	0.4616	0.09232
2.21825	0.45946	0.09189
2.21626	0.49223	0.09845
2.21429	0.49224	0.09845
2.21231	0.46642	0.09328
2.21034	0.50889	0.10178
2.20837	0.47165	0.09433
2.20641	0.47349	0.0947
2.20444	0.50555	0.10111
2.20249	0.54755	0.10951
2.20053	0.5338	0.10676
2.19858	0.54419	0.10884
2.19663	0.53679	0.10736
2.19469	0.55454	0.11091
2.19275	0.51396	0.10279
2.19081	0.55804	0.11161
2.18888	0.59877	0.11975
2.18695	0.56268	0.11254
2.18502	0.58793	0.11759
2.1831	0.58764	0.11753
2.18118	0.61773	0.12355
2.17926	0.61909	0.12382
2.17735	0.63472	0.12694
2.17544	0.64354	0.12871
2.17353	0.62106	0.12421
2.17163	0.68012	0.13602
2.16973	0.67648	0.1353
2.16783	0.6551	0.13102
2.16594	0.68323	0.13665
2.16405	0.64985	0.12997
2.16216	0.68911	0.13782
2.16028	0.70039	0.14008
2.1584	0.67316	0.13463
2.15652	0.71733	0.14347
2.15465	0.71906	0.14381
2.15278	0.74437	0.14887
2.15091	0.71971	0.14394
2.14905	0.75084	0.15017
2.14719	0.76113	0.15223
2.14533	0.75896	0.15179
2.14347	0.77593	0.15519
2.14162	0.76615	0.15323
2.13978	0.785	0.157
2.13793	0.85505	0.17101
2.13609	0.81526	0.16305
2.13425	0.80322	0.16064
2.13242	0.85039	0.17008
2.13058	0.85271	0.17054
2.12876	0.85089	0.17018
2.12693	0.86806	0.17361
2.12511	0.87356	0.17471
2.12329	0.90895	0.18179
2.12147	0.89409	0.17882
2.11966	0.88522	0.17704
2.11785	0.91135	0.18227
2.11604	0.87751	0.1755
2.11424	0.95799	0.1916
2.11244	0.9338	0.18676
2.11064	0.92477	0.18495
2.10884	0.95429	0.19086
2.10705	0.95538	0.19108
2.10526	0.94833	0.18967
2.10348	0.96777	0.19355
2.10169	0.98706	0.19741
2.09992	0.96903	0.19381
2.09814	0.97682	0.19536
2.09637	0.96748	0.1935
2.09459	1.00075	0.20015
2.09283	1.03649	0.2073
2.09106	1.0005	0.2001
2.0893	1.01953	0.20391
2.08754	1.10049	0.2201
2.08579	1.00365	0.20073
2.08403	1.04001	0.208
2.08228	1.05823	0.21165
2.08054	1.08068	0.21614
2.07879	1.05414	0.21083
2.07705	1.07333	0.21467
2.07531	1.11953	0.22391
2.07358	1.08904	0.21781
2.07185	1.11972	0.22394
2.07012	1.12463	0.22493
2.06839	1.10444	0.22089
2.06667	1.10913	0.22183
2.06495	1.10597	0.22119
2.06323	1.12527	0.22505
2.06151	1.16999	0.234
2.0598	1.10151	0.2203
2.05809	1.14692	0.22938
2.05638	1.17097	0.23419
2.05468	1.14339	0.22868
2.05298	1.17087	0.23417
2.05128	1.16029	0.23206
2.04959	1.16118	0.23224
2.04789	1.21156	0.24231
2.0462	1.17183	0.23437
2.04452	1.20279	0.24056
2.04283	1.16479	0.23296
2.04115	1.19261	0.23852
2.03947	1.22174	0.24435
2.0378	1.19012	0.23802
2.03612	1.21633	0.24327
2.03445	1.20443	0.24089
2.03279	1.22497	0.24499
2.03112	1.20296	0.24059
2.02946	1.21006	0.24201
2.0278	1.23255	0.24651
2.02614	1.19702	0.2394
2.02449	1.2159	0.24318
2.02284	1.24512	0.24902
2.02119	1.2299	0.24598
2.01954	1.21255	0.24251
2.0179	1.19256	0.23851
2.01626	1.21206	0.24241
2.01462	1.24421	0.24884
2.01299	1.20525	0.24105
2.01135	1.25653	0.25131
2.00972	1.23122	0.24624
2.0081	1.205	0.241
2.00647	1.27818	0.25564
2.00485	1.20114	0.24023
2.00323	1.25177	0.25035
2.00161	1.28043	0.25609
2	1.18712	0.23742
1.99839	1.22446	0.24489
1.99678	1.21683	0.24337
1.99517	1.21693	0.24339
1.99357	1.17754	0.23551
1.99197	1.2309	0.24618
1.99037	1.21016	0.24203
1.98877	1.2123	0.24246
1.98718	1.25297	0.25059
1.98559	1.18136	0.23627
1.984	1.16448	0.2329
1.98241	1.18393	0.23679
1.98083	1.16597	0.23319
1.97925	1.16701	0.2334
1.97767	1.17023	0.23405
1.9761	1.16067	0.23213
1.97452	1.17826	0.23565
1.97295	1.18277	0.23655
1.97138	1.17609	0.23522
1.96982	1.14993	0.22999
1.96825	1.1204	0.22408
1.96669	1.16315	0.23263
1.96513	1.11823	0.22365
1.96358	1.14069	0.22814
1.96203	1.1568	0.23136
1.96047	1.15745	0.23149
1.95893	1.10189	0.22038
1.95738	1.12986	0.22597
1.95584	1.13608	0.22722
1.95429	1.10949	0.2219
1.95276	1.06621	0.21324
1.95122	1.11729	0.22346
1.94969	1.08135	0.21627
1.94815	1.13112	0.22622
1.94662	1.11937	0.22387
1.9451	1.09304	0.21861
1.94357	1.0933	0.21866
1.94205	1.07661	0.21532
1.94053	1.09136	0.21827
1.93901	1.07973	0.21595
1.9375	1.05515	0.21103
1.93599	1.11662	0.22332
1.93448	1.08453	0.21691
1.93297	1.07059	0.21412
1.93146	1.09219	0.21844
1.92996	1.06162	0.21232
1.92846	1.09701	0.2194
1.92696	1.06688	0.21338
1.92547	1.0376	0.20752
1.92397	1.06305	0.21261
1.92248	1.04958	0.20992
1.92099	1.03698	0.2074
1.9195	1.06291	0.21258
1.91802	1.09543	0.21909
1.91654	1.05564	0.21113
1.91506	1.04088	0.20818
1.91358	1.08348	0.2167
1.9121	1.04299	0.2086
1.91063	1.03607	0.20721
1.90916	1.09435	0.21887
1.90769	1.01709	0.20342
1.90623	1.03935	0.20787
1.90476	1.05838	0.21168
1.9033	1.02584	0.20517
1.90184	1.03502	0.207
1.90038	0.99111	0.19822
1.89893	1.0309	0.20618
1.89748	1.04794	0.20959
1.89602	1.0229	0.20458
1.89458	1.06051	0.2121
1.89313	0.9754	0.19508
1.89169	1.05406	0.21081
1.89024	1.02152	0.2043
1.8888	1.02134	0.20427
1.88737	1.04724	0.20945
1.88593	1.01433	0.20287
1.8845	0.98526	0.19705
1.88307	1.01675	0.20335
1.88164	1.00799	0.2016
1.88021	1.02909	0.20582
1.87879	1.01269	0.20254
1.87737	1.02318	0.20464
1.87595	0.98825	0.19765
1.87453	1.01054	0.20211
1.87311	1.03415	0.20683
1.8717	0.99141	0.19828
1.87029	0.98223	0.19645
1.86888	1.0153	0.20306
1.86747	1.02839	0.20568
1.86606	1.02676	0.20535
1.86466	0.98575	0.19715
1.86326	1.01204	0.20241
1.86186	1.0119	0.20238
1.86047	1.00486	0.20097
1.85907	1.01043	0.20209
1.85768	0.99176	0.19835
1.85629	0.98309	0.19662
1.8549	1.01217	0.20243
1.85351	1.00478	0.20096
1.85213	1.03133	0.20627
1.85075	1.00044	0.20009
1.84937	1.00947	0.20189
1.84799	0.9945	0.1989
1.84661	0.96873	0.19375
1.84524	1.00645	0.20129
1.84387	0.98056	0.19611
1.8425	0.96207	0.19241
1.84113	1.02338	0.20468
1.83976	0.9571	0.19142
1.8384	1.0067	0.20134
1.83704	1.02394	0.20479
1.83568	0.93927	0.18785
1.83432	1.02231	0.20446
1.83296	1.02501	0.205
1.83161	1.02124	0.20425
1.83026	0.98968	0.19794
1.82891	0.98542	0.19708
1.82756	1.03652	0.2073
1.82622	0.98901	0.1978
1.82487	0.99951	0.1999
1.82353	0.99965	0.19993
1.82219	1.00427	0.20085
1.82085	1.01663	0.20333
1.81952	0.97996	0.19599
1.81818	0.97804	0.19561
1.81685	1.02242	0.20448
1.81552	0.99585	0.19917
1.81419	1.01213	0.20243
1.81287	1.00922	0.20184
1.81154	0.99501	0.199
1.81022	1.02915	0.20583
1.8089	0.99393	0.19879
1.80758	0.99805	0.19961
1.80626	0.98303	0.19661
1.80495	1.03241	0.20648
1.80364	0.99984	0.19997
1.80233	0.9911	0.19822
1.80102	0.97651	0.1953
1.79971	0.95358	0.19072
1.7984	0.99297	0.19859
1.7971	0.96427	0.19285
1.7958	1.00779	0.20156
1.7945	0.97871	0.19574
1.7932	0.9664	0.19328
1.79191	1.00144	0.20029
1.79061	1.04279	0.20856
1.78932	1.01782	0.20356
1.78803	0.98032	0.19606
1.78674	1.00096	0.20019
1.78546	0.95426	0.19085
1.78417	0.96496	0.19299
1.78289	0.99701	0.1994
1.78161	0.98946	0.19789
1.78033	1.01311	0.20262
1.77905	0.9856	0.19712
1.77778	1.01774	0.20355
1.7765	0.99314	0.19863
1.77523	0.98965	0.19793
1.77396	1.02148	0.2043
1.77269	0.98647	0.19729
1.77143	0.99318	0.19864
1.77016	0.9757	0.19514
1.7689	1.0601	0.21202
1.76764	1.04113	0.20823
1.76638	1.04233	0.20847
1.76512	1.02961	0.20592
1.76387	1.05582	0.21116
1.76262	1.03757	0.20751
1.76136	1.01819	0.20364
1.76011	1.03787	0.20757
1.75887	1.08703	0.21741
1.75762	1.04678	0.20936
1.75637	1.05257	0.21051
1.75513	1.03127	0.20625
1.75389	1.04939	0.20988
1.75265	1.06082	0.21216
1.75141	1.02548	0.2051
1.75018	1.032	0.2064
1.74894	1.06164	0.21233
1.74771	1.02001	0.204
1.74648	1.0527	0.21054
1.74525	1.04504	0.20901
1.74402	1.04606	0.20921
1.7428	1.04614	0.20923
1.74157	1.01385	0.20277
1.74035	1.05676	0.21135
1.73913	1.05171	0.21034
1.73791	1.05216	0.21043
1.73669	1.04381	0.20876
1.73548	1.03014	0.20603
1.73427	1.04372	0.20874
1.73305	1.0084	0.20168
1.73184	1.00167	0.20033
1.73064	1.05665	0.21133
1.72943	0.97715	0.19543
1.72822	1.00596	0.20119
1.72702	1.02053	0.20411
1.72582	0.9966	0.19932
1.72462	1.0163	0.20326
1.72342	1.00455	0.20091
1.72222	0.98014	0.19603
1.72103	1.00403	0.20081
1.71983	0.97324	0.19465
1.71864	1.00263	0.20053
1.71745	0.97621	0.19524
1.71626	1.0026	0.20052
1.71508	1.0059	0.20118
1.71389	0.99956	0.19991
1.71271	1.00788	0.20158
1.71153	0.99518	0.19904
1.71034	1.00017	0.20003
1.70917	1.01323	0.20265
1.70799	0.97449	0.1949
1.70681	0.95894	0.19179
1.70564	0.95772	0.19154
1.70447	0.97144	0.19429
1.7033	0.98617	0.19723
1.70213	0.97242	0.19448
1.70096	0.95348	0.1907
1.69979	0.98003	0.19601
1.69863	0.91912	0.18382
1.69747	0.97127	0.19425
1.69631	0.90534	0.18107
1.69515	0.94246	0.18849
1.69399	0.95371	0.19074
1.69283	0.96021	0.19204
1.69168	0.96814	0.19363
1.69052	0.94408	0.18882
1.68937	0.94518	0.18904
1.68822	0.92567	0.18513
1.68707	0.89915	0.17983
1.68593	0.93638	0.18728
1.68478	0.9105	0.1821
1.68364	0.92522	0.18504
1.6825	0.95874	0.19175
1.68136	0.87958	0.17592
1.68022	0.90706	0.18141
1.67908	0.91275	0.18255
1.67794	0.88719	0.17744
1.67681	0.90382	0.18076
1.67568	0.9086	0.18172
1.67454	0.88271	0.17654
1.67341	0.92177	0.18435
1.67229	0.87522	0.17504
1.67116	0.89524	0.17905
1.67003	0.84064	0.16813
1.66891	0.88446	0.17689
1.66779	0.87189	0.17438
1.66667	0.85076	0.17015
1.66555	0.85584	0.17117
1.66443	0.82277	0.16455
1.66331	0.84794	0.16959
1.6622	0.83968	0.16794
1.66109	0.81866	0.16373
1.65997	0.82048	0.1641
1.65886	0.87579	0.17516
1.65775	0.84597	0.16919
1.65665	0.83021	0.16604
1.65554	0.79066	0.15813
1.65444	0.82502	0.165
1.65333	0.81427	0.16285
1.65223	0.81438	0.16288
1.65113	0.80098	0.1602
1.65003	0.75172	0.15034
1.64894	0.78766	0.15753
1.64784	0.80573	0.16115
1.64675	0.76371	0.15274
1.64565	0.79562	0.15912
1.64456	0.76858	0.15372
1.64347	0.78186	0.15637
1.64238	0.7575	0.1515
1.6413	0.73333	0.14667
1.64021	0.76377	0.15275
1.63913	0.76213	0.15243
1.63804	0.72487	0.14497
1.63696	0.76041	0.15208
1.63588	0.72007	0.14401
1.63481	0.74329	0.14866
1.63373	0.73096	0.14619
1.63265	0.73409	0.14682
1.63158	0.69683	0.13937
1.63051	0.6741	0.13482
1.62943	0.6941	0.13882
1.62837	0.70676	0.14135
1.6273	0.70019	0.14004
1.62623	0.7074	0.14148
1.62516	0.67528	0.13506
1.6241	0.68942	0.13788
1.62304	0.67666	0.13533
1.62198	0.66936	0.13387
1.62092	0.67946	0.13589
1.61986	0.65591	0.13118
1.6188	0.66389	0.13278
1.61774	0.6783	0.13566
1.61669	0.6408	0.12816
1.61564	0.64196	0.12839
1.61458	0.61308	0.12262
1.61353	0.63434	0.12687
1.61248	0.63498	0.127
1.61144	0.63203	0.12641
1.61039	0.63207	0.12641
1.60934	0.60366	0.12073
1.6083	0.60267	0.12053
1.60726	0.60888	0.12178
1.60622	0.57337	0.11467
1.60518	0.58207	0.11641
1.60414	0.6022	0.12044
1.6031	0.58486	0.11697
1.60207	0.58553	0.11711
1.60103	0.54725	0.10945
1.6	0.5628	0.11256
1.59897	0.56204	0.11241
1.59794	0.54943	0.10989
1.59691	0.5581	0.11162
1.59588	0.57225	0.11445
1.59486	0.54048	0.1081
1.59383	0.5555	0.1111
1.59281	0.52354	0.10471
1.59178	0.53362	0.10672
1.59076	0.52179	0.10436
1.58974	0.52709	0.10542
1.58873	0.50631	0.10126
1.58771	0.51908	0.10382
1.58669	0.50684	0.10137
1.58568	0.49367	0.09873
1.58466	0.52787	0.10557
1.58365	0.47684	0.09537
1.58264	0.47454	0.09491
1.58163	0.49197	0.09839
1.58062	0.50338	0.10068
1.57962	0.51148	0.1023
1.57861	0.47435	0.09487
1.57761	0.46045	0.09209
1.57661	0.46905	0.09381
1.5756	0.47753	0.09551
1.5746	0.46309	0.09262
1.5736	0.47366	0.09473
1.57261	0.44979	0.08996
1.57161	0.46351	0.0927
1.57061	0.43742	0.08748
1.56962	0.4638	0.09276
1.56863	0.44847	0.08969
1.56764	0.42909	0.08582
1.56665	0.41115	0.08223
1.56566	0.42871	0.08574
1.56467	0.42113	0.08423
1.56368	0.41643	0.08329
1.5627	0.42114	0.08423
1.56171	0.39826	0.07965
1.56073	0.41545	0.08309
1.55975	0.38893	0.07779
1.55877	0.40801	0.0816
1.55779	0.36937	0.07387
1.55681	0.39072	0.07814
1.55583	0.38343	0.07669
1.55486	0.37483	0.07497
1.55388	0.37768	0.07554
1.55291	0.38827	0.07765
1.55194	0.3675	0.0735
1.55097	0.36573	0.07315
1.55	0.36177	0.07235
1.54903	0.35601	0.0712
1.54806	0.34901	0.0698
1.5471	0.38044	0.07609
1.54613	0.37016	0.07403
1.54517	0.35575	0.07115
1.54421	0.33526	0.06705
1.54325	0.35972	0.07194
1.54229	0.33871	0.06774
1.54133	0.36109	0.07222
1.54037	0.34814	0.06963
1.53942	0.32742	0.06548
1.53846	0.32804	0.06561
1.53751	0.32536	0.06507
1.53656	0.31469	0.06294
1.5356	0.30202	0.0604
1.53465	0.30191	0.06038
1.5337	0.34293	0.06859
1.53276	0.28411	0.05682
1.53181	0.3171	0.06342
1.53086	0.28516	0.05703
1.52992	0.2843	0.05686
1.52898	0.29684	0.05937
1.52803	0.31483	0.06297
1.52709	0.31221	0.06244
1.52615	0.30075	0.06015
1.52522	0.28968	0.05794
1.52428	0.27779	0.05556
1.52334	0.27257	0.05451
1.52241	0.28166	0.05633
1.52147	0.29554	0.05911
1.52054	0.24573	0.04915
1.51961	0.22748	0.0455
1.51868	0.24568	0.04914
1.51775	0.25945	0.05189
1.51682	0.26952	0.0539
1.51589	0.23135	0.04627
1.51497	0.25274	0.05055
1.51404	0.2512	0.05024
1.51312	0.2611	0.05222
1.5122	0.25646	0.05129
1.51127	0.24703	0.04941
1.51035	0.25611	0.05122
1.50943	0.23719	0.04744
1.50852	0.22421	0.04484
1.5076	0.25546	0.05109
1.50668	0.25011	0.05002
1.50577	0.24171	0.04834
1.50485	0.22125	0.04425
1.50394	0.24535	0.04907
1.50303	0.20447	0.04089
1.50212	0.25571	0.05114
1.50121	0.23662	0.04732
1.5003	0.23184	0.04637
1.4994	0.21271	0.04254
1.49849	0.21764	0.04353
1.49758	0.21815	0.04363
1.49668	0.19813	0.03963
1.49578	0.18469	0.03694
1.49488	0.21546	0.04309
1.49398	0.20097	0.04019
1.49308	0.21764	0.04353
1.49218	0.20953	0.04191
1.49128	0.20109	0.04022
1.49038	0.24087	0.04817
1.48949	0.21164	0.04233
1.4886	0.20799	0.0416
1.4877	0.20602	0.0412
1.48681	0.18823	0.03765
1.48592	0.22589	0.04518
1.48503	0.19703	0.03941
1.48414	0.18631	0.03726
1.48325	0.20495	0.04099
1.48237	0.16729	0.03346
1.48148	0.17652	0.0353
1.4806	0.20051	0.0401
1.47971	0.17723	0.03545
1.47883	0.18747	0.03749
1.47795	0.19485	0.03897
1.47707	0.18358	0.03672
1.47619	0.17383	0.03477
1.47531	0.18966	0.03793
1.47444	0.16142	0.03228
1.47356	0.16895	0.03379
1.47268	0.18949	0.0379
1.47181	0.18049	0.0361
1.47094	0.17758	0.03552
1.47007	0.16788	0.03358
1.46919	0.18553	0.03711
1.46832	0.18609	0.03722
1.46746	0.19088	0.03818
1.46659	0.17052	0.0341
1.46572	0.16724	0.03345
1.46486	0.17253	0.03451
1.46399	0.17772	0.03554
1.46313	0.16851	0.0337
1.46226	0.1778	0.03556
1.4614	0.15402	0.0308
1.46054	0.17333	0.03467
1.45968	0.16476	0.03295
1.45882	0.15632	0.03126
