<?xml version="1.0" encoding="UTF-8" standalone="no"?>
<!-- Created with Inkscape (http://www.inkscape.org/) -->

<svg
   xmlns:dc="http://purl.org/dc/elements/1.1/"
   xmlns:cc="http://creativecommons.org/ns#"
   xmlns:rdf="http://www.w3.org/1999/02/22-rdf-syntax-ns#"
   xmlns:svg="http://www.w3.org/2000/svg"
   xmlns="http://www.w3.org/2000/svg"
   xmlns:xlink="http://www.w3.org/1999/xlink"
   xmlns:sodipodi="http://sodipodi.sourceforge.net/DTD/sodipodi-0.dtd"
   xmlns:inkscape="http://www.inkscape.org/namespaces/inkscape"
   width="150mm"
   height="60mm"
   viewBox="0 0 150 60"
   version="1.1"
   id="svg8"
   inkscape:version="0.92.2 (5c3e80d, 2017-08-06)"
   sodipodi:docname="_layout_jpk_topography.svg">
  <defs
     id="defs2">
    <marker
       inkscape:isstock="true"
       style="overflow:visible;"
       id="marker4931"
       refX="0.0"
       refY="0.0"
       orient="auto"
       inkscape:stockid="Arrow1Mend">
      <path
         transform="scale(0.4) rotate(180) translate(10,0)"
         style="fill-rule:evenodd;stroke:#ffffff;stroke-width:1pt;stroke-opacity:1;fill:#ffffff;fill-opacity:1"
         d="M 0.0,0.0 L 5.0,-5.0 L -12.5,0.0 L 5.0,5.0 L 0.0,0.0 z "
         id="path4929" />
    </marker>
  </defs>
  <sodipodi:namedview
     id="base"
     pagecolor="#ffffff"
     bordercolor="#666666"
     borderopacity="1.0"
     inkscape:pageopacity="0.0"
     inkscape:pageshadow="2"
     inkscape:zoom="1.8071415"
     inkscape:cx="265.33681"
     inkscape:cy="113.59068"
     inkscape:document-units="mm"
     inkscape:current-layer="layer2"
     showgrid="false"
     inkscape:window-width="1858"
     inkscape:window-height="1177"
     inkscape:window-x="54"
     inkscape:window-y="-8"
     inkscape:window-maximized="1" />
  <metadata
     id="metadata5">
    <rdf:RDF>
      <cc:Work
         rdf:about="">
        <dc:format>image/svg+xml</dc:format>
        <dc:type
           rdf:resource="http://purl.org/dc/dcmitype/StillImage" />
        <dc:title></dc:title>
      </cc:Work>
    </rdf:RDF>
  </metadata>
  <g
     inkscape:label="Bitmaps"
     inkscape:groupmode="layer"
     id="layer1"
     transform="translate(0,-237)"
     style="display:inline">
    <image
       sodipodi:absref="C:\Repa\dip\img\svg\bitmaps/adhesion_256_noscale.png"
       xlink:href="bitmaps/adhesion_256_noscale.png"
       width="59.095146"
       height="59.095146"
       preserveAspectRatio="none"
       id="image4668"
       x="82.560539"
       y="237.3652" />
    <image
       sodipodi:absref="C:\Repa\dip\img\svg\bitmaps/nanorods_256_noscale.png"
       xlink:href="bitmaps/nanorods_256_noscale.png"
       width="59.095146"
       height="59.095146"
       preserveAspectRatio="none"
       id="image4679"
       x="9.0063162"
       y="237.3652" />
  </g>
  <g
     inkscape:groupmode="layer"
     id="layer2"
     inkscape:label="Labels"
     transform="translate(0,10)"
     style="display:inline">
    <rect
       style="opacity:1;fill:#ffffff;fill-opacity:1;stroke:#ffffff;stroke-width:0.19842908;stroke-miterlimit:4;stroke-dasharray:none;stroke-dashoffset:0;stroke-opacity:1"
       id="rect5279"
       width="11.426606"
       height="0.59743494"
       x="127.11198"
       y="47.392185" />
    <text
       xml:space="preserve"
       style="font-style:normal;font-weight:normal;font-size:10.90431786px;line-height:1.25;font-family:sans-serif;text-align:center;letter-spacing:0px;word-spacing:0px;text-anchor:middle;fill:#000000;fill-opacity:1;stroke:none;stroke-width:0.27260795"
       x="132.48067"
       y="45.497509"
       id="text5287"><tspan
         sodipodi:role="line"
         id="tspan5285"
         x="132.48067"
         y="45.497509"
         style="font-size:3.63477278px;text-align:center;text-anchor:middle;fill:#000000;stroke-width:0.27260795">\color{white}$500~\mathrm{nm}$</tspan></text>
    <rect
       y="47.396919"
       x="50.326752"
       height="0.58796591"
       width="15.05864"
       id="rect942"
       style="opacity:1;fill:#ffffff;fill-opacity:1;stroke:#ffffff;stroke-width:0.22598016;stroke-miterlimit:4;stroke-dasharray:none;stroke-dashoffset:0;stroke-opacity:1" />
    <text
       id="text946"
       y="45.497509"
       x="57.868202"
       style="font-style:normal;font-weight:normal;font-size:10.90431786px;line-height:1.25;font-family:sans-serif;text-align:center;letter-spacing:0px;word-spacing:0px;text-anchor:middle;fill:#000000;fill-opacity:1;stroke:none;stroke-width:0.27260795"
       xml:space="preserve"><tspan
         style="font-size:3.63477278px;text-align:center;text-anchor:middle;fill:#000000;stroke-width:0.27260795"
         y="45.497509"
         x="57.868202"
         id="tspan944"
         sodipodi:role="line">\color{white}$5~\si{\micro\metre}$</tspan></text>
  </g>
</svg>
