<?xml version="1.0" encoding="UTF-8" standalone="no"?>
<!-- Created with Inkscape (http://www.inkscape.org/) -->

<svg
   xmlns:dc="http://purl.org/dc/elements/1.1/"
   xmlns:cc="http://creativecommons.org/ns#"
   xmlns:rdf="http://www.w3.org/1999/02/22-rdf-syntax-ns#"
   xmlns:svg="http://www.w3.org/2000/svg"
   xmlns="http://www.w3.org/2000/svg"
   xmlns:xlink="http://www.w3.org/1999/xlink"
   xmlns:sodipodi="http://sodipodi.sourceforge.net/DTD/sodipodi-0.dtd"
   xmlns:inkscape="http://www.inkscape.org/namespaces/inkscape"
   width="150.96054mm"
   height="65mm"
   viewBox="0 0 150.96054 65.000001"
   version="1.1"
   id="svg8"
   inkscape:version="0.92.0 r15299"
   sodipodi:docname="flow_reactor.svg">
  <defs
     id="defs2">
    <pattern
       inkscape:collect="always"
       xlink:href="#Strips1_1"
       id="pattern21572"
       patternTransform="matrix(2.5619064,-0.85584661,5.2771839,10.83463,-19.313128,16.5739)" />
    <pattern
       inkscape:isstock="true"
       inkscape:stockid="Stripes 1:1"
       id="Strips1_1"
       patternTransform="translate(0,0) scale(10,10)"
       height="1"
       width="2"
       patternUnits="userSpaceOnUse"
       inkscape:collect="always">
      <rect
         id="rect20740"
         height="2"
         width="1"
         y="-0.5"
         x="0"
         style="fill:black;stroke:none" />
    </pattern>
    <marker
       inkscape:stockid="Arrow2Mend"
       orient="auto"
       refY="0"
       refX="0"
       id="marker19823"
       style="overflow:visible"
       inkscape:isstock="true">
      <path
         inkscape:connector-curvature="0"
         id="path19821"
         style="fill:#000000;fill-opacity:1;fill-rule:evenodd;stroke:#000000;stroke-width:0.625;stroke-linejoin:round;stroke-opacity:1"
         d="M 8.7185878,4.0337352 -2.2072895,0.01601326 8.7185884,-4.0017078 c -1.7454984,2.3720609 -1.7354408,5.6174519 -6e-7,8.035443 z"
         transform="scale(-0.6)" />
    </marker>
    <marker
       inkscape:stockid="Arrow2Mend"
       orient="auto"
       refY="0"
       refX="0"
       id="marker19670"
       style="overflow:visible"
       inkscape:isstock="true">
      <path
         inkscape:connector-curvature="0"
         id="path19668"
         style="fill:#000000;fill-opacity:1;fill-rule:evenodd;stroke:#000000;stroke-width:0.625;stroke-linejoin:round;stroke-opacity:1"
         d="M 8.7185878,4.0337352 -2.2072895,0.01601326 8.7185884,-4.0017078 c -1.7454984,2.3720609 -1.7354408,5.6174519 -6e-7,8.035443 z"
         transform="scale(-0.6)" />
    </marker>
    <marker
       inkscape:isstock="true"
       style="overflow:visible"
       id="marker19313"
       refX="0"
       refY="0"
       orient="auto"
       inkscape:stockid="Arrow2Mend">
      <path
         transform="scale(-0.6)"
         d="M 8.7185878,4.0337352 -2.2072895,0.01601326 8.7185884,-4.0017078 c -1.7454984,2.3720609 -1.7354408,5.6174519 -6e-7,8.035443 z"
         style="fill:#000000;fill-opacity:1;fill-rule:evenodd;stroke:#000000;stroke-width:0.625;stroke-linejoin:round;stroke-opacity:1"
         id="path19311"
         inkscape:connector-curvature="0" />
    </marker>
    <marker
       inkscape:stockid="Arrow2Mend"
       orient="auto"
       refY="0"
       refX="0"
       id="marker18823"
       style="overflow:visible"
       inkscape:isstock="true"
       inkscape:collect="always">
      <path
         inkscape:connector-curvature="0"
         id="path18821"
         style="fill:#000000;fill-opacity:1;fill-rule:evenodd;stroke:#000000;stroke-width:0.625;stroke-linejoin:round;stroke-opacity:1"
         d="M 8.7185878,4.0337352 -2.2072895,0.01601326 8.7185884,-4.0017078 c -1.7454984,2.3720609 -1.7354408,5.6174519 -6e-7,8.035443 z"
         transform="scale(-0.6)" />
    </marker>
    <marker
       inkscape:isstock="true"
       style="overflow:visible"
       id="marker18099"
       refX="0"
       refY="0"
       orient="auto"
       inkscape:stockid="Arrow2Mend"
       inkscape:collect="always">
      <path
         transform="scale(-0.6)"
         d="M 8.7185878,4.0337352 -2.2072895,0.01601326 8.7185884,-4.0017078 c -1.7454984,2.3720609 -1.7354408,5.6174519 -6e-7,8.035443 z"
         style="fill:#000000;fill-opacity:1;fill-rule:evenodd;stroke:#000000;stroke-width:0.625;stroke-linejoin:round;stroke-opacity:1"
         id="path18097"
         inkscape:connector-curvature="0" />
    </marker>
    <marker
       inkscape:stockid="Arrow2Mend"
       orient="auto"
       refY="0"
       refX="0"
       id="marker17943"
       style="overflow:visible"
       inkscape:isstock="true"
       inkscape:collect="always">
      <path
         inkscape:connector-curvature="0"
         id="path17941"
         style="fill:#000000;fill-opacity:1;fill-rule:evenodd;stroke:#000000;stroke-width:0.625;stroke-linejoin:round;stroke-opacity:1"
         d="M 8.7185878,4.0337352 -2.2072895,0.01601326 8.7185884,-4.0017078 c -1.7454984,2.3720609 -1.7354408,5.6174519 -6e-7,8.035443 z"
         transform="scale(-0.6)" />
    </marker>
    <marker
       inkscape:isstock="true"
       style="overflow:visible"
       id="marker17325"
       refX="0"
       refY="0"
       orient="auto"
       inkscape:stockid="Arrow2Mend">
      <path
         transform="scale(-0.6)"
         d="M 8.7185878,4.0337352 -2.2072895,0.01601326 8.7185884,-4.0017078 c -1.7454984,2.3720609 -1.7354408,5.6174519 -6e-7,8.035443 z"
         style="fill:#000000;fill-opacity:1;fill-rule:evenodd;stroke:#000000;stroke-width:0.625;stroke-linejoin:round;stroke-opacity:1"
         id="path17323"
         inkscape:connector-curvature="0" />
    </marker>
    <linearGradient
       inkscape:collect="always"
       id="linearGradient16956">
      <stop
         style="stop-color:#d35f5f;stop-opacity:1;"
         offset="0"
         id="stop16952" />
      <stop
         style="stop-color:#d35f5f;stop-opacity:0;"
         offset="1"
         id="stop16954" />
    </linearGradient>
    <marker
       inkscape:isstock="true"
       style="overflow:visible"
       id="marker16026"
       refX="0"
       refY="0"
       orient="auto"
       inkscape:stockid="Arrow2Mend"
       inkscape:collect="always">
      <path
         transform="scale(-0.6)"
         d="M 8.7185878,4.0337352 -2.2072895,0.01601326 8.7185884,-4.0017078 c -1.7454984,2.3720609 -1.7354408,5.6174519 -6e-7,8.035443 z"
         style="fill:#000000;fill-opacity:1;fill-rule:evenodd;stroke:#000000;stroke-width:0.625;stroke-linejoin:round;stroke-opacity:1"
         id="path16024"
         inkscape:connector-curvature="0" />
    </marker>
    <marker
       inkscape:isstock="true"
       style="overflow:visible"
       id="marker13162"
       refX="0"
       refY="0"
       orient="auto"
       inkscape:stockid="Arrow2Mend">
      <path
         transform="scale(-0.6)"
         d="M 8.7185878,4.0337352 -2.2072895,0.01601326 8.7185884,-4.0017078 c -1.7454984,2.3720609 -1.7354408,5.6174519 -6e-7,8.035443 z"
         style="fill:#000000;fill-opacity:1;fill-rule:evenodd;stroke:#000000;stroke-width:0.625;stroke-linejoin:round;stroke-opacity:1"
         id="path13160"
         inkscape:connector-curvature="0" />
    </marker>
    <marker
       inkscape:isstock="true"
       style="overflow:visible"
       id="marker12666"
       refX="0"
       refY="0"
       orient="auto"
       inkscape:stockid="Arrow2Mend">
      <path
         transform="scale(-0.6)"
         d="M 8.7185878,4.0337352 -2.2072895,0.01601326 8.7185884,-4.0017078 c -1.7454984,2.3720609 -1.7354408,5.6174519 -6e-7,8.035443 z"
         style="fill:#000000;fill-opacity:1;fill-rule:evenodd;stroke:#000000;stroke-width:0.625;stroke-linejoin:round;stroke-opacity:1"
         id="path12664"
         inkscape:connector-curvature="0" />
    </marker>
    <marker
       inkscape:stockid="Arrow2Mend"
       orient="auto"
       refY="0"
       refX="0"
       id="marker8786"
       style="overflow:visible"
       inkscape:isstock="true">
      <path
         id="path8784"
         style="fill:#000000;fill-opacity:1;fill-rule:evenodd;stroke:#000000;stroke-width:0.625;stroke-linejoin:round;stroke-opacity:1"
         d="M 8.7185878,4.0337352 -2.2072895,0.01601326 8.7185884,-4.0017078 c -1.7454984,2.3720609 -1.7354408,5.6174519 -6e-7,8.035443 z"
         transform="scale(-0.6)"
         inkscape:connector-curvature="0" />
    </marker>
    <marker
       inkscape:isstock="true"
       style="overflow:visible"
       id="marker8024"
       refX="0"
       refY="0"
       orient="auto"
       inkscape:stockid="Arrow2Mend">
      <path
         transform="scale(-0.6)"
         d="M 8.7185878,4.0337352 -2.2072895,0.01601326 8.7185884,-4.0017078 c -1.7454984,2.3720609 -1.7354408,5.6174519 -6e-7,8.035443 z"
         style="fill:#000000;fill-opacity:1;fill-rule:evenodd;stroke:#000000;stroke-width:0.625;stroke-linejoin:round;stroke-opacity:1"
         id="path8022"
         inkscape:connector-curvature="0" />
    </marker>
    <marker
       inkscape:stockid="Arrow2Lstart"
       orient="auto"
       refY="0"
       refX="0"
       id="Arrow2Lstart"
       style="overflow:visible"
       inkscape:isstock="true">
      <path
         id="path5924"
         style="fill:#000000;fill-opacity:1;fill-rule:evenodd;stroke:#000000;stroke-width:0.625;stroke-linejoin:round;stroke-opacity:1"
         d="M 8.7185878,4.0337352 -2.2072895,0.01601326 8.7185884,-4.0017078 c -1.7454984,2.3720609 -1.7354408,5.6174519 -6e-7,8.035443 z"
         transform="matrix(1.1,0,0,1.1,1.1,0)"
         inkscape:connector-curvature="0" />
    </marker>
    <marker
       inkscape:stockid="ExperimentalArrow"
       orient="auto-start-reverse"
       refY="3"
       refX="5"
       id="ExperimentalArrow"
       inkscape:isstock="true">
      <path
         id="path6159"
         d="M 10,3 0,6 V 0 Z"
         style="fill:context-stroke;stroke:#000000;stroke-opacity:1"
         inkscape:connector-curvature="0" />
    </marker>
    <marker
       inkscape:stockid="Tail"
       orient="auto"
       refY="0"
       refX="0"
       id="Tail"
       style="overflow:visible"
       inkscape:isstock="true">
      <g
         id="g5954"
         transform="scale(-1.2)"
         style="fill:#000000;fill-opacity:1;stroke:#000000;stroke-opacity:1">
        <path
           id="path6348"
           d="M -3.8048674,-3.9585227 0.54352094,0"
           style="fill:#000000;fill-opacity:1;fill-rule:evenodd;stroke:#000000;stroke-width:0.80000001;stroke-linecap:round;stroke-opacity:1"
           inkscape:connector-curvature="0" />
        <path
           id="path6350"
           d="M -1.2866832,-3.9585227 3.0617053,0"
           style="fill:#000000;fill-opacity:1;fill-rule:evenodd;stroke:#000000;stroke-width:0.80000001;stroke-linecap:round;stroke-opacity:1"
           inkscape:connector-curvature="0" />
        <path
           id="path5946"
           d="M 1.3053582,-3.9585227 5.6537466,0"
           style="fill:#000000;fill-opacity:1;fill-rule:evenodd;stroke:#000000;stroke-width:0.80000001;stroke-linecap:round;stroke-opacity:1"
           inkscape:connector-curvature="0" />
        <path
           id="path5948"
           d="M -3.8048674,4.1775838 0.54352094,0.21974226"
           style="fill:#000000;fill-opacity:1;fill-rule:evenodd;stroke:#000000;stroke-width:0.80000001;stroke-linecap:round;stroke-opacity:1"
           inkscape:connector-curvature="0" />
        <path
           id="path5950"
           d="M -1.2866832,4.1775838 3.0617053,0.21974226"
           style="fill:#000000;fill-opacity:1;fill-rule:evenodd;stroke:#000000;stroke-width:0.80000001;stroke-linecap:round;stroke-opacity:1"
           inkscape:connector-curvature="0" />
        <path
           id="path5952"
           d="M 1.3053582,4.1775838 5.6537466,0.21974226"
           style="fill:#000000;fill-opacity:1;fill-rule:evenodd;stroke:#000000;stroke-width:0.80000001;stroke-linecap:round;stroke-opacity:1"
           inkscape:connector-curvature="0" />
      </g>
    </marker>
    <marker
       inkscape:stockid="Arrow1Mend"
       orient="auto"
       refY="0"
       refX="0"
       id="marker6268"
       style="overflow:visible"
       inkscape:isstock="true">
      <path
         inkscape:connector-curvature="0"
         id="path6266"
         d="M 0,0 5,-5 -12.5,0 5,5 Z"
         style="fill:#000000;fill-opacity:1;fill-rule:evenodd;stroke:#000000;stroke-width:1.00000003pt;stroke-opacity:1"
         transform="matrix(-0.4,0,0,-0.4,-4,0)" />
    </marker>
    <marker
       inkscape:stockid="Arrow2Lend"
       orient="auto"
       refY="0"
       refX="0"
       id="Arrow2Lend"
       style="overflow:visible"
       inkscape:isstock="true">
      <path
         id="path5927"
         style="fill:#000000;fill-opacity:1;fill-rule:evenodd;stroke:#000000;stroke-width:0.625;stroke-linejoin:round;stroke-opacity:1"
         d="M 8.7185878,4.0337352 -2.2072895,0.01601326 8.7185884,-4.0017078 c -1.7454984,2.3720609 -1.7354408,5.6174519 -6e-7,8.035443 z"
         transform="matrix(-1.1,0,0,-1.1,-1.1,0)"
         inkscape:connector-curvature="0" />
    </marker>
    <marker
       inkscape:isstock="true"
       style="overflow:visible"
       id="marker6906"
       refX="0"
       refY="0"
       orient="auto"
       inkscape:stockid="Arrow1Mend">
      <path
         transform="matrix(-0.4,0,0,-0.4,-4,0)"
         style="fill:#000000;fill-opacity:1;fill-rule:evenodd;stroke:#000000;stroke-width:1.00000003pt;stroke-opacity:1"
         d="M 0,0 5,-5 -12.5,0 5,5 Z"
         id="path6904"
         inkscape:connector-curvature="0" />
    </marker>
    <marker
       inkscape:stockid="Arrow1Send"
       orient="auto"
       refY="0"
       refX="0"
       id="Arrow1Send"
       style="overflow:visible"
       inkscape:isstock="true">
      <path
         id="path4571"
         d="M 0,0 5,-5 -12.5,0 5,5 Z"
         style="fill:#000000;fill-opacity:1;fill-rule:evenodd;stroke:#000000;stroke-width:1.00000003pt;stroke-opacity:1"
         transform="matrix(-0.2,0,0,-0.2,-1.2,0)"
         inkscape:connector-curvature="0" />
    </marker>
    <marker
       inkscape:stockid="Arrow1Mend"
       orient="auto"
       refY="0"
       refX="0"
       id="Arrow1Mend"
       style="overflow:visible"
       inkscape:isstock="true">
      <path
         id="path4565"
         d="M 0,0 5,-5 -12.5,0 5,5 Z"
         style="fill:#000000;fill-opacity:1;fill-rule:evenodd;stroke:#000000;stroke-width:1.00000003pt;stroke-opacity:1"
         transform="matrix(-0.4,0,0,-0.4,-4,0)"
         inkscape:connector-curvature="0" />
    </marker>
    <marker
       inkscape:isstock="true"
       style="overflow:visible"
       id="marker9022-7"
       refX="0"
       refY="0"
       orient="auto"
       inkscape:stockid="Arrow2Mend">
      <path
         inkscape:connector-curvature="0"
         transform="scale(-0.6)"
         d="M 8.7185878,4.0337352 -2.2072895,0.01601326 8.7185884,-4.0017078 c -1.7454984,2.3720609 -1.7354408,5.6174519 -6e-7,8.035443 z"
         style="fill:#000000;fill-opacity:1;fill-rule:evenodd;stroke:#000000;stroke-width:0.625;stroke-linejoin:round;stroke-opacity:1"
         id="path9020-0" />
    </marker>
    <linearGradient
       inkscape:collect="always"
       xlink:href="#linearGradient16956"
       id="linearGradient16958"
       x1="75.619942"
       y1="-1.2038985"
       x2="75.619942"
       y2="52.580753"
       gradientUnits="userSpaceOnUse"
       gradientTransform="matrix(1.2631159,0,0,1.036327,-20.591412,4.9738052)" />
  </defs>
  <sodipodi:namedview
     id="base"
     pagecolor="#ffffff"
     bordercolor="#666666"
     borderopacity="1.0"
     inkscape:pageopacity="0.0"
     inkscape:pageshadow="2"
     inkscape:zoom="2.0517642"
     inkscape:cx="272.11192"
     inkscape:cy="63.873837"
     inkscape:document-units="mm"
     inkscape:current-layer="layer6"
     showgrid="false"
     fit-margin-top="0"
     fit-margin-left="0"
     fit-margin-right="0"
     fit-margin-bottom="0"
     inkscape:window-width="1920"
     inkscape:window-height="1017"
     inkscape:window-x="1912"
     inkscape:window-y="-8"
     inkscape:window-maximized="1"
     inkscape:measure-start="0,0"
     inkscape:measure-end="0,0" />
  <metadata
     id="metadata5">
    <rdf:RDF>
      <cc:Work
         rdf:about="">
        <dc:format>image/svg+xml</dc:format>
        <dc:type
           rdf:resource="http://purl.org/dc/dcmitype/StillImage" />
        <dc:title />
      </cc:Work>
    </rdf:RDF>
  </metadata>
  <g
     inkscape:groupmode="layer"
     id="layer7"
     inkscape:label="Gradient"
     style="display:inline">
    <rect
       y="4.2863674"
       x="17.498589"
       height="57.563316"
       width="119.49415"
       id="rect16950"
       style="display:inline;fill:url(#linearGradient16958);fill-opacity:1;stroke:none;stroke-width:3.1350708;stroke-miterlimit:4;stroke-dasharray:none;stroke-opacity:1" />
  </g>
  <g
     inkscape:groupmode="layer"
     id="layer3"
     inkscape:label="Frame"
     transform="translate(0,5)"
     style="display:inline">
    <path
       style="fill:#cccccc;fill-opacity:1;stroke:#000000;stroke-width:0.18;stroke-miterlimit:4;stroke-dasharray:none;stroke-opacity:1"
       d="m 16.915993,-1.2427991 -0.04691,34.3048651 11.862367,-0.0971 V 7.0002757 h 99.68536 V 32.964967 l 9.09871,-0.0971 -0.0373,-34.3048661 z m -0.04691,41.9802561 0.04691,16.791923 120.562237,-0.194199 0.0373,-16.791923 -9.09871,0.0971 V 55.010911 H 28.731452 V 40.640358 Z"
       id="rect11338"
       inkscape:connector-curvature="0"
       sodipodi:nodetypes="cccccccccccccccccc" />
  </g>
  <g
     inkscape:groupmode="layer"
     id="layer8"
     inkscape:label="Remover" />
  <g
     inkscape:groupmode="layer"
     id="layer9"
     inkscape:label="NRs">
    <g
       id="g4739"
       style="fill:#b8e3eb;fill-opacity:1">
      <rect
         y="19.891151"
         x="33.40189"
         height="19.005049"
         width="5.2933664"
         id="rect16924"
         style="display:inline;fill:#b8e3eb;fill-opacity:1;stroke:#000000;stroke-width:0.18;stroke-miterlimit:4;stroke-dasharray:none;stroke-opacity:1" />
      <rect
         style="display:inline;fill:#b8e3eb;fill-opacity:1;stroke:#000000;stroke-width:0.18;stroke-miterlimit:4;stroke-dasharray:none;stroke-opacity:1"
         id="rect16926"
         width="5.2933664"
         height="16.602612"
         x="41.072906"
         y="19.891151" />
      <rect
         y="19.891151"
         x="48.743927"
         height="14.736567"
         width="5.2933664"
         id="rect16928"
         style="display:inline;fill:#b8e3eb;fill-opacity:1;stroke:#000000;stroke-width:0.18;stroke-miterlimit:4;stroke-dasharray:none;stroke-opacity:1" />
      <rect
         style="display:inline;fill:#b8e3eb;fill-opacity:1;stroke:#000000;stroke-width:0.18;stroke-miterlimit:4;stroke-dasharray:none;stroke-opacity:1"
         id="rect16930"
         width="5.2933664"
         height="13.430453"
         x="56.414948"
         y="19.891151" />
      <rect
         y="19.891151"
         x="64.085976"
         height="12.00782"
         width="5.2933664"
         id="rect16932"
         style="display:inline;fill:#b8e3eb;fill-opacity:1;stroke:#000000;stroke-width:0.18;stroke-miterlimit:4;stroke-dasharray:none;stroke-opacity:1" />
      <rect
         style="display:inline;fill:#b8e3eb;fill-opacity:1;stroke:#000000;stroke-width:0.18;stroke-miterlimit:4;stroke-dasharray:none;stroke-opacity:1"
         id="rect16934"
         width="5.2933664"
         height="10.937728"
         x="71.756989"
         y="19.891151" />
      <rect
         y="19.891151"
         x="79.428001"
         height="10.161242"
         width="5.2933664"
         id="rect16936"
         style="display:inline;fill:#b8e3eb;fill-opacity:1;stroke:#000000;stroke-width:0.18;stroke-miterlimit:4;stroke-dasharray:none;stroke-opacity:1" />
      <rect
         style="display:inline;fill:#b8e3eb;fill-opacity:1;stroke:#000000;stroke-width:0.18;stroke-miterlimit:4;stroke-dasharray:none;stroke-opacity:1"
         id="rect16938"
         width="5.2933664"
         height="9.7403107"
         x="87.098999"
         y="19.891151" />
      <rect
         y="19.891151"
         x="94.770027"
         height="9.2109632"
         width="5.2933664"
         id="rect16940"
         style="display:inline;fill:#b8e3eb;fill-opacity:1;stroke:#000000;stroke-width:0.18;stroke-miterlimit:4;stroke-dasharray:none;stroke-opacity:1" />
      <rect
         style="display:inline;fill:#b8e3eb;fill-opacity:1;stroke:#000000;stroke-width:0.18;stroke-miterlimit:4;stroke-dasharray:none;stroke-opacity:1"
         id="rect16942"
         width="5.2933664"
         height="8.7900305"
         x="102.44106"
         y="19.891151" />
      <rect
         y="19.891151"
         x="110.11205"
         height="8.384243"
         width="5.2933664"
         id="rect16944"
         style="display:inline;fill:#b8e3eb;fill-opacity:1;stroke:#000000;stroke-width:0.18;stroke-miterlimit:4;stroke-dasharray:none;stroke-opacity:1" />
      <rect
         style="display:inline;fill:#b8e3eb;fill-opacity:1;stroke:#000000;stroke-width:0.18;stroke-miterlimit:4;stroke-dasharray:none;stroke-opacity:1"
         id="rect16946"
         width="5.2933664"
         height="7.9457626"
         x="117.78307"
         y="19.891151" />
    </g>
    <path
       style="fill:none;stroke:#000000;stroke-width:0.30449629;stroke-linecap:butt;stroke-linejoin:miter;stroke-miterlimit:4;stroke-dasharray:0.91348889, 0.3044963;stroke-dashoffset:0;stroke-opacity:1"
       d="m 28.83444,37.964967 c 0.03982,7.17e-4 17.157064,11.970385 54.322357,15.787242 29.262423,3.005236 45.426343,3.144116 45.426343,3.144116"
       id="path16993"
       inkscape:connector-curvature="0"
       sodipodi:nodetypes="csc" />
    <g
       id="g19819"
       transform="matrix(1.0456764,0,0,1.0456764,-17.666635,-0.64325513)">
      <path
         sodipodi:nodetypes="cc"
         inkscape:connector-curvature="0"
         id="path16995"
         d="m 30.305538,39.096617 h 7.881553"
         style="fill:none;stroke:#000000;stroke-width:0.17798877px;stroke-linecap:butt;stroke-linejoin:miter;stroke-opacity:1;marker-end:url(#marker16026)" />
      <path
         style="fill:none;stroke:#000000;stroke-width:0.17798877px;stroke-linecap:butt;stroke-linejoin:miter;stroke-opacity:1;marker-end:url(#marker17943)"
         d="m 30.305538,40.520527 h 7.881553"
         id="path17939"
         inkscape:connector-curvature="0"
         sodipodi:nodetypes="cc" />
      <path
         sodipodi:nodetypes="cc"
         inkscape:connector-curvature="0"
         id="path18095"
         d="m 30.305538,41.944438 h 7.881553"
         style="fill:none;stroke:#000000;stroke-width:0.17798877px;stroke-linecap:butt;stroke-linejoin:miter;stroke-opacity:1;marker-end:url(#marker19670)" />
    </g>
    <g
       id="g19990"
       transform="matrix(1.0456764,0,0,1.0456764,-8.6556099,-0.64325513)">
      <path
         style="fill:none;stroke:#000000;stroke-width:0.17798877px;stroke-linecap:butt;stroke-linejoin:miter;stroke-opacity:1;marker-end:url(#marker18823)"
         d="m 56.640763,39.096617 h 7.881553"
         id="path18815"
         inkscape:connector-curvature="0"
         sodipodi:nodetypes="cc" />
      <path
         sodipodi:nodetypes="cc"
         inkscape:connector-curvature="0"
         id="path18817"
         d="m 56.640763,40.520527 h 7.881553"
         style="fill:none;stroke:#000000;stroke-width:0.17798877px;stroke-linecap:butt;stroke-linejoin:miter;stroke-opacity:1;marker-end:url(#marker17943)" />
      <path
         style="fill:none;stroke:#000000;stroke-width:0.17798877px;stroke-linecap:butt;stroke-linejoin:miter;stroke-opacity:1;marker-end:url(#marker19823)"
         d="m 56.640763,41.944438 h 7.881553"
         id="path18819"
         inkscape:connector-curvature="0"
         sodipodi:nodetypes="cc" />
    </g>
    <g
       id="g19666"
       transform="matrix(1.0456764,0,0,1.0456764,11.76228,-0.64325513)">
      <path
         sodipodi:nodetypes="cc"
         inkscape:connector-curvature="0"
         id="path19305"
         d="m 79.658164,39.096617 h 7.881553"
         style="fill:none;stroke:#000000;stroke-width:0.17798877px;stroke-linecap:butt;stroke-linejoin:miter;stroke-opacity:1;marker-end:url(#marker19313)" />
      <path
         style="fill:none;stroke:#000000;stroke-width:0.17798877px;stroke-linecap:butt;stroke-linejoin:miter;stroke-opacity:1;marker-end:url(#marker17943)"
         d="m 79.658164,40.520527 h 7.881553"
         id="path19307"
         inkscape:connector-curvature="0"
         sodipodi:nodetypes="cc" />
      <path
         sodipodi:nodetypes="cc"
         inkscape:connector-curvature="0"
         id="path19309"
         d="m 79.658164,41.944438 h 7.881553"
         style="fill:none;stroke:#000000;stroke-width:0.17798877px;stroke-linecap:butt;stroke-linejoin:miter;stroke-opacity:1;marker-end:url(#marker18099)" />
    </g>
    <g
       id="g19998"
       transform="matrix(1.0456764,0,0,1.0456764,72.380183,-0.64325513)">
      <path
         sodipodi:nodetypes="cc"
         inkscape:connector-curvature="0"
         id="path19992"
         d="m 56.640763,39.096617 h 7.881553"
         style="fill:none;stroke:#000000;stroke-width:0.17798877px;stroke-linecap:butt;stroke-linejoin:miter;stroke-opacity:1;marker-end:url(#marker18823)" />
      <path
         style="fill:none;stroke:#000000;stroke-width:0.17798877px;stroke-linecap:butt;stroke-linejoin:miter;stroke-opacity:1;marker-end:url(#marker17943)"
         d="m 56.640763,40.520527 h 7.881553"
         id="path19994"
         inkscape:connector-curvature="0"
         sodipodi:nodetypes="cc" />
      <path
         sodipodi:nodetypes="cc"
         inkscape:connector-curvature="0"
         id="path19996"
         d="m 56.640763,41.944438 h 7.881553"
         style="fill:none;stroke:#000000;stroke-width:0.17798877px;stroke-linecap:butt;stroke-linejoin:miter;stroke-opacity:1;marker-end:url(#marker19823)" />
    </g>
    <rect
       style="fill:url(#pattern21572);fill-opacity:1;stroke:#000000;stroke-width:0.18;stroke-miterlimit:4;stroke-dasharray:none;stroke-dashoffset:0;stroke-opacity:1"
       id="rect20022"
       width="99.704124"
       height="2.6993656"
       x="28.731449"
       y="12.000275" />
  </g>
  <g
     inkscape:groupmode="layer"
     id="layer6"
     inkscape:label="Substrate"
     transform="translate(0,-20)"
     style="display:inline">
    <rect
       style="fill:#999999;fill-opacity:1;stroke:#000000;stroke-width:0.18;stroke-miterlimit:4;stroke-dasharray:none;stroke-opacity:1"
       id="rect16922"
       width="109.10784"
       height="5.3618932"
       x="24.193298"
       y="34.62252" />
  </g>
  <g
     inkscape:groupmode="layer"
     id="layer10"
     inkscape:label="Labels">
    <text
       xml:space="preserve"
       style="font-style:normal;font-variant:normal;font-weight:normal;font-stretch:normal;font-size:3.68891382px;line-height:6.91671324px;font-family:sans-serif;-inkscape-font-specification:sans-serif;letter-spacing:0px;word-spacing:0px;fill:#000000;fill-opacity:1;stroke:none;stroke-width:0.27666852"
       x="68.522995"
       y="18.408007"
       id="text20002"><tspan
         sodipodi:role="line"
         id="tspan20000"
         x="68.522995"
         y="18.408007"
         style="stroke-width:0.27666852">substrate</tspan></text>
    <text
       id="text20009"
       y="9.084074"
       x="63.676796"
       style="font-style:normal;font-variant:normal;font-weight:normal;font-stretch:normal;font-size:3.68891382px;line-height:6.91671324px;font-family:sans-serif;-inkscape-font-specification:sans-serif;letter-spacing:0px;word-spacing:0px;fill:#000000;fill-opacity:1;stroke:none;stroke-width:0.27666852"
       xml:space="preserve"><tspan
         style="stroke-width:0.27666852"
         y="9.084074"
         x="63.676796"
         id="tspan20007"
         sodipodi:role="line">contact heater</tspan></text>
    <text
       xml:space="preserve"
       style="font-style:normal;font-variant:normal;font-weight:normal;font-stretch:normal;font-size:3.68891382px;line-height:6.91671324px;font-family:sans-serif;-inkscape-font-specification:sans-serif;text-align:center;letter-spacing:0px;word-spacing:0px;text-anchor:middle;fill:#000000;fill-opacity:1;stroke:none;stroke-width:0.27666852"
       x="78.021172"
       y="42.329807"
       id="text20013"><tspan
         sodipodi:role="line"
         id="tspan20011"
         x="78.021172"
         y="42.329807"
         style="text-align:center;text-anchor:middle;stroke-width:0.27666852">flow direction</tspan></text>
    <text
       id="text20017"
       y="53.207432"
       x="45.358154"
       style="font-style:normal;font-variant:normal;font-weight:normal;font-stretch:normal;font-size:3.68891382px;line-height:6.91671324px;font-family:sans-serif;-inkscape-font-specification:sans-serif;letter-spacing:0px;word-spacing:0px;fill:#000000;fill-opacity:1;stroke:none;stroke-width:0.27666852"
       xml:space="preserve"><tspan
         style="stroke-width:0.27666852"
         y="53.207432"
         x="45.358154"
         id="tspan20015"
         sodipodi:role="line">$\mathrm{[Zn]_{total}}$</tspan></text>
  </g>
</svg>
