<?xml version="1.0" encoding="UTF-8" standalone="no"?>
<!-- Created with Inkscape (http://www.inkscape.org/) -->

<svg
   xmlns:dc="http://purl.org/dc/elements/1.1/"
   xmlns:cc="http://creativecommons.org/ns#"
   xmlns:rdf="http://www.w3.org/1999/02/22-rdf-syntax-ns#"
   xmlns:svg="http://www.w3.org/2000/svg"
   xmlns="http://www.w3.org/2000/svg"
   xmlns:sodipodi="http://sodipodi.sourceforge.net/DTD/sodipodi-0.dtd"
   xmlns:inkscape="http://www.inkscape.org/namespaces/inkscape"
   width="150mm"
   height="60mm"
   viewBox="0 0 150 60"
   version="1.1"
   id="svg5342"
   inkscape:version="0.92.0 r15299"
   sodipodi:docname="nmiv2.svg">
  <defs
     id="defs5336">
    <marker
       inkscape:stockid="Arrow1Mend"
       orient="auto"
       refY="0.0"
       refX="0.0"
       id="Arrow1Mend"
       style="overflow:visible;"
       inkscape:isstock="true">
      <path
         id="path6130"
         d="M 0.0,0.0 L 5.0,-5.0 L -12.5,0.0 L 5.0,5.0 L 0.0,0.0 z "
         style="fill-rule:evenodd;stroke:#000000;stroke-width:1pt;stroke-opacity:1;fill:#000000;fill-opacity:1"
         transform="scale(0.4) rotate(180) translate(10,0)" />
    </marker>
  </defs>
  <sodipodi:namedview
     id="base"
     pagecolor="#ffffff"
     bordercolor="#666666"
     borderopacity="1.0"
     inkscape:pageopacity="0.0"
     inkscape:pageshadow="2"
     inkscape:zoom="3.1912097"
     inkscape:cx="294.44415"
     inkscape:cy="112.88804"
     inkscape:document-units="mm"
     inkscape:current-layer="layer10"
     showgrid="false"
     inkscape:window-width="1920"
     inkscape:window-height="1017"
     inkscape:window-x="-8"
     inkscape:window-y="-8"
     inkscape:window-maximized="1" />
  <metadata
     id="metadata5339">
    <rdf:RDF>
      <cc:Work
         rdf:about="">
        <dc:format>image/svg+xml</dc:format>
        <dc:type
           rdf:resource="http://purl.org/dc/dcmitype/StillImage" />
        <dc:title></dc:title>
      </cc:Work>
    </rdf:RDF>
  </metadata>
  <g
     inkscape:label="Layer 1"
     inkscape:groupmode="layer"
     id="layer1"
     transform="translate(0,-237)">
    <path
       style="display:inline;fill:none;stroke:#000000;stroke-width:0.25216126px;stroke-linecap:butt;stroke-linejoin:miter;stroke-opacity:1"
       d="M 35.206157,278.40668 V 266.78344 H 46.622909"
       id="path5003"
       inkscape:connector-curvature="0"
       sodipodi:nodetypes="ccc" />
    <path
       style="display:inline;fill:none;stroke:#000000;stroke-width:0.25216126px;stroke-linecap:butt;stroke-linejoin:miter;stroke-opacity:1"
       d="m 55.469062,266.72115 h 9.630199 v 11.68553"
       id="path5005"
       inkscape:connector-curvature="0"
       sodipodi:nodetypes="ccc" />
    <path
       style="display:inline;fill:none;stroke:#000000;stroke-width:0.25216126px;stroke-linecap:butt;stroke-linejoin:miter;stroke-opacity:1"
       d="m 65.099261,266.72115 v -26.54289 h 3.689661"
       id="path5003-0"
       inkscape:connector-curvature="0"
       sodipodi:nodetypes="ccc" />
    <path
       style="display:inline;fill:none;stroke:#000000;stroke-width:0.25216126px;stroke-linecap:butt;stroke-linejoin:miter;stroke-opacity:1"
       d="m 78.368725,240.11598 h 18.64837"
       id="path5005-9"
       inkscape:connector-curvature="0"
       sodipodi:nodetypes="cc" />
    <rect
       style="display:inline;opacity:1;fill:#b3b3b3;fill-opacity:1;stroke:none;stroke-width:0.39978287;stroke-linejoin:bevel;stroke-miterlimit:4;stroke-dasharray:none;stroke-dashoffset:3.00472426;stroke-opacity:1"
       id="rect4932"
       width="114.66458"
       height="6.1891303"
       x="18.763681"
       y="284.40598" />
    <path
       style="display:inline;fill:#84a9e0;fill-opacity:1;stroke:none;stroke-width:0.3160176px;stroke-linecap:butt;stroke-linejoin:miter;stroke-opacity:0"
       d="m 107.1933,284.11728 1.58284,-38.53765 h 7.97257 l 1.58278,38.53765 z"
       id="path4940"
       inkscape:connector-curvature="0" />
    <rect
       style="display:inline;opacity:1;fill:#ffcc00;fill-opacity:1;stroke:none;stroke-width:0.30643746;stroke-linejoin:bevel;stroke-miterlimit:4;stroke-dasharray:none;stroke-dashoffset:3.00472426;stroke-opacity:1"
       id="rect4946-0"
       width="15.870336"
       height="4.2473631"
       x="27.211531"
       y="275.92917" />
    <rect
       y="280.17651"
       x="27.211531"
       height="4.2473631"
       width="15.870336"
       id="rect6093"
       style="display:inline;opacity:1;fill:#999999;fill-opacity:1;stroke:none;stroke-width:0.30643746;stroke-linejoin:bevel;stroke-miterlimit:4;stroke-dasharray:none;stroke-dashoffset:3.00472426;stroke-opacity:1" />
    <rect
       y="275.92917"
       x="57.163441"
       height="4.2473631"
       width="15.870336"
       id="rect6107"
       style="display:inline;opacity:1;fill:#ffcc00;fill-opacity:1;stroke:none;stroke-width:0.30643746;stroke-linejoin:bevel;stroke-miterlimit:4;stroke-dasharray:none;stroke-dashoffset:3.00472426;stroke-opacity:1" />
    <rect
       style="display:inline;opacity:1;fill:#999999;fill-opacity:1;stroke:none;stroke-width:0.30643746;stroke-linejoin:bevel;stroke-miterlimit:4;stroke-dasharray:none;stroke-dashoffset:3.00472426;stroke-opacity:1"
       id="rect6109"
       width="15.870336"
       height="4.2473631"
       x="57.163441"
       y="280.17651" />
    <path
       style="fill:none;stroke:#000000;stroke-width:0.2678487;stroke-linecap:butt;stroke-linejoin:miter;stroke-miterlimit:4;stroke-dasharray:none;stroke-opacity:1;marker-end:url(#Arrow1Mend)"
       d="m 98.138066,287.86808 11.905574,-1.32555"
       id="path6119"
       inkscape:connector-curvature="0"
       sodipodi:nodetypes="cc" />
    <rect
       style="display:inline;opacity:1;fill:#808080;fill-opacity:1;stroke:none;stroke-width:0.3895593;stroke-linejoin:bevel;stroke-miterlimit:4;stroke-dasharray:none;stroke-dashoffset:3.00472426;stroke-opacity:1"
       id="rect4932-6"
       width="114.66459"
       height="5.8766303"
       x="18.763681"
       y="290.59509" />
  </g>
  <g
     inkscape:groupmode="layer"
     id="layer2"
     inkscape:label="Defect region 1"
     style="display:none">
    <path
       transform="translate(0,-237)"
       style="display:inline;fill:#4d4d4d;fill-opacity:1;stroke:none;stroke-width:0.25216126px;stroke-linecap:butt;stroke-linejoin:miter;stroke-opacity:1"
       d="m 105.47377,284.43034 h 14.55497 c 0,0 -1.67942,0.22393 -2.33519,0.75174 -0.65577,0.52783 -1.18359,1.53547 -1.37553,1.71141 -0.19192,0.17596 -1.1356,1.53547 -3.35883,1.53547 -2.22323,0 -3.1829,-0.99165 -3.83868,-1.7274 -0.65578,-0.73574 -1.05564,-1.24756 -1.77538,-1.53547 -0.71977,-0.2879 -1.87136,-0.73575 -1.87136,-0.73575 z"
       id="path4979"
       inkscape:connector-curvature="0" />
  </g>
  <g
     inkscape:groupmode="layer"
     id="layer3"
     inkscape:label="Defect region 2">
    <path
       style="fill:#4d4d4d;stroke:none;stroke-width:0.26458332px;stroke-linecap:butt;stroke-linejoin:miter;stroke-opacity:1"
       d="m 110.61212,47.408487 c 0,0 -0.42367,0.999864 -0.38977,1.898048 0.0339,0.898183 2.59286,0.796501 2.59286,0.796501 0,0 2.22004,0.0339 2.4234,-0.643981 0.20336,-0.677873 -0.32199,-2.050569 -0.32199,-2.050569 z"
       id="path882"
       inkscape:connector-curvature="0"
       sodipodi:nodetypes="cscccc" />
  </g>
  <g
     inkscape:groupmode="layer"
     id="layer10"
     inkscape:label="Labels"
     transform="translate(0,-237)">
    <text
       xml:space="preserve"
       style="font-style:normal;font-variant:normal;font-weight:normal;font-stretch:normal;font-size:4.37079525px;line-height:6.30403185px;font-family:'Courier New';-inkscape-font-specification:'Courier New';letter-spacing:0px;word-spacing:0px;display:inline;fill:#000000;fill-opacity:1;stroke:none;stroke-width:0.25216126"
       x="20.258636"
       y="288.68878"
       id="text5092"><tspan
         sodipodi:role="line"
         id="tspan5090"
         x="20.258636"
         y="288.68878"
         style="font-style:normal;font-variant:normal;font-weight:normal;font-stretch:normal;font-size:3.36214995px;font-family:sans-serif;-inkscape-font-specification:sans-serif;stroke-width:0.25216126">p-GaN</tspan></text>
    <text
       xml:space="preserve"
       style="font-style:normal;font-variant:normal;font-weight:normal;font-stretch:normal;font-size:4.37079525px;line-height:6.30403185px;font-family:'Courier New';-inkscape-font-specification:'Courier New';letter-spacing:0px;word-spacing:0px;display:inline;fill:#000000;fill-opacity:1;stroke:none;stroke-width:0.25216126"
       x="47.738998"
       y="267.87411"
       id="text5092-0"><tspan
         sodipodi:role="line"
         id="tspan5090-1"
         x="47.738998"
         y="267.87411"
         style="font-style:normal;font-variant:normal;font-weight:normal;font-stretch:normal;font-size:3.36214995px;font-family:sans-serif;-inkscape-font-specification:sans-serif;stroke-width:0.25216126">I-V</tspan></text>
    <text
       id="text5122"
       y="241.32146"
       x="70.658134"
       style="font-style:normal;font-variant:normal;font-weight:normal;font-stretch:normal;font-size:4.37079525px;line-height:6.30403185px;font-family:'Courier New';-inkscape-font-specification:'Courier New';letter-spacing:0px;word-spacing:0px;display:inline;fill:#000000;fill-opacity:1;stroke:none;stroke-width:0.25216126"
       xml:space="preserve"><tspan
         style="font-style:normal;font-variant:normal;font-weight:normal;font-stretch:normal;font-size:3.36214995px;font-family:sans-serif;-inkscape-font-specification:sans-serif;stroke-width:0.25216126"
         y="241.32146"
         x="70.658134"
         id="tspan5120"
         sodipodi:role="line">I-V</tspan></text>
    <text
       xml:space="preserve"
       style="font-style:normal;font-variant:normal;font-weight:normal;font-stretch:normal;font-size:4.37079525px;line-height:6.30403185px;font-family:'Courier New';-inkscape-font-specification:'Courier New';text-align:end;letter-spacing:0px;word-spacing:0px;text-anchor:end;display:inline;fill:#000000;fill-opacity:1;stroke:none;stroke-width:0.25216126"
       x="97.257126"
       y="288.85068"
       id="text5092-9"><tspan
         sodipodi:role="line"
         id="tspan5090-16"
         x="97.257126"
         y="288.85068"
         style="font-style:normal;font-variant:normal;font-weight:normal;font-stretch:normal;font-size:3.36214995px;font-family:sans-serif;-inkscape-font-specification:sans-serif;text-align:end;text-anchor:end;stroke-width:0.25216126">vrstva upravená FIB</tspan></text>
    <text
       id="text5170-6"
       y="279.25244"
       x="28.030981"
       style="font-style:normal;font-variant:normal;font-weight:normal;font-stretch:normal;font-size:4.37079525px;line-height:6.30403185px;font-family:'Courier New';-inkscape-font-specification:'Courier New';letter-spacing:0px;word-spacing:0px;display:inline;fill:#000000;fill-opacity:1;stroke:none;stroke-width:0.25216126"
       xml:space="preserve"><tspan
         style="font-style:normal;font-variant:normal;font-weight:normal;font-stretch:normal;font-size:3.36214995px;font-family:sans-serif;-inkscape-font-specification:sans-serif;stroke-width:0.25216126"
         y="279.25244"
         x="28.030981"
         id="tspan5168-2"
         sodipodi:role="line">Au</tspan></text>
    <text
       id="text5170-5-7"
       y="283.55527"
       x="28.257353"
       style="font-style:normal;font-variant:normal;font-weight:normal;font-stretch:normal;font-size:4.37079525px;line-height:6.30403185px;font-family:'Courier New';-inkscape-font-specification:'Courier New';letter-spacing:0px;word-spacing:0px;display:inline;fill:#000000;fill-opacity:1;stroke:none;stroke-width:0.25216126"
       xml:space="preserve"><tspan
         style="font-style:normal;font-variant:normal;font-weight:normal;font-stretch:normal;font-size:3.36214995px;font-family:sans-serif;-inkscape-font-specification:sans-serif;stroke-width:0.25216126"
         y="283.55527"
         x="28.257353"
         id="tspan5168-8-5"
         sodipodi:role="line">Ni</tspan></text>
    <rect
       style="opacity:1;fill:#84a9e0;fill-opacity:1;stroke:none;stroke-width:0.25255838;stroke-linejoin:bevel;stroke-miterlimit:4;stroke-dasharray:none;stroke-dashoffset:3.00472426;stroke-opacity:0"
       id="rect6073"
       width="3.9421437"
       height="2.2174559"
       x="110.80639"
       y="283.14508" />
    <text
       xml:space="preserve"
       style="font-style:normal;font-variant:normal;font-weight:normal;font-stretch:normal;font-size:4.37079525px;line-height:6.30403185px;font-family:'Courier New';-inkscape-font-specification:'Courier New';letter-spacing:0px;word-spacing:0px;display:inline;fill:#000000;fill-opacity:1;stroke:none;stroke-width:0.25216126"
       x="-274.65836"
       y="114.09258"
       id="text5092-00"
       transform="rotate(-90)"><tspan
         sodipodi:role="line"
         id="tspan5090-3"
         x="-274.65836"
         y="114.09258"
         style="font-style:normal;font-variant:normal;font-weight:normal;font-stretch:normal;font-size:3.36214995px;font-family:sans-serif;-inkscape-font-specification:sans-serif;stroke-width:0.25216126">n-ZnO</tspan></text>
    <text
       xml:space="preserve"
       style="font-style:normal;font-variant:normal;font-weight:normal;font-stretch:normal;font-size:4.37079525px;line-height:6.30403185px;font-family:'Courier New';-inkscape-font-specification:'Courier New';letter-spacing:0px;word-spacing:0px;display:inline;fill:#000000;fill-opacity:1;stroke:none;stroke-width:0.25216126"
       x="57.982895"
       y="279.25244"
       id="text6113"><tspan
         sodipodi:role="line"
         id="tspan6111"
         x="57.982895"
         y="279.25244"
         style="font-style:normal;font-variant:normal;font-weight:normal;font-stretch:normal;font-size:3.36214995px;font-family:sans-serif;-inkscape-font-specification:sans-serif;stroke-width:0.25216126">Au</tspan></text>
    <text
       xml:space="preserve"
       style="font-style:normal;font-variant:normal;font-weight:normal;font-stretch:normal;font-size:4.37079525px;line-height:6.30403185px;font-family:'Courier New';-inkscape-font-specification:'Courier New';letter-spacing:0px;word-spacing:0px;display:inline;fill:#000000;fill-opacity:1;stroke:none;stroke-width:0.25216126"
       x="58.209263"
       y="283.55527"
       id="text6117"><tspan
         sodipodi:role="line"
         id="tspan6115"
         x="58.209263"
         y="283.55527"
         style="font-style:normal;font-variant:normal;font-weight:normal;font-stretch:normal;font-size:3.36214995px;font-family:sans-serif;-inkscape-font-specification:sans-serif;stroke-width:0.25216126">Ni</tspan></text>
    <path
       style="fill:#b3b3b3;stroke:none;stroke-width:0.26742753px;stroke-linecap:butt;stroke-linejoin:miter;stroke-opacity:1"
       d="m 115.58062,245.69759 h -4.21146 l -15.266541,-4.73789 1.474007,-2.73745 z"
       id="path6493"
       inkscape:connector-curvature="0" />
    <text
       xml:space="preserve"
       style="font-style:normal;font-variant:normal;font-weight:normal;font-stretch:normal;font-size:4.37079573px;line-height:6.30403185px;font-family:'Courier New';-inkscape-font-specification:'Courier New';letter-spacing:0px;word-spacing:0px;display:inline;fill:#000000;fill-opacity:1;stroke:none;stroke-width:0.25216126"
       x="102.15298"
       y="240.23615"
       id="text6113-5"><tspan
         sodipodi:role="line"
         id="tspan6111-2"
         x="102.15298"
         y="240.23615"
         style="font-style:normal;font-variant:normal;font-weight:normal;font-stretch:normal;font-size:3.36214995px;font-family:sans-serif;-inkscape-font-specification:sans-serif;stroke-width:0.25216126">W</tspan></text>
    <text
       id="text1088"
       y="294.82211"
       x="20.258636"
       style="font-style:normal;font-variant:normal;font-weight:normal;font-stretch:normal;font-size:4.37079525px;line-height:6.30403185px;font-family:'Courier New';-inkscape-font-specification:'Courier New';letter-spacing:0px;word-spacing:0px;display:inline;fill:#000000;fill-opacity:1;stroke:none;stroke-width:0.25216126"
       xml:space="preserve"><tspan
         style="font-style:normal;font-variant:normal;font-weight:normal;font-stretch:normal;font-size:3.36214995px;font-family:sans-serif;-inkscape-font-specification:sans-serif;stroke-width:0.25216126"
         y="294.82211"
         x="20.258636"
         id="tspan1086"
         sodipodi:role="line">safír</tspan></text>
  </g>
</svg>
