<?xml version="1.0" encoding="UTF-8" standalone="no"?>
<!-- Created with Inkscape (http://www.inkscape.org/) -->

<svg
   xmlns:dc="http://purl.org/dc/elements/1.1/"
   xmlns:cc="http://creativecommons.org/ns#"
   xmlns:rdf="http://www.w3.org/1999/02/22-rdf-syntax-ns#"
   xmlns:svg="http://www.w3.org/2000/svg"
   xmlns="http://www.w3.org/2000/svg"
   xmlns:xlink="http://www.w3.org/1999/xlink"
   xmlns:sodipodi="http://sodipodi.sourceforge.net/DTD/sodipodi-0.dtd"
   xmlns:inkscape="http://www.inkscape.org/namespaces/inkscape"
   width="150mm"
   height="45mm"
   viewBox="0 0 150 45"
   version="1.1"
   id="svg8"
   inkscape:version="0.92.2 (5c3e80d, 2017-08-06)"
   sodipodi:docname="nr_sensor.svg"
   inkscape:export-filename="C:\Repa\dip\img\png\nr_sensor.png"
   inkscape:export-xdpi="300"
   inkscape:export-ydpi="300">
  <defs
     id="defs2">
    <marker
       inkscape:stockid="Arrow2Mend"
       orient="auto"
       refY="0"
       refX="0"
       id="marker6983"
       style="overflow:visible"
       inkscape:isstock="true">
      <path
         inkscape:connector-curvature="0"
         id="path6981"
         style="fill:#000000;fill-opacity:1;fill-rule:evenodd;stroke:#000000;stroke-width:0.625;stroke-linejoin:round;stroke-opacity:1"
         d="M 8.7185878,4.0337352 -2.2072895,0.01601326 8.7185884,-4.0017078 c -1.7454984,2.3720609 -1.7354408,5.6174519 -6e-7,8.035443 z"
         transform="scale(-0.6)" />
    </marker>
    <marker
       inkscape:stockid="Arrow2Mend"
       orient="auto"
       refY="0"
       refX="0"
       id="marker6388"
       style="overflow:visible"
       inkscape:isstock="true">
      <path
         inkscape:connector-curvature="0"
         id="path6386"
         style="fill:#000000;fill-opacity:1;fill-rule:evenodd;stroke:#000000;stroke-width:0.625;stroke-linejoin:round;stroke-opacity:1"
         d="M 8.7185878,4.0337352 -2.2072895,0.01601326 8.7185884,-4.0017078 c -1.7454984,2.3720609 -1.7354408,5.6174519 -6e-7,8.035443 z"
         transform="scale(-0.6)" />
    </marker>
    <marker
       inkscape:stockid="Arrow2Mend"
       orient="auto"
       refY="0"
       refX="0"
       id="marker5980"
       style="overflow:visible"
       inkscape:isstock="true">
      <path
         inkscape:connector-curvature="0"
         id="path5978"
         style="fill:#000000;fill-opacity:1;fill-rule:evenodd;stroke:#000000;stroke-width:0.625;stroke-linejoin:round;stroke-opacity:1"
         d="M 8.7185878,4.0337352 -2.2072895,0.01601326 8.7185884,-4.0017078 c -1.7454984,2.3720609 -1.7354408,5.6174519 -6e-7,8.035443 z"
         transform="scale(-0.6)" />
    </marker>
    <marker
       inkscape:stockid="Arrow2Mend"
       orient="auto"
       refY="0"
       refX="0"
       id="marker5685"
       style="overflow:visible"
       inkscape:isstock="true">
      <path
         inkscape:connector-curvature="0"
         id="path5683"
         style="fill:#000000;fill-opacity:1;fill-rule:evenodd;stroke:#000000;stroke-width:0.625;stroke-linejoin:round;stroke-opacity:1"
         d="M 8.7185878,4.0337352 -2.2072895,0.01601326 8.7185884,-4.0017078 c -1.7454984,2.3720609 -1.7354408,5.6174519 -6e-7,8.035443 z"
         transform="scale(-0.6)" />
    </marker>
    <linearGradient
       id="N2"
       inkscape:collect="always">
      <stop
         style="stop-color:#ffffff;stop-opacity:1"
         offset="0"
         id="stop5136" />
      <stop
         style="stop-color:#7fff2a;stop-opacity:1"
         offset="1"
         id="stop5138" />
    </linearGradient>
    <linearGradient
       inkscape:collect="always"
       id="e">
      <stop
         id="stop5101"
         offset="0"
         style="stop-color:#ffffff;stop-opacity:1" />
      <stop
         id="stop5103"
         offset="1"
         style="stop-color:#c83737;stop-opacity:1" />
    </linearGradient>
    <linearGradient
       id="N"
       inkscape:collect="always">
      <stop
         style="stop-color:#ffffff;stop-opacity:1"
         offset="0"
         id="stop5066" />
      <stop
         style="stop-color:#ffcc00;stop-opacity:1"
         offset="1"
         id="stop5068" />
    </linearGradient>
    <linearGradient
       inkscape:collect="always"
       id="O">
      <stop
         id="stop4987"
         offset="0"
         style="stop-color:#ffffff;stop-opacity:1" />
      <stop
         id="stop4985"
         offset="1"
         style="stop-color:#ff7a00;stop-opacity:1" />
    </linearGradient>
    <marker
       inkscape:isstock="true"
       style="overflow:visible"
       id="marker5048"
       refX="0"
       refY="0"
       orient="auto"
       inkscape:stockid="Arrow2Mend">
      <path
         transform="scale(-0.6)"
         d="M 8.7185878,4.0337352 -2.2072895,0.01601326 8.7185884,-4.0017078 c -1.7454984,2.3720609 -1.7354408,5.6174519 -6e-7,8.035443 z"
         style="fill:#000000;fill-opacity:1;fill-rule:evenodd;stroke:#000000;stroke-width:0.625;stroke-linejoin:round;stroke-opacity:1"
         id="path5046"
         inkscape:connector-curvature="0" />
    </marker>
    <inkscape:perspective
       id="perspective6722"
       inkscape:persp3d-origin="52.142579 : 95.160081 : 1"
       inkscape:vp_z="6.4077369 : 180.64129 : 1"
       inkscape:vp_y="663.36266 : 1055.9773 : 0"
       inkscape:vp_x="163.55032 : 114.22064 : 1"
       sodipodi:type="inkscape:persp3d" />
    <marker
       inkscape:isstock="true"
       style="overflow:visible"
       id="Arrow2Mend"
       refX="0"
       refY="0"
       orient="auto"
       inkscape:stockid="Arrow2Mend">
      <path
         inkscape:connector-curvature="0"
         transform="scale(-0.6)"
         d="M 8.7185878,4.0337352 -2.2072895,0.01601326 8.7185884,-4.0017078 c -1.7454984,2.3720609 -1.7354408,5.6174519 -6e-7,8.035443 z"
         style="fill:#000000;fill-opacity:1;fill-rule:evenodd;stroke:#000000;stroke-width:0.625;stroke-linejoin:round;stroke-opacity:1"
         id="path4568" />
    </marker>
    <marker
       inkscape:isstock="true"
       style="overflow:visible"
       id="Arrow2Lend"
       refX="0"
       refY="0"
       orient="auto"
       inkscape:stockid="Arrow2Lend">
      <path
         inkscape:connector-curvature="0"
         transform="matrix(-1.1,0,0,-1.1,-1.1,0)"
         d="M 8.7185878,4.0337352 -2.2072895,0.01601326 8.7185884,-4.0017078 c -1.7454984,2.3720609 -1.7354408,5.6174519 -6e-7,8.035443 z"
         style="fill:#000000;fill-opacity:1;fill-rule:evenodd;stroke:#000000;stroke-width:0.625;stroke-linejoin:round;stroke-opacity:1"
         id="path4562" />
    </marker>
    <marker
       inkscape:isstock="true"
       style="overflow:visible"
       id="Arrow1Mend"
       refX="0"
       refY="0"
       orient="auto"
       inkscape:stockid="Arrow1Mend">
      <path
         inkscape:connector-curvature="0"
         transform="matrix(-0.4,0,0,-0.4,-4,0)"
         style="fill:#000000;fill-opacity:1;fill-rule:evenodd;stroke:#000000;stroke-width:1.00000003pt;stroke-opacity:1"
         d="M 0,0 5,-5 -12.5,0 5,5 Z"
         id="path4550" />
    </marker>
    <marker
       inkscape:isstock="true"
       style="overflow:visible"
       id="Arrow1Lend"
       refX="0"
       refY="0"
       orient="auto"
       inkscape:stockid="Arrow1Lend">
      <path
         inkscape:connector-curvature="0"
         transform="matrix(-0.8,0,0,-0.8,-10,0)"
         style="fill:#000000;fill-opacity:1;fill-rule:evenodd;stroke:#000000;stroke-width:1.00000003pt;stroke-opacity:1"
         d="M 0,0 5,-5 -12.5,0 5,5 Z"
         id="path4544" />
    </marker>
    <marker
       inkscape:isstock="true"
       style="overflow:visible"
       id="Arrow2Mend-7"
       refX="0"
       refY="0"
       orient="auto"
       inkscape:stockid="Arrow2Mend"
       inkscape:collect="always">
      <path
         transform="scale(-0.6)"
         d="M 8.7185878,4.0337352 -2.2072895,0.01601326 8.7185884,-4.0017078 c -1.7454984,2.3720609 -1.7354408,5.6174519 -6e-7,8.035443 z"
         style="fill:#000000;fill-opacity:1;fill-rule:evenodd;stroke:#000000;stroke-width:0.625;stroke-linejoin:round;stroke-opacity:1"
         id="path4568-3"
         inkscape:connector-curvature="0" />
    </marker>
    <marker
       inkscape:isstock="true"
       style="overflow:visible"
       id="Arrow2Mend-7-5"
       refX="0"
       refY="0"
       orient="auto"
       inkscape:stockid="Arrow2Mend">
      <path
         transform="scale(-0.6)"
         d="M 8.7185878,4.0337352 -2.2072895,0.01601326 8.7185884,-4.0017078 c -1.7454984,2.3720609 -1.7354408,5.6174519 -6e-7,8.035443 z"
         style="fill:#000000;fill-opacity:1;fill-rule:evenodd;stroke:#000000;stroke-width:0.625;stroke-linejoin:round;stroke-opacity:1"
         id="path4568-3-3"
         inkscape:connector-curvature="0" />
    </marker>
    <clipPath
       id="clipPath4724"
       clipPathUnits="userSpaceOnUse">
      <rect
         y="247.08495"
         x="-0.10614625"
         height="39.633862"
         width="39.912827"
         id="rect4726"
         style="opacity:1;fill:#ffffff;fill-opacity:0.99047618;stroke:none;stroke-width:0.26499999;stroke-miterlimit:4;stroke-dasharray:none;stroke-dashoffset:0;stroke-opacity:1" />
    </clipPath>
    <clipPath
       id="clipPath4728"
       clipPathUnits="userSpaceOnUse">
      <rect
         style="opacity:1;fill:#ffa500;fill-opacity:0.99047618;stroke:#ffffff;stroke-width:0.26499999;stroke-miterlimit:4;stroke-dasharray:none;stroke-dashoffset:0;stroke-opacity:1"
         id="rect4730"
         width="39.912827"
         height="39.633862"
         x="82.973015"
         y="247.08495" />
    </clipPath>
    <radialGradient
       inkscape:collect="always"
       xlink:href="#O"
       id="radialGradient4991"
       cx="108.43335"
       cy="5.2360787"
       fx="108.43335"
       fy="5.2360787"
       r="0.84494048"
       gradientUnits="userSpaceOnUse"
       gradientTransform="matrix(1.308274,3.5249139e-7,-3.6806527e-7,1.3660766,-66.720641,226.38425)" />
    <radialGradient
       inkscape:collect="always"
       xlink:href="#N"
       id="radialGradient5039"
       gradientUnits="userSpaceOnUse"
       gradientTransform="matrix(1.308274,3.5249139e-7,-3.6806527e-7,1.3660766,-63.220523,225.99354)"
       cx="108.43335"
       cy="5.2360787"
       fx="108.43335"
       fy="5.2360787"
       r="0.84494048" />
    <radialGradient
       inkscape:collect="always"
       xlink:href="#e"
       id="radialGradient5039-6"
       gradientUnits="userSpaceOnUse"
       gradientTransform="matrix(1.308274,3.5249138e-7,-3.6806526e-7,1.3660766,-57.419777,225.70105)"
       cx="108.43335"
       cy="5.2360787"
       fx="108.43335"
       fy="5.2360787"
       r="0.84494048" />
    <radialGradient
       inkscape:collect="always"
       xlink:href="#N2"
       id="radialGradient5039-6-9"
       gradientUnits="userSpaceOnUse"
       gradientTransform="matrix(1.308274,3.5249138e-7,-3.6806526e-7,1.3660766,-60.154752,225.96153)"
       cx="108.43335"
       cy="5.2360787"
       fx="108.43335"
       fy="5.2360787"
       r="0.84494048" />
    <radialGradient
       inkscape:collect="always"
       xlink:href="#O"
       id="radialGradient4991-3"
       cx="108.43335"
       cy="5.2360787"
       fx="108.43335"
       fy="5.2360787"
       r="0.84494048"
       gradientUnits="userSpaceOnUse"
       gradientTransform="matrix(1.308274,3.5249138e-7,-3.6806526e-7,1.3660766,-25.022884,0.75849772)" />
    <radialGradient
       inkscape:collect="always"
       xlink:href="#N"
       id="radialGradient5039-64"
       gradientUnits="userSpaceOnUse"
       gradientTransform="matrix(0.79153562,2.1326533e-7,-2.2268788e-7,0.82650752,31.380689,4.6522472)"
       cx="108.43335"
       cy="5.2360787"
       fx="108.43335"
       fy="5.2360787"
       r="0.84494048" />
    <radialGradient
       inkscape:collect="always"
       xlink:href="#N"
       id="radialGradient5192"
       gradientUnits="userSpaceOnUse"
       gradientTransform="matrix(0.79153562,2.1326533e-7,-2.2268788e-7,0.82650752,32.096992,3.7731477)"
       cx="108.43335"
       cy="5.2360787"
       fx="108.43335"
       fy="5.2360787"
       r="0.84494048" />
    <radialGradient
       inkscape:collect="always"
       xlink:href="#N2"
       id="radialGradient5196"
       gradientUnits="userSpaceOnUse"
       gradientTransform="matrix(0.35041757,9.441384e-8,-9.858526e-8,0.36589983,51.64789,232.65082)"
       cx="108.43335"
       cy="5.2360787"
       fx="108.43335"
       fy="5.2360787"
       r="0.84494048" />
    <radialGradient
       inkscape:collect="always"
       xlink:href="#e"
       id="radialGradient5039-6-4"
       gradientUnits="userSpaceOnUse"
       gradientTransform="matrix(0.30729339,8.279479e-8,-8.6452854e-8,0.32087033,77.250134,7.7188084)"
       cx="108.43335"
       cy="5.2360787"
       fx="108.43335"
       fy="5.2360787"
       r="0.84494048" />
    <radialGradient
       inkscape:collect="always"
       xlink:href="#O"
       id="radialGradient5235"
       gradientUnits="userSpaceOnUse"
       gradientTransform="matrix(1.308274,3.5249138e-7,-3.6806526e-7,1.3660766,-20.423895,0.5293666)"
       cx="108.43335"
       cy="5.2360787"
       fx="108.43335"
       fy="5.2360787"
       r="0.84494048" />
    <radialGradient
       inkscape:collect="always"
       xlink:href="#N"
       id="radialGradient5237"
       gradientUnits="userSpaceOnUse"
       gradientTransform="matrix(0.79153562,2.1326533e-7,-2.2268788e-7,0.82650752,35.979678,4.4231161)"
       cx="108.43335"
       cy="5.2360787"
       fx="108.43335"
       fy="5.2360787"
       r="0.84494048" />
    <radialGradient
       inkscape:collect="always"
       xlink:href="#N"
       id="radialGradient5239"
       gradientUnits="userSpaceOnUse"
       gradientTransform="matrix(0.79153562,2.1326533e-7,-2.2268788e-7,0.82650752,36.695981,3.5440166)"
       cx="108.43335"
       cy="5.2360787"
       fx="108.43335"
       fy="5.2360787"
       r="0.84494048" />
    <radialGradient
       inkscape:collect="always"
       xlink:href="#N"
       id="radialGradient5252"
       gradientUnits="userSpaceOnUse"
       gradientTransform="matrix(0.79153562,2.1326533e-7,-2.2268788e-7,0.82650752,24.388366,5.7698617)"
       cx="108.43335"
       cy="5.2360787"
       fx="108.43335"
       fy="5.2360787"
       r="0.84494048" />
    <radialGradient
       inkscape:collect="always"
       xlink:href="#e"
       id="radialGradient5265"
       gradientUnits="userSpaceOnUse"
       gradientTransform="matrix(0.26928147,7.2553147e-8,-7.5758712e-8,0.28117895,92.776368,5.3059611)"
       cx="108.43335"
       cy="5.2360787"
       fx="108.43335"
       fy="5.2360787"
       r="0.84494048" />
    <radialGradient
       inkscape:collect="always"
       xlink:href="#e"
       id="radialGradient5269"
       gradientUnits="userSpaceOnUse"
       gradientTransform="matrix(0.30729339,8.279479e-8,-8.6452854e-8,0.32087033,77.659297,8.1116046)"
       cx="108.43335"
       cy="5.2360787"
       fx="108.43335"
       fy="5.2360787"
       r="0.84494048" />
    <radialGradient
       inkscape:collect="always"
       xlink:href="#N"
       id="radialGradient5290"
       gradientUnits="userSpaceOnUse"
       gradientTransform="matrix(0.79153562,2.1326533e-7,-2.2268788e-7,0.82650752,27.367071,5.8025947)"
       cx="108.43335"
       cy="5.2360787"
       fx="108.43335"
       fy="5.2360787"
       r="0.84494048" />
    <radialGradient
       inkscape:collect="always"
       xlink:href="#e"
       id="radialGradient5292"
       gradientUnits="userSpaceOnUse"
       gradientTransform="matrix(0.30729339,8.279479e-8,-8.6452854e-8,0.32087033,80.228839,7.7515414)"
       cx="108.43335"
       cy="5.2360787"
       fx="108.43335"
       fy="5.2360787"
       r="0.84494048" />
    <radialGradient
       inkscape:collect="always"
       xlink:href="#O"
       id="radialGradient5316"
       gradientUnits="userSpaceOnUse"
       gradientTransform="matrix(1.308274,3.5249138e-7,-3.6806526e-7,1.3660766,-25.79211,3.6062702)"
       cx="108.43335"
       cy="5.2360787"
       fx="108.43335"
       fy="5.2360787"
       r="0.84494048" />
    <radialGradient
       inkscape:collect="always"
       xlink:href="#N"
       id="radialGradient5318"
       gradientUnits="userSpaceOnUse"
       gradientTransform="matrix(0.79153562,2.1326533e-7,-2.2268788e-7,0.82650752,30.611463,7.5000197)"
       cx="108.43335"
       cy="5.2360787"
       fx="108.43335"
       fy="5.2360787"
       r="0.84494048" />
    <radialGradient
       inkscape:collect="always"
       xlink:href="#e"
       id="radialGradient5363"
       gradientUnits="userSpaceOnUse"
       gradientTransform="matrix(0.30729339,8.279479e-8,-8.6452854e-8,0.32087033,77.250134,7.7188084)"
       cx="108.43335"
       cy="5.2360787"
       fx="108.43335"
       fy="5.2360787"
       r="0.84494048" />
    <radialGradient
       inkscape:collect="always"
       xlink:href="#e"
       id="radialGradient5365"
       gradientUnits="userSpaceOnUse"
       gradientTransform="matrix(0.30729339,8.279479e-8,-8.6452854e-8,0.32087033,77.659297,8.1116046)"
       cx="108.43335"
       cy="5.2360787"
       fx="108.43335"
       fy="5.2360787"
       r="0.84494048" />
    <radialGradient
       inkscape:collect="always"
       xlink:href="#O"
       id="radialGradient5375"
       gradientUnits="userSpaceOnUse"
       gradientTransform="matrix(1.308274,3.5249138e-7,-3.6806526e-7,1.3660766,-25.022884,0.75849772)"
       cx="108.43335"
       cy="5.2360787"
       fx="108.43335"
       fy="5.2360787"
       r="0.84494048" />
    <radialGradient
       inkscape:collect="always"
       xlink:href="#N"
       id="radialGradient5377"
       gradientUnits="userSpaceOnUse"
       gradientTransform="matrix(0.79153562,2.1326533e-7,-2.2268788e-7,0.82650752,31.380689,4.6522472)"
       cx="108.43335"
       cy="5.2360787"
       fx="108.43335"
       fy="5.2360787"
       r="0.84494048" />
    <radialGradient
       inkscape:collect="always"
       xlink:href="#N"
       id="radialGradient5379"
       gradientUnits="userSpaceOnUse"
       gradientTransform="matrix(0.79153562,2.1326533e-7,-2.2268788e-7,0.82650752,32.096992,3.7731477)"
       cx="108.43335"
       cy="5.2360787"
       fx="108.43335"
       fy="5.2360787"
       r="0.84494048" />
    <radialGradient
       inkscape:collect="always"
       xlink:href="#e"
       id="radialGradient5383"
       gradientUnits="userSpaceOnUse"
       gradientTransform="matrix(0.37490987,1.0101286e-7,-1.0547584e-7,0.39147426,24.073191,236.08617)"
       cx="108.43335"
       cy="5.2360787"
       fx="108.43335"
       fy="5.2360787"
       r="0.84494048" />
    <radialGradient
       inkscape:collect="always"
       xlink:href="#N"
       id="radialGradient5391"
       gradientUnits="userSpaceOnUse"
       gradientTransform="matrix(0.79153562,2.1326533e-7,-2.2268788e-7,0.82650752,27.367071,5.8025947)"
       cx="108.43335"
       cy="5.2360787"
       fx="108.43335"
       fy="5.2360787"
       r="0.84494048" />
    <radialGradient
       inkscape:collect="always"
       xlink:href="#e"
       id="radialGradient5393"
       gradientUnits="userSpaceOnUse"
       gradientTransform="matrix(0.30729339,8.279479e-8,-8.6452854e-8,0.32087033,80.228839,7.7515414)"
       cx="108.43335"
       cy="5.2360787"
       fx="108.43335"
       fy="5.2360787"
       r="0.84494048" />
    <radialGradient
       inkscape:collect="always"
       xlink:href="#O"
       id="radialGradient5515"
       gradientUnits="userSpaceOnUse"
       gradientTransform="matrix(1.308274,3.5249138e-7,-3.6806526e-7,1.3660766,-20.423895,0.5293666)"
       cx="108.43335"
       cy="5.2360787"
       fx="108.43335"
       fy="5.2360787"
       r="0.84494048" />
    <radialGradient
       inkscape:collect="always"
       xlink:href="#N"
       id="radialGradient5517"
       gradientUnits="userSpaceOnUse"
       gradientTransform="matrix(0.79153562,2.1326533e-7,-2.2268788e-7,0.82650752,35.979678,4.4231161)"
       cx="108.43335"
       cy="5.2360787"
       fx="108.43335"
       fy="5.2360787"
       r="0.84494048" />
    <radialGradient
       inkscape:collect="always"
       xlink:href="#N"
       id="radialGradient5519"
       gradientUnits="userSpaceOnUse"
       gradientTransform="matrix(0.79153562,2.1326533e-7,-2.2268788e-7,0.82650752,36.695981,3.5440166)"
       cx="108.43335"
       cy="5.2360787"
       fx="108.43335"
       fy="5.2360787"
       r="0.84494048" />
    <radialGradient
       inkscape:collect="always"
       xlink:href="#e"
       id="radialGradient5521"
       gradientUnits="userSpaceOnUse"
       gradientTransform="matrix(0.26928147,7.2553147e-8,-7.5758712e-8,0.28117895,92.776368,5.3059611)"
       cx="108.43335"
       cy="5.2360787"
       fx="108.43335"
       fy="5.2360787"
       r="0.84494048" />
    <radialGradient
       inkscape:collect="always"
       xlink:href="#e"
       id="radialGradient5383-9"
       gradientUnits="userSpaceOnUse"
       gradientTransform="matrix(0.65555655,1.7662817e-7,-1.84432e-7,0.68452058,19.065253,278.73603)"
       cx="108.43335"
       cy="5.2360787"
       fx="108.43335"
       fy="5.2360787"
       r="0.84494048" />
    <radialGradient
       inkscape:collect="always"
       xlink:href="#e"
       id="radialGradient5383-4"
       gradientUnits="userSpaceOnUse"
       gradientTransform="matrix(0.65555655,1.7662817e-7,-1.84432e-7,0.68452058,22.664576,282.82035)"
       cx="108.43335"
       cy="5.2360787"
       fx="108.43335"
       fy="5.2360787"
       r="0.84494048" />
    <radialGradient
       inkscape:collect="always"
       xlink:href="#N"
       id="radialGradient5252-8"
       gradientUnits="userSpaceOnUse"
       gradientTransform="matrix(0.79153562,2.1326533e-7,-2.2268788e-7,0.82650752,24.388366,5.7698617)"
       cx="108.43335"
       cy="5.2360787"
       fx="108.43335"
       fy="5.2360787"
       r="0.84494048" />
    <radialGradient
       inkscape:collect="always"
       xlink:href="#e"
       id="radialGradient5363-8"
       gradientUnits="userSpaceOnUse"
       gradientTransform="matrix(0.30729339,8.279479e-8,-8.6452854e-8,0.32087033,77.250134,7.7188084)"
       cx="108.43335"
       cy="5.2360787"
       fx="108.43335"
       fy="5.2360787"
       r="0.84494048" />
    <radialGradient
       inkscape:collect="always"
       xlink:href="#e"
       id="radialGradient5365-6"
       gradientUnits="userSpaceOnUse"
       gradientTransform="matrix(0.30729339,8.279479e-8,-8.6452854e-8,0.32087033,77.659297,8.1116046)"
       cx="108.43335"
       cy="5.2360787"
       fx="108.43335"
       fy="5.2360787"
       r="0.84494048" />
    <radialGradient
       inkscape:collect="always"
       xlink:href="#e"
       id="radialGradient5039-6-4-4"
       gradientUnits="userSpaceOnUse"
       gradientTransform="matrix(0.30729339,8.279479e-8,-8.6452854e-8,0.32087033,77.250134,7.7188084)"
       cx="108.43335"
       cy="5.2360787"
       fx="108.43335"
       fy="5.2360787"
       r="0.84494048" />
    <radialGradient
       inkscape:collect="always"
       xlink:href="#e"
       id="radialGradient5269-1"
       gradientUnits="userSpaceOnUse"
       gradientTransform="matrix(0.30729339,8.279479e-8,-8.6452854e-8,0.32087033,77.659297,8.1116046)"
       cx="108.43335"
       cy="5.2360787"
       fx="108.43335"
       fy="5.2360787"
       r="0.84494048" />
    <radialGradient
       inkscape:collect="always"
       xlink:href="#N"
       id="radialGradient5252-1"
       gradientUnits="userSpaceOnUse"
       gradientTransform="matrix(0.79153562,2.1326533e-7,-2.2268788e-7,0.82650752,24.388366,5.7698617)"
       cx="108.43335"
       cy="5.2360787"
       fx="108.43335"
       fy="5.2360787"
       r="0.84494048" />
    <radialGradient
       inkscape:collect="always"
       xlink:href="#e"
       id="radialGradient5363-7"
       gradientUnits="userSpaceOnUse"
       gradientTransform="matrix(0.30729339,8.279479e-8,-8.6452854e-8,0.32087033,77.250134,7.7188084)"
       cx="108.43335"
       cy="5.2360787"
       fx="108.43335"
       fy="5.2360787"
       r="0.84494048" />
    <radialGradient
       inkscape:collect="always"
       xlink:href="#e"
       id="radialGradient5365-8"
       gradientUnits="userSpaceOnUse"
       gradientTransform="matrix(0.30729339,8.279479e-8,-8.6452854e-8,0.32087033,77.659297,8.1116046)"
       cx="108.43335"
       cy="5.2360787"
       fx="108.43335"
       fy="5.2360787"
       r="0.84494048" />
    <radialGradient
       inkscape:collect="always"
       xlink:href="#e"
       id="radialGradient5039-6-4-6"
       gradientUnits="userSpaceOnUse"
       gradientTransform="matrix(0.30729339,8.279479e-8,-8.6452854e-8,0.32087033,77.250134,7.7188084)"
       cx="108.43335"
       cy="5.2360787"
       fx="108.43335"
       fy="5.2360787"
       r="0.84494048" />
    <radialGradient
       inkscape:collect="always"
       xlink:href="#e"
       id="radialGradient5269-4"
       gradientUnits="userSpaceOnUse"
       gradientTransform="matrix(0.30729339,8.279479e-8,-8.6452854e-8,0.32087033,77.659297,8.1116046)"
       cx="108.43335"
       cy="5.2360787"
       fx="108.43335"
       fy="5.2360787"
       r="0.84494048" />
    <radialGradient
       inkscape:collect="always"
       xlink:href="#O"
       id="radialGradient5316-6"
       gradientUnits="userSpaceOnUse"
       gradientTransform="matrix(1.308274,3.5249138e-7,-3.6806526e-7,1.3660766,-25.79211,3.6062702)"
       cx="108.43335"
       cy="5.2360787"
       fx="108.43335"
       fy="5.2360787"
       r="0.84494048" />
    <radialGradient
       inkscape:collect="always"
       xlink:href="#N"
       id="radialGradient5318-8"
       gradientUnits="userSpaceOnUse"
       gradientTransform="matrix(0.79153562,2.1326533e-7,-2.2268788e-7,0.82650752,30.611463,7.5000197)"
       cx="108.43335"
       cy="5.2360787"
       fx="108.43335"
       fy="5.2360787"
       r="0.84494048" />
    <radialGradient
       inkscape:collect="always"
       xlink:href="#N"
       id="radialGradient6060"
       gradientUnits="userSpaceOnUse"
       gradientTransform="matrix(0.79153562,2.1326533e-7,-2.2268788e-7,0.82650752,27.367071,5.8025947)"
       cx="108.43335"
       cy="5.2360787"
       fx="108.43335"
       fy="5.2360787"
       r="0.84494048" />
    <radialGradient
       inkscape:collect="always"
       xlink:href="#e"
       id="radialGradient6062"
       gradientUnits="userSpaceOnUse"
       gradientTransform="matrix(0.30729339,8.279479e-8,-8.6452854e-8,0.32087033,80.228839,7.7515414)"
       cx="108.43335"
       cy="5.2360787"
       fx="108.43335"
       fy="5.2360787"
       r="0.84494048" />
    <radialGradient
       inkscape:collect="always"
       xlink:href="#N"
       id="radialGradient6076"
       gradientUnits="userSpaceOnUse"
       gradientTransform="matrix(0.79153562,2.1326533e-7,-2.2268788e-7,0.82650752,27.367071,5.8025947)"
       cx="108.43335"
       cy="5.2360787"
       fx="108.43335"
       fy="5.2360787"
       r="0.84494048" />
    <radialGradient
       inkscape:collect="always"
       xlink:href="#e"
       id="radialGradient6078"
       gradientUnits="userSpaceOnUse"
       gradientTransform="matrix(0.30729339,8.279479e-8,-8.6452854e-8,0.32087033,80.228839,7.7515414)"
       cx="108.43335"
       cy="5.2360787"
       fx="108.43335"
       fy="5.2360787"
       r="0.84494048" />
    <radialGradient
       inkscape:collect="always"
       xlink:href="#O"
       id="radialGradient6108"
       gradientUnits="userSpaceOnUse"
       gradientTransform="matrix(1.308274,3.5249138e-7,-3.6806526e-7,1.3660766,-20.423895,0.5293666)"
       cx="108.43335"
       cy="5.2360787"
       fx="108.43335"
       fy="5.2360787"
       r="0.84494048" />
    <radialGradient
       inkscape:collect="always"
       xlink:href="#N"
       id="radialGradient6110"
       gradientUnits="userSpaceOnUse"
       gradientTransform="matrix(0.79153562,2.1326533e-7,-2.2268788e-7,0.82650752,35.979678,4.4231161)"
       cx="108.43335"
       cy="5.2360787"
       fx="108.43335"
       fy="5.2360787"
       r="0.84494048" />
    <radialGradient
       inkscape:collect="always"
       xlink:href="#N"
       id="radialGradient6112"
       gradientUnits="userSpaceOnUse"
       gradientTransform="matrix(0.79153562,2.1326533e-7,-2.2268788e-7,0.82650752,36.695981,3.5440166)"
       cx="108.43335"
       cy="5.2360787"
       fx="108.43335"
       fy="5.2360787"
       r="0.84494048" />
    <radialGradient
       inkscape:collect="always"
       xlink:href="#e"
       id="radialGradient6114"
       gradientUnits="userSpaceOnUse"
       gradientTransform="matrix(0.26928147,7.2553147e-8,-7.5758712e-8,0.28117895,92.776368,5.3059611)"
       cx="108.43335"
       cy="5.2360787"
       fx="108.43335"
       fy="5.2360787"
       r="0.84494048" />
    <radialGradient
       inkscape:collect="always"
       xlink:href="#e"
       id="radialGradient5383-4-9"
       gradientUnits="userSpaceOnUse"
       gradientTransform="matrix(0.65555656,1.7662817e-7,-1.84432e-7,0.68452057,-57.391217,274.16165)"
       cx="108.43335"
       cy="5.2360787"
       fx="108.43335"
       fy="5.2360787"
       r="0.84494048" />
  </defs>
  <sodipodi:namedview
     id="base"
     pagecolor="#ffffff"
     bordercolor="#666666"
     borderopacity="1.0"
     inkscape:pageopacity="0.0"
     inkscape:pageshadow="2"
     inkscape:zoom="2.2943022"
     inkscape:cx="331.29729"
     inkscape:cy="81.069322"
     inkscape:document-units="mm"
     inkscape:current-layer="layer1"
     showgrid="false"
     inkscape:window-width="1920"
     inkscape:window-height="1137"
     inkscape:window-x="-8"
     inkscape:window-y="-8"
     inkscape:window-maximized="1"
     showguides="false" />
  <metadata
     id="metadata5">
    <rdf:RDF>
      <cc:Work
         rdf:about="">
        <dc:format>image/svg+xml</dc:format>
        <dc:type
           rdf:resource="http://purl.org/dc/dcmitype/StillImage" />
        <dc:title></dc:title>
      </cc:Work>
    </rdf:RDF>
  </metadata>
  <g
     inkscape:label="Layer 1"
     inkscape:groupmode="layer"
     id="layer1"
     transform="translate(0,-252)">
    <g
       id="layer1-4"
       inkscape:label="Vrstva 5"
       style="display:inline"
       transform="translate(24.813376,-216.62166)" />
    <g
       id="layer2"
       inkscape:label="Vrstva 2"
       style="display:inline"
       transform="translate(24.813376,-216.62166)" />
    <g
       id="layer3"
       inkscape:label="Vrstva 3"
       style="display:inline;opacity:1"
       transform="translate(24.813376,-216.62166)" />
    <text
       id="text4722"
       y="71.970932"
       x="48.020336"
       style="font-style:normal;font-weight:normal;font-size:3.52777767px;line-height:1.25;font-family:sans-serif;letter-spacing:0px;word-spacing:0px;fill:#000000;fill-opacity:1;stroke:none;stroke-width:0.26458332"
       xml:space="preserve"><tspan
         style="font-size:3.52777767px;stroke-width:0.26458332"
         y="75.18943"
         x="48.020336"
         id="tspan4720"
         sodipodi:role="line" /></text>
    <path
       style="display:inline;fill:#cccccc;fill-rule:evenodd;stroke:none;stroke-width:0.06903863px;stroke-linecap:butt;stroke-linejoin:miter;stroke-opacity:1;enable-background:new"
       d="m 2.8364689,296.39937 3.9208058,-9.0156 H 27.586586 l -3.92083,9.0156 H 2.8364689"
       id="path5024"
       inkscape:connector-curvature="0"
       sodipodi:nodetypes="ccccc"
       inkscape:export-xdpi="300"
       inkscape:export-ydpi="300"
       inkscape:export-filename="C:\Repa\dip\img\png\nr_sensor.png" />
    <path
       style="display:inline;fill:#a5ceec;fill-opacity:1;fill-rule:evenodd;stroke:#a5ceec;stroke-width:0.03319715;stroke-linecap:butt;stroke-linejoin:miter;stroke-miterlimit:4;stroke-dasharray:none;stroke-opacity:1;enable-background:new"
       d="m 12.195099,256.09766 1.364269,-1.24299 3.228786,-0.13642 1.728067,1.0914 -1.333949,1.27331 -3.228775,0.13644 z"
       id="path5026"
       inkscape:connector-curvature="0"
       inkscape:export-xdpi="300"
       inkscape:export-ydpi="300"
       inkscape:export-filename="C:\Repa\dip\img\png\nr_sensor.png" />
    <path
       style="display:inline;fill:#65abdd;fill-opacity:1;fill-rule:evenodd;stroke:#65abdd;stroke-width:0.03319715;stroke-linecap:butt;stroke-linejoin:miter;stroke-miterlimit:4;stroke-dasharray:none;stroke-opacity:1;enable-background:new"
       d="m 22.790938,290.19597 -4.274717,-34.38632 -1.333949,1.27331 2.548168,35.7048 z"
       id="path5028"
       inkscape:connector-curvature="0"
       sodipodi:nodetypes="ccccc"
       inkscape:export-xdpi="300"
       inkscape:export-ydpi="300"
       inkscape:export-filename="C:\Repa\dip\img\png\nr_sensor.png" />
    <path
       style="display:inline;fill:#8cbfe6;fill-opacity:1;fill-rule:evenodd;stroke:#8cbfe6;stroke-width:0.03319715;stroke-linecap:butt;stroke-linejoin:miter;stroke-miterlimit:4;stroke-dasharray:none;stroke-opacity:1;enable-background:new"
       d="m 12.240575,292.81671 1.712922,-35.59731 3.228775,-0.13644 2.548168,35.7048 z"
       id="path5030"
       inkscape:connector-curvature="0"
       sodipodi:nodetypes="ccccc"
       inkscape:export-xdpi="300"
       inkscape:export-ydpi="300"
       inkscape:export-filename="C:\Repa\dip\img\png\nr_sensor.png" />
    <path
       style="display:inline;fill:#c5dff2;fill-opacity:1;fill-rule:evenodd;stroke:#c5dff2;stroke-width:0.03319715;stroke-linecap:butt;stroke-linejoin:miter;stroke-miterlimit:4;stroke-dasharray:none;stroke-opacity:1;enable-background:new"
       d="m 9.20886,290.03367 2.986239,-33.93601 1.758398,1.12174 -1.712922,35.59731 z"
       id="path5032"
       inkscape:connector-curvature="0"
       sodipodi:nodetypes="ccccc"
       inkscape:export-xdpi="300"
       inkscape:export-ydpi="300"
       inkscape:export-filename="C:\Repa\dip\img\png\nr_sensor.png" />
    <path
       inkscape:export-ydpi="300"
       inkscape:export-xdpi="300"
       sodipodi:nodetypes="ccccc"
       inkscape:connector-curvature="0"
       id="path257"
       d="m 39.934919,296.39937 3.920829,-9.0156 h 20.829358 l -3.920827,9.0156 h -20.82936"
       style="display:inline;fill:#cccccc;fill-rule:evenodd;stroke:none;stroke-width:0.06903863px;stroke-linecap:butt;stroke-linejoin:miter;stroke-opacity:1;enable-background:new"
       inkscape:export-filename="C:\Repa\dip\img\png\nr_sensor.png" />
    <path
       inkscape:export-ydpi="300"
       inkscape:export-xdpi="300"
       inkscape:connector-curvature="0"
       id="path259"
       d="m 49.293595,256.09766 1.364283,-1.24299 3.228801,-0.13642 1.728068,1.0914 -1.333949,1.27331 -3.22879,0.13644 z"
       style="display:inline;fill:#a5ceec;fill-opacity:1;fill-rule:evenodd;stroke:#a5ceec;stroke-width:0.03319715;stroke-linecap:butt;stroke-linejoin:miter;stroke-miterlimit:4;stroke-dasharray:none;stroke-opacity:1;enable-background:new"
       inkscape:export-filename="C:\Repa\dip\img\png\nr_sensor.png" />
    <path
       inkscape:export-ydpi="300"
       inkscape:export-xdpi="300"
       sodipodi:nodetypes="ccccc"
       inkscape:connector-curvature="0"
       id="path261"
       d="m 59.889465,290.19597 -4.274718,-34.38632 -1.333949,1.27331 2.548168,35.7048 z"
       style="display:inline;fill:#65abdd;fill-opacity:1;fill-rule:evenodd;stroke:#65abdd;stroke-width:0.03319715;stroke-linecap:butt;stroke-linejoin:miter;stroke-miterlimit:4;stroke-dasharray:none;stroke-opacity:1;enable-background:new"
       inkscape:export-filename="C:\Repa\dip\img\png\nr_sensor.png" />
    <path
       inkscape:export-ydpi="300"
       inkscape:export-xdpi="300"
       sodipodi:nodetypes="ccccc"
       inkscape:connector-curvature="0"
       id="path263"
       d="m 49.339071,292.81671 1.712937,-35.59731 3.22879,-0.13644 2.548168,35.7048 z"
       style="display:inline;fill:#8cbfe6;fill-opacity:1;fill-rule:evenodd;stroke:#8cbfe6;stroke-width:0.03319715;stroke-linecap:butt;stroke-linejoin:miter;stroke-miterlimit:4;stroke-dasharray:none;stroke-opacity:1;enable-background:new"
       inkscape:export-filename="C:\Repa\dip\img\png\nr_sensor.png" />
    <path
       inkscape:export-ydpi="300"
       inkscape:export-xdpi="300"
       sodipodi:nodetypes="ccccc"
       inkscape:connector-curvature="0"
       id="path265"
       d="m 46.30734,290.03367 2.986255,-33.93601 1.758413,1.12174 -1.712937,35.59731 z"
       style="display:inline;fill:#c5dff2;fill-opacity:1;fill-rule:evenodd;stroke:#c5dff2;stroke-width:0.03319715;stroke-linecap:butt;stroke-linejoin:miter;stroke-miterlimit:4;stroke-dasharray:none;stroke-opacity:1;enable-background:new"
       inkscape:export-filename="C:\Repa\dip\img\png\nr_sensor.png" />
    <path
       style="display:inline;fill:#cccccc;fill-rule:evenodd;stroke:none;stroke-width:0.06903863px;stroke-linecap:butt;stroke-linejoin:miter;stroke-opacity:1;enable-background:new"
       d="m 79.506676,296.39937 3.920827,-9.0156 h 20.829367 l -3.92083,9.0156 H 79.506676"
       id="path297"
       inkscape:connector-curvature="0"
       sodipodi:nodetypes="ccccc"
       inkscape:export-xdpi="300"
       inkscape:export-ydpi="300"
       inkscape:export-filename="C:\Repa\dip\img\png\nr_sensor.png" />
    <path
       style="display:inline;fill:#a5ceec;fill-opacity:1;fill-rule:evenodd;stroke:#a5ceec;stroke-width:0.03319715;stroke-linecap:butt;stroke-linejoin:miter;stroke-miterlimit:4;stroke-dasharray:none;stroke-opacity:1;enable-background:new"
       d="m 88.865354,256.09766 1.364283,-1.24299 3.228802,-0.13642 1.728068,1.0914 -1.33395,1.27331 -3.22879,0.13644 z"
       id="path299"
       inkscape:connector-curvature="0"
       inkscape:export-xdpi="300"
       inkscape:export-ydpi="300"
       inkscape:export-filename="C:\Repa\dip\img\png\nr_sensor.png" />
    <path
       style="display:inline;fill:#65abdd;fill-opacity:1;fill-rule:evenodd;stroke:#65abdd;stroke-width:0.03319715;stroke-linecap:butt;stroke-linejoin:miter;stroke-miterlimit:4;stroke-dasharray:none;stroke-opacity:1;enable-background:new"
       d="m 99.461219,290.19597 -4.274712,-34.38632 -1.33395,1.27331 2.548168,35.7048 z"
       id="path301"
       inkscape:connector-curvature="0"
       sodipodi:nodetypes="ccccc"
       inkscape:export-xdpi="300"
       inkscape:export-ydpi="300"
       inkscape:export-filename="C:\Repa\dip\img\png\nr_sensor.png" />
    <path
       style="display:inline;fill:#8cbfe6;fill-opacity:1;fill-rule:evenodd;stroke:#8cbfe6;stroke-width:0.03319715;stroke-linecap:butt;stroke-linejoin:miter;stroke-miterlimit:4;stroke-dasharray:none;stroke-opacity:1;enable-background:new"
       d="m 88.910831,292.81671 1.712936,-35.59731 3.22879,-0.13644 2.548168,35.7048 z"
       id="path303"
       inkscape:connector-curvature="0"
       sodipodi:nodetypes="ccccc"
       inkscape:export-xdpi="300"
       inkscape:export-ydpi="300"
       inkscape:export-filename="C:\Repa\dip\img\png\nr_sensor.png" />
    <path
       style="display:inline;fill:#c5dff2;fill-opacity:1;fill-rule:evenodd;stroke:#c5dff2;stroke-width:0.03319715;stroke-linecap:butt;stroke-linejoin:miter;stroke-miterlimit:4;stroke-dasharray:none;stroke-opacity:1;enable-background:new"
       d="m 85.879099,290.03367 2.986255,-33.93601 1.758413,1.12174 -1.712936,35.59731 z"
       id="path305"
       inkscape:connector-curvature="0"
       sodipodi:nodetypes="ccccc"
       inkscape:export-xdpi="300"
       inkscape:export-ydpi="300"
       inkscape:export-filename="C:\Repa\dip\img\png\nr_sensor.png" />
    <path
       inkscape:export-ydpi="300"
       inkscape:export-xdpi="300"
       sodipodi:nodetypes="ccccc"
       inkscape:connector-curvature="0"
       id="path357"
       d="m 115.36859,296.39937 3.92082,-9.0156 h 20.82938 l -3.92083,9.0156 h -20.82937"
       style="display:inline;fill:#cccccc;fill-rule:evenodd;stroke:none;stroke-width:0.06903863px;stroke-linecap:butt;stroke-linejoin:miter;stroke-opacity:1;enable-background:new"
       inkscape:export-filename="C:\Repa\dip\img\png\nr_sensor.png" />
    <path
       inkscape:export-ydpi="300"
       inkscape:export-xdpi="300"
       inkscape:connector-curvature="0"
       id="path359"
       d="m 124.72727,256.09766 1.36428,-1.24299 3.2288,-0.13642 1.72807,1.0914 -1.33396,1.27331 -3.22878,0.13644 z"
       style="display:inline;fill:#a5ceec;fill-opacity:1;fill-rule:evenodd;stroke:#a5ceec;stroke-width:0.03319715;stroke-linecap:butt;stroke-linejoin:miter;stroke-miterlimit:4;stroke-dasharray:none;stroke-opacity:1;enable-background:new"
       inkscape:export-filename="C:\Repa\dip\img\png\nr_sensor.png" />
    <path
       inkscape:export-ydpi="300"
       inkscape:export-xdpi="300"
       sodipodi:nodetypes="ccccc"
       inkscape:connector-curvature="0"
       id="path361"
       d="m 135.32313,290.19597 -4.27471,-34.38632 -1.33396,1.27331 2.54818,35.7048 z"
       style="display:inline;fill:#65abdd;fill-opacity:1;fill-rule:evenodd;stroke:#65abdd;stroke-width:0.03319715;stroke-linecap:butt;stroke-linejoin:miter;stroke-miterlimit:4;stroke-dasharray:none;stroke-opacity:1;enable-background:new"
       inkscape:export-filename="C:\Repa\dip\img\png\nr_sensor.png" />
    <path
       inkscape:export-ydpi="300"
       inkscape:export-xdpi="300"
       sodipodi:nodetypes="ccccc"
       inkscape:connector-curvature="0"
       id="path363"
       d="m 124.77274,292.81671 1.71294,-35.59731 3.22878,-0.13644 2.54818,35.7048 z"
       style="display:inline;fill:#8cbfe6;fill-opacity:1;fill-rule:evenodd;stroke:#8cbfe6;stroke-width:0.03319715;stroke-linecap:butt;stroke-linejoin:miter;stroke-miterlimit:4;stroke-dasharray:none;stroke-opacity:1;enable-background:new"
       inkscape:export-filename="C:\Repa\dip\img\png\nr_sensor.png" />
    <path
       inkscape:export-ydpi="300"
       inkscape:export-xdpi="300"
       sodipodi:nodetypes="ccccc"
       inkscape:connector-curvature="0"
       id="path365"
       d="m 121.74101,290.03367 2.98626,-33.93601 1.75841,1.12174 -1.71294,35.59731 z"
       style="display:inline;fill:#c5dff2;fill-opacity:1;fill-rule:evenodd;stroke:#c5dff2;stroke-width:0.03319715;stroke-linecap:butt;stroke-linejoin:miter;stroke-miterlimit:4;stroke-dasharray:none;stroke-opacity:1;enable-background:new"
       inkscape:export-filename="C:\Repa\dip\img\png\nr_sensor.png" />
    <g
       transform="matrix(2.4344659,0,0,2.4344659,-255.22497,241.69225)"
       id="g5373"
       inkscape:export-filename="C:\Repa\dip\img\png\nr_sensor.png"
       inkscape:export-xdpi="300"
       inkscape:export-ydpi="300">
      <circle
         style="fill:url(#radialGradient5375);fill-opacity:1;stroke-width:0.09179422"
         r="0.84494054"
         cy="8.1230564"
         cx="117.01673"
         id="circle5367" />
      <circle
         id="circle5369"
         cx="117.3179"
         cy="9.1079731"
         r="0.5112083"
         style="fill:url(#radialGradient5377);fill-opacity:1;stroke-width:0.0555376" />
      <circle
         style="fill:url(#radialGradient5379);fill-opacity:1;stroke-width:0.0555376"
         r="0.5112083"
         cy="8.2288733"
         cx="118.03419"
         id="circle5371" />
    </g>
    <g
       transform="matrix(2.4344659,0,0,2.4344659,-254.6085,252.57263)"
       id="g5389"
       inkscape:export-filename="C:\Repa\dip\img\png\nr_sensor.png"
       inkscape:export-xdpi="300"
       inkscape:export-ydpi="300">
      <circle
         style="fill:url(#radialGradient5391);fill-opacity:1;stroke-width:0.0555376"
         r="0.5112083"
         cy="10.258321"
         cx="113.30428"
         id="circle5385" />
      <circle
         id="circle5387"
         cx="113.59174"
         cy="9.4813623"
         r="0.19846351"
         style="fill:url(#radialGradient5393);fill-opacity:1;stroke-width:0.02156105" />
    </g>
    <g
       transform="matrix(2.4344659,0,0,2.4344659,-198.61398,247.67947)"
       id="g5513"
       inkscape:export-filename="C:\Repa\dip\img\png\nr_sensor.png"
       inkscape:export-xdpi="300"
       inkscape:export-ydpi="300">
      <circle
         id="circle5505"
         cx="121.61572"
         cy="7.8939247"
         r="0.84494054"
         style="fill:url(#radialGradient5515);fill-opacity:1;stroke-width:0.09179422" />
      <circle
         style="fill:url(#radialGradient5517);fill-opacity:1;stroke-width:0.0555376"
         r="0.5112083"
         cy="8.8788424"
         cx="121.91689"
         id="circle5507" />
      <circle
         id="circle5509"
         cx="122.63319"
         cy="7.999742"
         r="0.5112083"
         style="fill:url(#radialGradient5519);fill-opacity:1;stroke-width:0.0555376" />
      <circle
         style="fill:url(#radialGradient5521);fill-opacity:1;stroke-width:0.01889397"
         r="0.17391375"
         cy="6.8218045"
         cx="122.01231"
         id="circle5511" />
    </g>
    <circle
       style="fill:url(#radialGradient5383-9);fill-opacity:1;stroke-width:0.04599672"
       r="0.42338708"
       cy="282.42627"
       cx="90.239159"
       id="circle5381-9"
       inkscape:export-filename="C:\Repa\dip\img\png\nr_sensor.png"
       inkscape:export-xdpi="300"
       inkscape:export-ydpi="300" />
    <circle
       style="fill:url(#radialGradient5383-4);fill-opacity:1;stroke-width:0.04599672"
       r="0.42338708"
       cy="286.51059"
       cx="93.838455"
       id="circle5381-8"
       inkscape:export-filename="C:\Repa\dip\img\png\nr_sensor.png"
       inkscape:export-xdpi="300"
       inkscape:export-ydpi="300" />
    <g
       id="g5303-9"
       transform="matrix(2.4344659,0,0,2.4344659,-135.74128,246.14296)"
       inkscape:export-filename="C:\Repa\dip\img\png\nr_sensor.png"
       inkscape:export-xdpi="300"
       inkscape:export-ydpi="300">
      <circle
         style="fill:url(#radialGradient5252-8);fill-opacity:1;stroke-width:0.0555376"
         r="0.5112083"
         cy="10.225588"
         cx="110.32557"
         id="circle5250-1" />
      <circle
         style="fill:url(#radialGradient5363-8);fill-opacity:1;stroke-width:0.02156105"
         r="0.19846351"
         cy="9.4486294"
         cx="110.61304"
         id="circle5037-3-0-4" />
      <circle
         id="circle5267-6"
         cx="111.0222"
         cy="9.8414249"
         r="0.19846351"
         style="fill:url(#radialGradient5365-6);fill-opacity:1;stroke-width:0.02156105" />
      <circle
         id="circle5271-6"
         cx="110.61304"
         cy="9.4486294"
         r="0.19846351"
         style="fill:url(#radialGradient5039-6-4-4);fill-opacity:1;stroke-width:0.02156105" />
      <circle
         style="fill:url(#radialGradient5269-1);fill-opacity:1;stroke-width:0.02156105"
         r="0.19846351"
         cy="9.8414249"
         cx="111.0222"
         id="circle5273-4" />
    </g>
    <g
       id="g5303-7"
       transform="matrix(2.4344659,0,0,2.4344659,-134.75176,253.23398)"
       inkscape:export-filename="C:\Repa\dip\img\png\nr_sensor.png"
       inkscape:export-xdpi="300"
       inkscape:export-ydpi="300">
      <circle
         style="fill:url(#radialGradient5252-1);fill-opacity:1;stroke-width:0.0555376"
         r="0.5112083"
         cy="10.225588"
         cx="110.32557"
         id="circle5250-7" />
      <circle
         style="fill:url(#radialGradient5363-7);fill-opacity:1;stroke-width:0.02156105"
         r="0.19846351"
         cy="9.4486294"
         cx="110.61304"
         id="circle5037-3-0-6" />
      <circle
         id="circle5267-63"
         cx="111.0222"
         cy="9.8414249"
         r="0.19846351"
         style="fill:url(#radialGradient5365-8);fill-opacity:1;stroke-width:0.02156105" />
      <circle
         id="circle5271-9"
         cx="110.61304"
         cy="9.4486294"
         r="0.19846351"
         style="fill:url(#radialGradient5039-6-4-6);fill-opacity:1;stroke-width:0.02156105" />
      <circle
         style="fill:url(#radialGradient5269-4);fill-opacity:1;stroke-width:0.02156105"
         r="0.19846351"
         cy="9.8414249"
         cx="111.0222"
         id="circle5273-6" />
    </g>
    <g
       id="g5322-3"
       transform="matrix(2.4344659,0,0,2.4344659,-140.8806,230.85984)"
       inkscape:export-filename="C:\Repa\dip\img\png\nr_sensor.png"
       inkscape:export-xdpi="300"
       inkscape:export-ydpi="300">
      <circle
         style="fill:url(#radialGradient5316-6);fill-opacity:1;stroke-width:0.09179422"
         r="0.84494054"
         cy="10.970829"
         cx="116.24751"
         id="circle5312-1" />
      <circle
         id="circle5314-1"
         cx="116.54868"
         cy="11.955746"
         r="0.5112083"
         style="fill:url(#radialGradient5318-8);fill-opacity:1;stroke-width:0.0555376" />
    </g>
    <g
       id="g6058"
       transform="matrix(2.4344659,0,0,2.4344659,-217.50997,252.57263)"
       inkscape:export-filename="C:\Repa\dip\img\png\nr_sensor.png"
       inkscape:export-xdpi="300"
       inkscape:export-ydpi="300">
      <circle
         id="circle6054"
         cx="113.30428"
         cy="10.258321"
         r="0.5112083"
         style="fill:url(#radialGradient6060);fill-opacity:1;stroke-width:0.0555376" />
      <circle
         style="fill:url(#radialGradient6062);fill-opacity:1;stroke-width:0.02156105"
         r="0.19846351"
         cy="9.4813623"
         cx="113.59174"
         id="circle6056" />
    </g>
    <g
       transform="matrix(2.4344659,0,0,2.4344659,-177.93821,252.57263)"
       id="g6074"
       inkscape:export-filename="C:\Repa\dip\img\png\nr_sensor.png"
       inkscape:export-xdpi="300"
       inkscape:export-ydpi="300">
      <circle
         style="fill:url(#radialGradient6076);fill-opacity:1;stroke-width:0.0555376"
         r="0.5112083"
         cy="10.258321"
         cx="113.30428"
         id="circle6070" />
      <circle
         id="circle6072"
         cx="113.59174"
         cy="9.4813623"
         r="0.19846351"
         style="fill:url(#radialGradient6078);fill-opacity:1;stroke-width:0.02156105" />
    </g>
    <g
       id="g6106"
       transform="matrix(2.4344659,0,0,2.4344659,-238.18575,247.67947)"
       inkscape:export-filename="C:\Repa\dip\img\png\nr_sensor.png"
       inkscape:export-xdpi="300"
       inkscape:export-ydpi="300">
      <circle
         style="fill:url(#radialGradient6108);fill-opacity:1;stroke-width:0.09179422"
         r="0.84494054"
         cy="7.8939247"
         cx="121.61572"
         id="circle6098" />
      <circle
         id="circle6100"
         cx="121.91689"
         cy="8.8788424"
         r="0.5112083"
         style="fill:url(#radialGradient6110);fill-opacity:1;stroke-width:0.0555376" />
      <circle
         style="fill:url(#radialGradient6112);fill-opacity:1;stroke-width:0.0555376"
         r="0.5112083"
         cy="7.999742"
         cx="122.63319"
         id="circle6102" />
      <circle
         id="circle6104"
         cx="122.01231"
         cy="6.8218045"
         r="0.17391375"
         style="fill:url(#radialGradient6114);fill-opacity:1;stroke-width:0.01889397" />
    </g>
    <circle
       style="fill:url(#radialGradient5383-4-9);fill-opacity:1;stroke-width:0.04599672"
       r="0.42338708"
       cy="277.85187"
       cx="13.782662"
       id="circle5381-8-6"
       inkscape:export-filename="C:\Repa\dip\img\png\nr_sensor.png"
       inkscape:export-xdpi="300"
       inkscape:export-ydpi="300" />
    <text
       id="text249-4-1"
       y="279.87817"
       x="14.482873"
       style="font-style:normal;font-weight:normal;font-size:3.29762626px;line-height:1.25;font-family:sans-serif;letter-spacing:0px;word-spacing:0px;display:inline;fill:#000000;fill-opacity:1;stroke:none;stroke-width:0.30915245"
       xml:space="preserve"
       inkscape:export-filename="C:\Repa\dip\img\png\nr_sensor.png"
       inkscape:export-xdpi="300"
       inkscape:export-ydpi="300"><tspan
         style="font-size:3.29762626px;stroke-width:0.30915245"
         y="279.87817"
         x="14.482873"
         id="tspan247-7-4"
         sodipodi:role="line">$\mathrm{e^{-}}$</tspan></text>
  </g>
  <g
     inkscape:groupmode="layer"
     id="layer4"
     inkscape:label="Popisky"
     style="display:inline">
    <path
       style="fill:none;stroke:#000000;stroke-width:0.29112974px;stroke-linecap:butt;stroke-linejoin:miter;stroke-opacity:1;marker-end:url(#Arrow2Mend-7)"
       d="m 28.132625,263.2644 -8.924144,3.71679"
       id="path5042"
       inkscape:connector-curvature="0"
       sodipodi:nodetypes="cc"
       inkscape:export-filename="C:\Repa\dip\img\png\nr_sensor.png"
       inkscape:export-xdpi="300"
       inkscape:export-ydpi="300"
       transform="translate(0,-252)" />
    <text
       xml:space="preserve"
       style="font-style:normal;font-weight:normal;font-size:3.29762626px;line-height:1.25;font-family:sans-serif;letter-spacing:0px;word-spacing:0px;fill:#000000;fill-opacity:1;stroke:none;stroke-width:0.30915245"
       x="27.81159"
       y="16.618885"
       id="text237"
       inkscape:export-filename="C:\Repa\dip\img\png\nr_sensor.png"
       inkscape:export-xdpi="300"
       inkscape:export-ydpi="300"><tspan
         sodipodi:role="line"
         id="tspan235"
         x="27.81159"
         y="16.618885"
         style="font-size:3.29762626px;stroke-width:0.30915245">$\mathrm{NO_2}$</tspan></text>
    <path
       sodipodi:nodetypes="cc"
       inkscape:connector-curvature="0"
       id="path255"
       d="m 14.309947,276.69025 4.143564,-8.6637"
       style="fill:none;stroke:#000000;stroke-width:0.29112974px;stroke-linecap:butt;stroke-linejoin:miter;stroke-opacity:1;marker-end:url(#marker6983)"
       inkscape:export-filename="C:\Repa\dip\img\png\nr_sensor.png"
       inkscape:export-xdpi="300"
       inkscape:export-ydpi="300"
       transform="translate(0,-252)" />
    <text
       xml:space="preserve"
       style="font-style:normal;font-weight:normal;font-size:12.36609745px;line-height:1.25;font-family:sans-serif;letter-spacing:0px;word-spacing:0px;fill:#000000;fill-opacity:1;stroke:none;stroke-width:0.30915245"
       x="22.55014"
       y="280.61557"
       id="text439"
       inkscape:export-filename="C:\Repa\dip\img\png\nr_sensor.png"
       inkscape:export-xdpi="300"
       inkscape:export-ydpi="300"
       transform="translate(0,-252)"><tspan
         sodipodi:role="line"
         id="tspan437"
         x="22.55014"
         y="280.61557"
         style="font-size:3.29762626px;stroke-width:0.30915245">$\mathrm{O^{-}}$</tspan></text>
    <path
       style="fill:none;stroke:#000000;stroke-width:0.29112974px;stroke-linecap:butt;stroke-linejoin:miter;stroke-opacity:1;marker-end:url(#marker6388)"
       d="m 90.633337,281.2515 5.16143,-11.75025"
       id="path339"
       inkscape:connector-curvature="0"
       sodipodi:nodetypes="cc"
       inkscape:export-filename="C:\Repa\dip\img\png\nr_sensor.png"
       inkscape:export-xdpi="300"
       inkscape:export-ydpi="300"
       transform="translate(0,-252)" />
    <path
       sodipodi:nodetypes="cc"
       inkscape:connector-curvature="0"
       id="path349"
       d="m 94.267953,285.31143 2.382599,-6.03168"
       style="fill:none;stroke:#000000;stroke-width:0.29112974px;stroke-linecap:butt;stroke-linejoin:miter;stroke-opacity:1;marker-end:url(#marker5980)"
       inkscape:export-filename="C:\Repa\dip\img\png\nr_sensor.png"
       inkscape:export-xdpi="300"
       inkscape:export-ydpi="300"
       transform="translate(0,-252)" />
    <path
       style="fill:none;stroke:#000000;stroke-width:0.29112974px;stroke-linecap:butt;stroke-linejoin:miter;stroke-opacity:1;marker-end:url(#marker5685)"
       d="m 131.80422,265.91449 7.42918,-6.792"
       id="path423"
       inkscape:connector-curvature="0"
       sodipodi:nodetypes="cc"
       inkscape:export-filename="C:\Repa\dip\img\png\nr_sensor.png"
       inkscape:export-xdpi="300"
       inkscape:export-ydpi="300"
       transform="translate(0,-252)" />
    <text
       xml:space="preserve"
       style="font-style:normal;font-weight:normal;font-size:10.58333302px;line-height:1.25;font-family:sans-serif;letter-spacing:0px;word-spacing:0px;fill:#000000;fill-opacity:1;stroke:none;stroke-width:0.26458332"
       x="35.933605"
       y="33.743687"
       id="text7201"><tspan
         sodipodi:role="line"
         id="tspan7199"
         x="35.933605"
         y="43.399181"
         style="stroke-width:0.26458332" /></text>
    <text
       inkscape:export-ydpi="300"
       inkscape:export-xdpi="300"
       inkscape:export-filename="C:\Repa\dip\img\png\nr_sensor.png"
       id="text7205"
       y="19.685654"
       x="61.341587"
       style="font-style:normal;font-weight:normal;font-size:3.29762626px;line-height:1.25;font-family:sans-serif;letter-spacing:0px;word-spacing:0px;fill:#000000;fill-opacity:1;stroke:none;stroke-width:0.30915245"
       xml:space="preserve"><tspan
         style="font-size:3.29762626px;stroke-width:0.30915245"
         y="19.685654"
         x="61.341587"
         id="tspan7203"
         sodipodi:role="line">$\mathrm{NO_2^{-}}$</tspan></text>
    <text
       inkscape:export-ydpi="300"
       inkscape:export-xdpi="300"
       inkscape:export-filename="C:\Repa\dip\img\png\nr_sensor.png"
       id="text7209"
       y="28.61557"
       x="60.12101"
       style="font-style:normal;font-weight:normal;font-size:12.36609745px;line-height:1.25;font-family:sans-serif;letter-spacing:0px;word-spacing:0px;fill:#000000;fill-opacity:1;stroke:none;stroke-width:0.30915245"
       xml:space="preserve"><tspan
         style="font-size:3.29762626px;stroke-width:0.30915245"
         y="28.61557"
         x="60.12101"
         id="tspan7207"
         sodipodi:role="line">$\mathrm{O^{-}}$</tspan></text>
    <text
       xml:space="preserve"
       style="font-style:normal;font-weight:normal;font-size:12.36609745px;line-height:1.25;font-family:sans-serif;letter-spacing:0px;word-spacing:0px;fill:#000000;fill-opacity:1;stroke:none;stroke-width:0.30915245"
       x="99.808548"
       y="28.61557"
       id="text7213"
       inkscape:export-filename="C:\Repa\dip\img\png\nr_sensor.png"
       inkscape:export-xdpi="300"
       inkscape:export-ydpi="300"><tspan
         sodipodi:role="line"
         id="tspan7211"
         x="99.808548"
         y="28.61557"
         style="font-size:3.29762626px;stroke-width:0.30915245">$\mathrm{O^{-}}$</tspan></text>
    <text
       id="text249-5"
       y="32.532234"
       x="90.750481"
       style="font-style:normal;font-weight:normal;font-size:3.29762626px;line-height:1.25;font-family:sans-serif;letter-spacing:0px;word-spacing:0px;display:inline;fill:#000000;fill-opacity:1;stroke:none;stroke-width:0.30915245"
       xml:space="preserve"
       inkscape:export-filename="C:\Repa\dip\img\png\nr_sensor.png"
       inkscape:export-xdpi="300"
       inkscape:export-ydpi="300"><tspan
         style="font-size:3.29762626px;stroke-width:0.30915245"
         y="32.532234"
         x="90.750481"
         id="tspan247-6"
         sodipodi:role="line">$\mathrm{e^{-}}$</tspan></text>
    <text
       id="text249-4"
       y="36.536884"
       x="94.538666"
       style="font-style:normal;font-weight:normal;font-size:3.29762626px;line-height:1.25;font-family:sans-serif;letter-spacing:0px;word-spacing:0px;display:inline;fill:#000000;fill-opacity:1;stroke:none;stroke-width:0.30915245"
       xml:space="preserve"
       inkscape:export-filename="C:\Repa\dip\img\png\nr_sensor.png"
       inkscape:export-xdpi="300"
       inkscape:export-ydpi="300"><tspan
         style="font-size:3.29762626px;stroke-width:0.30915245"
         y="36.536884"
         x="94.538666"
         id="tspan247-7"
         sodipodi:role="line">$\mathrm{e^{-}}$</tspan></text>
    <text
       xml:space="preserve"
       style="font-style:normal;font-weight:normal;font-size:12.36609745px;line-height:1.25;font-family:sans-serif;letter-spacing:0px;word-spacing:0px;display:inline;fill:#000000;fill-opacity:1;stroke:none;stroke-width:0.30915245"
       x="136.54248"
       y="27.228783"
       id="text7213-4"
       inkscape:export-filename="C:\Repa\dip\img\png\nr_sensor.png"
       inkscape:export-xdpi="300"
       inkscape:export-ydpi="300"><tspan
         sodipodi:role="line"
         id="tspan7211-6"
         x="136.54248"
         y="27.228783"
         style="font-size:3.29762626px;stroke-width:0.30915245">$\mathrm{O^{2-}}$</tspan></text>
    <text
       inkscape:export-ydpi="300"
       inkscape:export-xdpi="300"
       inkscape:export-filename="C:\Repa\dip\img\png\nr_sensor.png"
       id="text7261"
       y="19.868887"
       x="135.67661"
       style="font-style:normal;font-weight:normal;font-size:12.36609745px;line-height:1.25;font-family:sans-serif;letter-spacing:0px;word-spacing:0px;display:inline;fill:#000000;fill-opacity:1;stroke:none;stroke-width:0.30915245"
       xml:space="preserve"><tspan
         style="font-size:3.29762626px;stroke-width:0.30915245"
         y="19.868887"
         x="135.67661"
         id="tspan7259"
         sodipodi:role="line">$\mathrm{O^{2-}}$</tspan></text>
    <text
       inkscape:export-ydpi="300"
       inkscape:export-xdpi="300"
       inkscape:export-filename="C:\Repa\dip\img\png\nr_sensor.png"
       id="text7205-7"
       y="19.977119"
       x="100.63106"
       style="font-style:normal;font-weight:normal;font-size:3.29762626px;line-height:1.25;font-family:sans-serif;letter-spacing:0px;word-spacing:0px;display:inline;fill:#000000;fill-opacity:1;stroke:none;stroke-width:0.30915245"
       xml:space="preserve"><tspan
         style="font-size:3.29762626px;stroke-width:0.30915245"
         y="19.977119"
         x="100.63106"
         id="tspan7203-1"
         sodipodi:role="line">$\mathrm{NO_2^{-}}$</tspan></text>
    <text
       inkscape:export-ydpi="300"
       inkscape:export-xdpi="300"
       inkscape:export-filename="C:\Repa\dip\img\png\nr_sensor.png"
       id="text7205-5"
       y="13.266627"
       x="139.59521"
       style="font-style:normal;font-weight:normal;font-size:3.29762626px;line-height:1.25;font-family:sans-serif;letter-spacing:0px;word-spacing:0px;display:inline;fill:#000000;fill-opacity:1;stroke:none;stroke-width:0.30915245"
       xml:space="preserve"><tspan
         style="font-size:3.29762626px;stroke-width:0.30915245"
         y="13.266627"
         x="139.59521"
         id="tspan7203-18"
         sodipodi:role="line">$\mathrm{NO}$</tspan></text>
  </g>
  <g
     inkscape:groupmode="layer"
     id="layer5"
     inkscape:label="Elements"
     style="display:none">
    <circle
       transform="translate(0,-252)"
       style="fill:url(#radialGradient4991);fill-opacity:1;stroke-width:0.09179422"
       r="0.84494048"
       cy="233.74881"
       cx="75.31897"
       id="circle441" />
    <circle
       transform="translate(0,-252)"
       id="circle445"
       cx="77.09346"
       cy="238.1443"
       r="0.61702579"
       style="stroke-width:0.0670336" />
    <circle
       transform="translate(0,-252)"
       style="stroke-width:0.02635544"
       r="0.2425945"
       cy="237.91949"
       cx="81.049988"
       id="circle447" />
    <circle
       transform="translate(0,-252)"
       id="circle5037"
       cx="78.819099"
       cy="233.35809"
       r="0.84494048"
       style="fill:url(#radialGradient5039);fill-opacity:1;stroke-width:0.09179422" />
    <circle
       transform="translate(0,-252)"
       id="circle5037-3"
       cx="84.619843"
       cy="233.06561"
       r="0.84494054"
       style="fill:url(#radialGradient5039-6);fill-opacity:1;stroke-width:0.09179422" />
    <circle
       transform="translate(0,-252)"
       id="circle5037-3-2"
       cx="81.884857"
       cy="233.32608"
       r="0.8449406"
       style="fill:url(#radialGradient5039-6-9);fill-opacity:1;stroke-width:0.09179422" />
    <g
       id="g5327"
       transform="matrix(1.3922602,0,0,1.3922602,-115.75197,-28.51562)">
      <circle
         id="circle441-9"
         cx="117.01673"
         cy="8.1230564"
         r="0.84494054"
         style="fill:url(#radialGradient4991-3);fill-opacity:1;stroke-width:0.09179422" />
      <circle
         style="fill:url(#radialGradient5039-64);fill-opacity:1;stroke-width:0.0555376"
         r="0.5112083"
         cy="9.1079731"
         cx="117.3179"
         id="circle5037-9" />
      <circle
         id="circle5190"
         cx="118.03419"
         cy="8.2288733"
         r="0.5112083"
         style="fill:url(#radialGradient5192);fill-opacity:1;stroke-width:0.0555376" />
    </g>
    <circle
       transform="translate(0,-252)"
       style="fill:url(#radialGradient5196);fill-opacity:1;stroke-width:0.02458683"
       r="0.22631499"
       cy="234.6234"
       cx="89.69281"
       id="circle5194" />
    <g
       id="g5337"
       transform="matrix(1.3922602,0,0,1.3922602,-109.51615,-25.51763)">
      <circle
         style="fill:url(#radialGradient5235);fill-opacity:1;stroke-width:0.09179422"
         r="0.84494054"
         cy="7.8939247"
         cx="121.61572"
         id="circle5227" />
      <circle
         id="circle5229"
         cx="121.91689"
         cy="8.8788424"
         r="0.5112083"
         style="fill:url(#radialGradient5237);fill-opacity:1;stroke-width:0.0555376" />
      <circle
         style="fill:url(#radialGradient5239);fill-opacity:1;stroke-width:0.0555376"
         r="0.5112083"
         cy="7.999742"
         cx="122.63319"
         id="circle5231" />
      <circle
         id="circle5263"
         cx="122.01231"
         cy="6.8218045"
         r="0.17391375"
         style="fill:url(#radialGradient5265);fill-opacity:1;stroke-width:0.01889397" />
    </g>
    <g
       id="g5303"
       transform="matrix(1.3922602,0,0,1.3922602,-94.600919,-23.36882)">
      <circle
         style="fill:url(#radialGradient5252);fill-opacity:1;stroke-width:0.0555376"
         r="0.5112083"
         cy="10.225588"
         cx="110.32557"
         id="circle5250" />
      <circle
         style="fill:url(#radialGradient5363);fill-opacity:1;stroke-width:0.02156105"
         r="0.19846351"
         cy="9.4486294"
         cx="110.61304"
         id="circle5037-3-0" />
      <circle
         id="circle5267"
         cx="111.0222"
         cy="9.8414249"
         r="0.19846351"
         style="fill:url(#radialGradient5365);fill-opacity:1;stroke-width:0.02156105" />
      <circle
         id="circle5271"
         cx="110.61304"
         cy="9.4486294"
         r="0.19846351"
         style="fill:url(#radialGradient5039-6-4);fill-opacity:1;stroke-width:0.02156105" />
      <circle
         style="fill:url(#radialGradient5269);fill-opacity:1;stroke-width:0.02156105"
         r="0.19846351"
         cy="9.8414249"
         cx="111.0222"
         id="circle5273" />
    </g>
    <g
       id="g5296"
       transform="matrix(1.3922602,0,0,1.3922602,-94.600919,-23.36882)">
      <circle
         id="circle5286"
         cx="113.30428"
         cy="10.258321"
         r="0.5112083"
         style="fill:url(#radialGradient5290);fill-opacity:1;stroke-width:0.0555376" />
      <circle
         style="fill:url(#radialGradient5292);fill-opacity:1;stroke-width:0.02156105"
         r="0.19846351"
         cy="9.4813623"
         cx="113.59174"
         id="circle5288" />
    </g>
    <g
       id="g5322"
       transform="matrix(1.3922602,0,0,1.3922602,-114.43286,-27.916021)">
      <circle
         style="fill:url(#radialGradient5316);fill-opacity:1;stroke-width:0.09179422"
         r="0.84494054"
         cy="10.970829"
         cx="116.24751"
         id="circle5312" />
      <circle
         id="circle5314"
         cx="116.54868"
         cy="11.955746"
         r="0.5112083"
         style="fill:url(#radialGradient5318);fill-opacity:1;stroke-width:0.0555376" />
    </g>
    <circle
       transform="translate(0,-252)"
       style="fill:url(#radialGradient5383);fill-opacity:1;stroke-width:0.02630532"
       r="0.24213319"
       cy="238.19662"
       cx="64.777222"
       id="circle5381" />
  </g>
</svg>
