<?xml version="1.0" encoding="UTF-8" standalone="no"?>
<!-- Created with Inkscape (http://www.inkscape.org/) -->

<svg
   xmlns:dc="http://purl.org/dc/elements/1.1/"
   xmlns:cc="http://creativecommons.org/ns#"
   xmlns:rdf="http://www.w3.org/1999/02/22-rdf-syntax-ns#"
   xmlns:svg="http://www.w3.org/2000/svg"
   xmlns="http://www.w3.org/2000/svg"
   xmlns:xlink="http://www.w3.org/1999/xlink"
   xmlns:sodipodi="http://sodipodi.sourceforge.net/DTD/sodipodi-0.dtd"
   xmlns:inkscape="http://www.inkscape.org/namespaces/inkscape"
   width="150mm"
   height="55mm"
   viewBox="0 0 150 55"
   version="1.1"
   id="svg8"
   inkscape:version="0.92.2 (5c3e80d, 2017-08-06)"
   sodipodi:docname="schottky_barrier.svg">
  <defs
     id="defs2">
    <marker
       inkscape:isstock="true"
       style="overflow:visible"
       id="marker6049"
       refX="0"
       refY="0"
       orient="auto"
       inkscape:stockid="Arrow1Send">
      <path
         transform="matrix(-0.2,0,0,-0.2,-1.2,0)"
         style="fill:#000000;fill-opacity:1;fill-rule:evenodd;stroke:#000000;stroke-width:1.00000003pt;stroke-opacity:1"
         d="M 0,0 5,-5 -12.5,0 5,5 Z"
         id="path6047"
         inkscape:connector-curvature="0" />
    </marker>
    <marker
       inkscape:stockid="Arrow1Send"
       orient="auto"
       refY="0"
       refX="0"
       id="Arrow1Send"
       style="overflow:visible"
       inkscape:isstock="true"
       inkscape:collect="always">
      <path
         id="path4502"
         d="M 0,0 5,-5 -12.5,0 5,5 Z"
         style="fill:#000000;fill-opacity:1;fill-rule:evenodd;stroke:#000000;stroke-width:1.00000003pt;stroke-opacity:1"
         transform="matrix(-0.2,0,0,-0.2,-1.2,0)"
         inkscape:connector-curvature="0" />
    </marker>
    <linearGradient
       id="linearGradient4888"
       inkscape:collect="always">
      <stop
         id="stop4884"
         offset="0"
         style="stop-color:#000000;stop-opacity:1;" />
      <stop
         id="stop4886"
         offset="1"
         style="stop-color:#ffffff;stop-opacity:1" />
    </linearGradient>
    <linearGradient
       inkscape:collect="always"
       id="linearGradient4871">
      <stop
         style="stop-color:#000000;stop-opacity:1;"
         offset="0"
         id="stop4867" />
      <stop
         style="stop-color:#ffffff;stop-opacity:1"
         offset="1"
         id="stop4869" />
    </linearGradient>
    <marker
       inkscape:stockid="Arrow2Mstart"
       orient="auto"
       refY="0"
       refX="0"
       id="Arrow2Mstart"
       style="overflow:visible"
       inkscape:isstock="true">
      <path
         id="path4511"
         style="fill:#000000;fill-opacity:1;fill-rule:evenodd;stroke:#000000;stroke-width:0.625;stroke-linejoin:round;stroke-opacity:1"
         d="M 8.7185878,4.0337352 -2.2072895,0.01601326 8.7185884,-4.0017078 c -1.7454984,2.3720609 -1.7354408,5.6174519 -6e-7,8.035443 z"
         transform="scale(0.6)"
         inkscape:connector-curvature="0" />
    </marker>
    <marker
       inkscape:stockid="Arrow2Mend"
       orient="auto"
       refY="0"
       refX="0"
       id="Arrow2Mend"
       style="overflow:visible"
       inkscape:isstock="true">
      <path
         id="path4514"
         style="fill:#000000;fill-opacity:1;fill-rule:evenodd;stroke:#000000;stroke-width:0.625;stroke-linejoin:round;stroke-opacity:1"
         d="M 8.7185878,4.0337352 -2.2072895,0.01601326 8.7185884,-4.0017078 c -1.7454984,2.3720609 -1.7354408,5.6174519 -6e-7,8.035443 z"
         transform="scale(-0.6)"
         inkscape:connector-curvature="0" />
    </marker>
    <linearGradient
       inkscape:collect="always"
       xlink:href="#linearGradient4871"
       id="linearGradient4873"
       x1="25.907475"
       y1="293.89362"
       x2="25.907475"
       y2="250.52788"
       gradientUnits="userSpaceOnUse"
       gradientTransform="matrix(3.0690799,0,0,1.064386,-50.702676,-6.1792323)" />
    <linearGradient
       inkscape:collect="always"
       xlink:href="#linearGradient4888"
       id="linearGradient4877"
       gradientUnits="userSpaceOnUse"
       gradientTransform="matrix(1.638357,0,0,0.71967514,1.3328815,-154.82282)"
       x1="25.907475"
       y1="275.3205"
       x2="25.907475"
       y2="255.77309" />
    <linearGradient
       inkscape:collect="always"
       xlink:href="#linearGradient4871"
       id="linearGradient6043"
       gradientUnits="userSpaceOnUse"
       gradientTransform="matrix(3.0690799,0,0,1.064386,30.894602,-6.1792323)"
       x1="25.907475"
       y1="294.35364"
       x2="25.907475"
       y2="250.52788" />
    <linearGradient
       inkscape:collect="always"
       xlink:href="#linearGradient4888"
       id="linearGradient6045"
       gradientUnits="userSpaceOnUse"
       gradientTransform="matrix(1.638357,0,0,0.71967514,82.930158,-154.82282)"
       x1="25.738054"
       y1="285.73407"
       x2="25.68158"
       y2="269.01828" />
  </defs>
  <sodipodi:namedview
     id="base"
     pagecolor="#ffffff"
     bordercolor="#666666"
     borderopacity="1.0"
     inkscape:pageopacity="0.0"
     inkscape:pageshadow="2"
     inkscape:zoom="2.1614978"
     inkscape:cx="202.97645"
     inkscape:cy="112.83243"
     inkscape:document-units="mm"
     inkscape:current-layer="layer1"
     showgrid="false"
     inkscape:window-width="1858"
     inkscape:window-height="1177"
     inkscape:window-x="54"
     inkscape:window-y="-8"
     inkscape:window-maximized="1" />
  <metadata
     id="metadata5">
    <rdf:RDF>
      <cc:Work
         rdf:about="">
        <dc:format>image/svg+xml</dc:format>
        <dc:type
           rdf:resource="http://purl.org/dc/dcmitype/StillImage" />
        <dc:title />
      </cc:Work>
    </rdf:RDF>
  </metadata>
  <g
     inkscape:label="Base"
     inkscape:groupmode="layer"
     id="layer1"
     transform="translate(0,-242)"
     style="display:inline">
    <rect
       style="opacity:1;fill:url(#linearGradient4873);fill-opacity:1;stroke:none;stroke-width:0.47896025;stroke-miterlimit:4;stroke-dasharray:none;stroke-dashoffset:0;stroke-opacity:1"
       id="rect4865"
       width="53.252892"
       height="39.763802"
       x="7.7039418"
       y="250.74477" />
    <rect
       y="250.74477"
       x="89.301216"
       height="39.763802"
       width="53.252892"
       id="rect5997"
       style="opacity:1;fill:url(#linearGradient6043);fill-opacity:1;stroke:none;stroke-width:0.47896025;stroke-miterlimit:4;stroke-dasharray:none;stroke-dashoffset:0;stroke-opacity:1" />
  </g>
  <g
     inkscape:groupmode="layer"
     id="layer7"
     inkscape:label="Axis"
     style="display:inline"
     transform="translate(0,-15)">
    <path
       style="display:inline;fill:none;stroke:#000000;stroke-width:0.38862237;stroke-linecap:butt;stroke-linejoin:miter;stroke-miterlimit:4;stroke-dasharray:none;stroke-opacity:1;marker-start:url(#Arrow2Mstart);marker-end:url(#Arrow2Mend)"
       d="M 7.5134831,18.840207 V 63.410529 H 65.404673"
       id="path4485"
       inkscape:connector-curvature="0"
       sodipodi:nodetypes="ccc" />
    <path
       sodipodi:nodetypes="ccc"
       inkscape:connector-curvature="0"
       id="path5999"
       d="M 89.110764,18.840207 V 63.410529 H 147.00204"
       style="display:inline;fill:none;stroke:#000000;stroke-width:0.38862237;stroke-linecap:butt;stroke-linejoin:miter;stroke-miterlimit:4;stroke-dasharray:none;stroke-opacity:1;marker-start:url(#Arrow2Mstart);marker-end:url(#Arrow2Mend)" />
  </g>
  <g
     inkscape:groupmode="layer"
     id="layer2"
     inkscape:label="Ec base"
     style="display:inline"
     transform="translate(0,-15)">
    <rect
       y="18.894054"
       x="32.511894"
       height="26.885939"
       width="28.42782"
       id="rect4875"
       style="opacity:1;fill:url(#linearGradient4877);fill-opacity:1;stroke:none;stroke-width:0.287752;stroke-miterlimit:4;stroke-dasharray:none;stroke-dashoffset:0;stroke-opacity:1" />
    <rect
       style="opacity:1;fill:url(#linearGradient6045);fill-opacity:1;stroke:none;stroke-width:0.287752;stroke-miterlimit:4;stroke-dasharray:none;stroke-dashoffset:0;stroke-opacity:1"
       id="rect6001"
       width="28.42782"
       height="26.885939"
       x="114.10918"
       y="18.894054" />
  </g>
  <g
     inkscape:groupmode="layer"
     id="layer3"
     inkscape:label="Bandgap"
     style="display:inline"
     transform="translate(0,-15)">
    <g
       inkscape:groupmode="layer"
       id="layer4"
       inkscape:label="Background"
       style="display:inline" />
    <g
       inkscape:groupmode="layer"
       id="layer5"
       inkscape:label="Edge"
       style="display:inline">
      <path
         style="display:inline;opacity:1;fill:#ffffff;fill-opacity:1;stroke:none;stroke-width:0.04017399;stroke-miterlimit:4;stroke-dasharray:none;stroke-dashoffset:0;stroke-opacity:1"
         d="m 46.508362,51.559145 c -3.251974,-0.160585 -5.45691,-0.81979 -6.96868,-1.408644 -1.032692,-0.402247 -1.884297,-0.479721 -4.061797,-1.927722 -0.950903,-0.60981 -2.95783,-1.859955 -2.95783,-1.859955 0,0 -0.01941,-10.480052 0,-16.330849 0,0 1.097309,0.606041 2.399246,1.475048 1.715178,1.144837 2.590981,1.564221 3.366342,1.941589 0.942058,0.458496 1.695645,0.719269 2.709912,0.942452 2.59169,0.570289 6.478791,1.107056 11.271304,1.008464 1.200894,-0.02472 3.359335,0.01772 5.041334,-0.0045 l 4.104509,-0.04832 -0.0454,16.296488 -3.280334,-0.08323 c -1.451903,-0.03684 -4.290712,0.127278 -6.307423,0.135813 -1.907356,-0.178445 -3.520475,-0.07143 -5.271177,-0.136575 z"
         id="path4909"
         inkscape:connector-curvature="0"
         sodipodi:nodetypes="cscccscsssccsccc" />
      <path
         sodipodi:nodetypes="czzcccczzc"
         inkscape:connector-curvature="0"
         id="path4896"
         d="m 60.958618,51.643148 -5.816065,-2e-6 c -2.286317,0 -4.412147,0.149001 -7.901832,0 -3.489683,-0.149 -6.051488,-0.771861 -7.580944,-1.363767 -2.843561,-1.211052 -4.513747,-2.143608 -7.139722,-3.916557 m 2e-6,-16.330847 c 2.256818,1.565641 4.634334,3.0181 7.09961,3.991027 1.529455,0.591905 4.131371,1.174656 7.621054,1.323657 3.489685,0.149 5.615515,0 7.901832,0 h 5.816065"
         style="display:inline;fill:none;stroke:#000000;stroke-width:0.38801137px;stroke-linecap:butt;stroke-linejoin:miter;stroke-opacity:1" />
      <path
         sodipodi:nodetypes="ccsccccccccc"
         inkscape:connector-curvature="0"
         id="path6003"
         d="m 122.07099,58.3155 c -1.03269,-0.402247 -1.85567,-0.288925 -3.84337,-2.084884 -1.10217,-1.102166 -2.21957,-1.91683 -2.91903,-3.294558 -0.89355,-1.76005 -1.19119,-3.251822 -1.19119,-3.251822 0,0 -0.0194,-13.801464 0,-19.652261 0,0 1.34745,5.294872 2.84009,7.736489 1.50726,2.153817 3.42934,4.04002 6.38258,4.600806 1.61109,0.253964 3.17702,0.511044 5.43893,0.697144 5.14689,-0.07958 15.41408,0.196207 15.41408,0.196207 0,0 0.1128,16.517916 -0.0454,16.296489 -5.01638,-0.682434 -10.346,0.0088 -14.85894,-0.084 -3.86156,-0.452528 -4.66175,-0.345468 -7.21779,-1.159611 z"
         style="display:inline;opacity:1;fill:#ffffff;fill-opacity:1;stroke:none;stroke-width:0.04017399;stroke-miterlimit:4;stroke-dasharray:none;stroke-dashoffset:0;stroke-opacity:1" />
      <path
         style="display:inline;fill:none;stroke:#000000;stroke-width:0.38801137px;stroke-linecap:butt;stroke-linejoin:miter;stroke-opacity:1"
         d="m 142.55598,59.372297 c 0,0 -9.07637,0.207257 -12.53971,0.07115 -3.48969,-0.149 -7.22969,-0.84302 -8.75915,-1.434926 -4.14049,-1.780437 -7.13972,-5.175003 -7.13972,-9.684491 m -4e-5,-18.292063 c 0,3.821133 2.97567,9.756483 7.09961,11.720177 2.56688,1.222264 4.98546,1.174656 7.62107,1.323657 4.86473,0.08326 13.7179,0 13.7179,0"
         id="path6005"
         inkscape:connector-curvature="0"
         sodipodi:nodetypes="cccccscc" />
    </g>
  </g>
  <g
     inkscape:groupmode="layer"
     id="layer6"
     inkscape:label="Lines"
     style="display:inline"
     transform="translate(0,-15)">
    <path
       style="display:inline;fill:none;stroke:#000000;stroke-width:0.37722495;stroke-linecap:butt;stroke-linejoin:miter;stroke-miterlimit:4;stroke-dasharray:none;stroke-opacity:1"
       d="M 32.524684,65.264754 V 19.412328"
       id="path4863"
       inkscape:connector-curvature="0"
       sodipodi:nodetypes="cc" />
    <path
       style="fill:none;stroke:#000000;stroke-width:0.29329991;stroke-linecap:butt;stroke-linejoin:miter;stroke-miterlimit:4;stroke-dasharray:1.17319969, 1.17319969;stroke-dashoffset:0;stroke-opacity:1"
       d="M 32.501288,42.078007 H 2.8949698"
       id="path5167"
       inkscape:connector-curvature="0" />
    <path
       style="fill:none;stroke:#000000;stroke-width:0.29329991;stroke-linecap:butt;stroke-linejoin:miter;stroke-miterlimit:4;stroke-dasharray:1.17319969, 1.17319969;stroke-dashoffset:0;stroke-opacity:1"
       d="M 32.501288,37.933124 H 61.640829"
       id="path5169"
       inkscape:connector-curvature="0"
       sodipodi:nodetypes="cc" />
    <path
       style="fill:none;stroke:#000000;stroke-width:0.33860415px;stroke-linecap:butt;stroke-linejoin:miter;stroke-opacity:1;marker-end:url(#Arrow1Send)"
       d="M 36.942233,28.755165 H 28.487281"
       id="path5171"
       inkscape:connector-curvature="0" />
    <path
       sodipodi:nodetypes="cc"
       inkscape:connector-curvature="0"
       id="path6007"
       d="M 114.12202,65.264754 V 19.412328"
       style="display:inline;fill:none;stroke:#000000;stroke-width:0.37722495;stroke-linecap:butt;stroke-linejoin:miter;stroke-miterlimit:4;stroke-dasharray:none;stroke-opacity:1" />
    <path
       inkscape:connector-curvature="0"
       id="path6009"
       d="M 114.09864,42.078007 H 84.492248"
       style="fill:none;stroke:#000000;stroke-width:0.29329991;stroke-linecap:butt;stroke-linejoin:miter;stroke-miterlimit:4;stroke-dasharray:1.17319969, 1.17319969;stroke-dashoffset:0;stroke-opacity:1" />
    <path
       inkscape:connector-curvature="0"
       id="path6011"
       d="m 114.10924,45.779997 h 29.7516"
       style="fill:none;stroke:#000000;stroke-width:0.29329991;stroke-linecap:butt;stroke-linejoin:miter;stroke-miterlimit:4;stroke-dasharray:1.17319969, 1.17319969;stroke-dashoffset:0;stroke-opacity:1"
       sodipodi:nodetypes="cc" />
  </g>
  <g
     inkscape:groupmode="layer"
     id="layer9"
     inkscape:label="Labels"
     style="display:inline"
     transform="translate(0,-15)">
    <text
       xml:space="preserve"
       style="font-style:normal;font-weight:normal;font-size:15.52045345px;line-height:1.25;font-family:sans-serif;text-align:center;letter-spacing:0px;word-spacing:0px;text-anchor:middle;display:inline;fill:#000000;fill-opacity:1;stroke:none;stroke-width:0.38801137"
       x="19.345648"
       y="24.860842"
       id="text5393"><tspan
         sodipodi:role="line"
         id="tspan5391"
         x="19.345648"
         y="24.860842"
         style="font-size:3.32691455px;text-align:center;text-anchor:middle;stroke-width:0.38801137">metal</tspan></text>
    <text
       id="text5397"
       y="24.860842"
       x="47.122997"
       style="font-style:normal;font-weight:normal;font-size:15.52045345px;line-height:1.25;font-family:sans-serif;text-align:center;letter-spacing:0px;word-spacing:0px;text-anchor:middle;display:inline;fill:#000000;fill-opacity:1;stroke:none;stroke-width:0.38801137"
       xml:space="preserve"><tspan
         style="font-size:3.32691455px;text-align:center;text-anchor:middle;stroke-width:0.38801137"
         y="24.860842"
         x="47.122997"
         id="tspan5395"
         sodipodi:role="line">semiconductor</tspan></text>
    <text
       id="text5773"
       y="20.005915"
       x="4.0192986"
       style="font-style:normal;font-weight:normal;font-size:15.52045345px;line-height:1.25;font-family:sans-serif;text-align:center;letter-spacing:0px;word-spacing:0px;text-anchor:middle;display:inline;fill:#000000;fill-opacity:1;stroke:none;stroke-width:0.38801137"
       xml:space="preserve"><tspan
         style="font-size:3.32691455px;text-align:center;text-anchor:middle;stroke-width:0.38801137"
         y="20.005915"
         x="4.0192986"
         id="tspan5771"
         sodipodi:role="line">$E$</tspan></text>
    <text
       xml:space="preserve"
       style="font-style:normal;font-weight:normal;font-size:15.52045345px;line-height:1.25;font-family:sans-serif;text-align:end;letter-spacing:0px;word-spacing:0px;text-anchor:end;display:inline;fill:#000000;fill-opacity:1;stroke:none;stroke-width:0.38801137"
       x="2.5069849"
       y="42.851917"
       id="text5777"><tspan
         sodipodi:role="line"
         id="tspan5775"
         x="2.506984"
         y="42.851917"
         style="font-size:3.32691455px;text-align:end;text-anchor:end;stroke-width:0.38801137">$E_\mathrm{F}$</tspan></text>
    <text
       xml:space="preserve"
       style="font-style:normal;font-weight:normal;font-size:15.52045345px;line-height:1.25;font-family:sans-serif;text-align:center;letter-spacing:0px;word-spacing:0px;text-anchor:middle;display:inline;fill:#000000;fill-opacity:1;stroke:none;stroke-width:0.38801137"
       x="68.525703"
       y="67.545425"
       id="text5781"><tspan
         sodipodi:role="line"
         id="tspan5779"
         x="68.525703"
         y="67.545425"
         style="font-size:3.32691455px;text-align:center;text-anchor:middle;stroke-width:0.38801137">$x$</tspan></text>
    <text
       id="text5785"
       y="36.284218"
       x="61.786201"
       style="font-style:normal;font-weight:normal;font-size:15.52045345px;line-height:1.25;font-family:sans-serif;text-align:start;letter-spacing:0px;word-spacing:0px;text-anchor:start;display:inline;fill:#000000;fill-opacity:1;stroke:none;stroke-width:0.38801137"
       xml:space="preserve"><tspan
         style="font-size:3.32691455px;text-align:start;text-anchor:start;stroke-width:0.38801137"
         y="36.284218"
         x="61.786201"
         id="tspan5783"
         sodipodi:role="line">$E_\mathrm{C}$</tspan></text>
    <text
       xml:space="preserve"
       style="font-style:normal;font-weight:normal;font-size:15.52045345px;line-height:1.25;font-family:sans-serif;text-align:start;letter-spacing:0px;word-spacing:0px;text-anchor:start;display:inline;fill:#000000;fill-opacity:1;stroke:none;stroke-width:0.38801137"
       x="61.786201"
       y="52.253426"
       id="text5793"><tspan
         sodipodi:role="line"
         id="tspan5791"
         x="61.786201"
         y="52.253426"
         style="font-size:3.32691455px;text-align:start;text-anchor:start;stroke-width:0.38801137">$E_\mathrm{V}$</tspan></text>
    <text
       id="text6017"
       y="24.860842"
       x="100.94292"
       style="font-style:normal;font-weight:normal;font-size:15.52045345px;line-height:1.25;font-family:sans-serif;text-align:center;letter-spacing:0px;word-spacing:0px;text-anchor:middle;display:inline;fill:#000000;fill-opacity:1;stroke:none;stroke-width:0.38801137"
       xml:space="preserve"><tspan
         style="font-size:3.32691455px;text-align:center;text-anchor:middle;stroke-width:0.38801137"
         y="24.860842"
         x="100.94292"
         id="tspan6015"
         sodipodi:role="line">metal</tspan></text>
    <text
       xml:space="preserve"
       style="font-style:normal;font-weight:normal;font-size:15.52045345px;line-height:1.25;font-family:sans-serif;text-align:center;letter-spacing:0px;word-spacing:0px;text-anchor:middle;display:inline;fill:#000000;fill-opacity:1;stroke:none;stroke-width:0.38801137"
       x="128.72021"
       y="24.860842"
       id="text6021"><tspan
         sodipodi:role="line"
         id="tspan6019"
         x="128.72021"
         y="24.860842"
         style="font-size:3.32691455px;text-align:center;text-anchor:middle;stroke-width:0.38801137">semiconductor</tspan></text>
    <text
       xml:space="preserve"
       style="font-style:normal;font-weight:normal;font-size:15.52045345px;line-height:1.25;font-family:sans-serif;text-align:center;letter-spacing:0px;word-spacing:0px;text-anchor:middle;display:inline;fill:#000000;fill-opacity:1;stroke:none;stroke-width:0.38801137"
       x="85.61657"
       y="20.005915"
       id="text6025"><tspan
         sodipodi:role="line"
         id="tspan6023"
         x="85.61657"
         y="20.005915"
         style="font-size:3.32691455px;text-align:center;text-anchor:middle;stroke-width:0.38801137">$E$</tspan></text>
    <text
       id="text6029"
       y="42.851917"
       x="84.104248"
       style="font-style:normal;font-weight:normal;font-size:15.52045345px;line-height:1.25;font-family:sans-serif;text-align:end;letter-spacing:0px;word-spacing:0px;text-anchor:end;display:inline;fill:#000000;fill-opacity:1;stroke:none;stroke-width:0.38801137"
       xml:space="preserve"><tspan
         style="font-size:3.32691455px;text-align:end;text-anchor:end;stroke-width:0.38801137"
         y="42.851917"
         x="84.104248"
         id="tspan6027"
         sodipodi:role="line">$E_\mathrm{F}$</tspan></text>
    <text
       id="text6033"
       y="67.545425"
       x="146.94786"
       style="font-style:normal;font-weight:normal;font-size:15.52045345px;line-height:1.25;font-family:sans-serif;text-align:center;letter-spacing:0px;word-spacing:0px;text-anchor:middle;display:inline;fill:#000000;fill-opacity:1;stroke:none;stroke-width:0.38801137"
       xml:space="preserve"><tspan
         style="font-size:3.32691455px;text-align:center;text-anchor:middle;stroke-width:0.38801137"
         y="67.545425"
         x="146.94786"
         id="tspan6031"
         sodipodi:role="line">$x$</tspan></text>
    <text
       xml:space="preserve"
       style="font-style:normal;font-weight:normal;font-size:15.52045345px;line-height:1.25;font-family:sans-serif;text-align:start;letter-spacing:0px;word-spacing:0px;text-anchor:start;display:inline;fill:#000000;fill-opacity:1;stroke:none;stroke-width:0.38801137"
       x="143.38332"
       y="43.769783"
       id="text6037"><tspan
         sodipodi:role="line"
         id="tspan6035"
         x="143.38332"
         y="43.769783"
         style="font-size:3.32691455px;text-align:start;text-anchor:start;stroke-width:0.38801137">$E_\mathrm{C}$</tspan></text>
    <text
       id="text6041"
       y="59.738987"
       x="143.38332"
       style="font-style:normal;font-weight:normal;font-size:15.52045345px;line-height:1.25;font-family:sans-serif;text-align:start;letter-spacing:0px;word-spacing:0px;text-anchor:start;display:inline;fill:#000000;fill-opacity:1;stroke:none;stroke-width:0.38801137"
       xml:space="preserve"><tspan
         style="font-size:3.32691455px;text-align:start;text-anchor:start;stroke-width:0.38801137"
         y="59.738987"
         x="143.38332"
         id="tspan6039"
         sodipodi:role="line">$E_\mathrm{V}$</tspan></text>
  </g>
</svg>
