<?xml version="1.0" encoding="UTF-8" standalone="no"?>
<!-- Created with Inkscape (http://www.inkscape.org/) -->

<svg
   xmlns:dc="http://purl.org/dc/elements/1.1/"
   xmlns:cc="http://creativecommons.org/ns#"
   xmlns:rdf="http://www.w3.org/1999/02/22-rdf-syntax-ns#"
   xmlns:svg="http://www.w3.org/2000/svg"
   xmlns="http://www.w3.org/2000/svg"
   xmlns:xlink="http://www.w3.org/1999/xlink"
   xmlns:sodipodi="http://sodipodi.sourceforge.net/DTD/sodipodi-0.dtd"
   xmlns:inkscape="http://www.inkscape.org/namespaces/inkscape"
   width="150mm"
   height="70mm"
   viewBox="0 0 531.49606 248.03149"
   id="svg2"
   version="1.1"
   inkscape:version="0.92.1 r15371"
   inkscape:export-filename="C:\BTSync\Skola\FJFI_2015_LS\bak\images_final\sem_kapka.png"
   inkscape:export-xdpi="404"
   inkscape:export-ydpi="404"
   sodipodi:docname="sem_kapka.svg">
  <defs
     id="defs4">
    <marker
       inkscape:stockid="Arrow1Mend"
       orient="auto"
       refY="0"
       refX="0"
       id="marker9208"
       style="overflow:visible"
       inkscape:isstock="true">
      <path
         inkscape:connector-curvature="0"
         id="path9206"
         d="M 0,0 5,-5 -12.5,0 5,5 Z"
         style="fill:#000000;fill-opacity:1;fill-rule:evenodd;stroke:#000000;stroke-width:1.00000003pt;stroke-opacity:1"
         transform="matrix(-0.4,0,0,-0.4,-4,0)" />
    </marker>
    <linearGradient
       inkscape:collect="always"
       id="linearGradient8741">
      <stop
         style="stop-color:#666666;stop-opacity:1;"
         offset="0"
         id="stop8737" />
      <stop
         style="stop-color:#666666;stop-opacity:0;"
         offset="1"
         id="stop8739" />
    </linearGradient>
    <marker
       inkscape:isstock="true"
       style="overflow:visible"
       id="marker6901"
       refX="0"
       refY="0"
       orient="auto"
       inkscape:stockid="Arrow1Mend"
       inkscape:collect="always">
      <path
         transform="matrix(-0.4,0,0,-0.4,-4,0)"
         style="fill:#000000;fill-opacity:1;fill-rule:evenodd;stroke:#000000;stroke-width:1.00000003pt;stroke-opacity:1"
         d="M 0,0 5,-5 -12.5,0 5,5 Z"
         id="path6899"
         inkscape:connector-curvature="0" />
    </marker>
    <marker
       inkscape:stockid="Arrow1Mend"
       orient="auto"
       refY="0"
       refX="0"
       id="marker6661"
       style="overflow:visible"
       inkscape:isstock="true"
       inkscape:collect="always">
      <path
         inkscape:connector-curvature="0"
         id="path6659"
         d="M 0,0 5,-5 -12.5,0 5,5 Z"
         style="fill:#000000;fill-opacity:1;fill-rule:evenodd;stroke:#000000;stroke-width:1.00000003pt;stroke-opacity:1"
         transform="matrix(-0.4,0,0,-0.4,-4,0)" />
    </marker>
    <marker
       inkscape:isstock="true"
       style="overflow:visible"
       id="marker6493"
       refX="0"
       refY="0"
       orient="auto"
       inkscape:stockid="Arrow1Mend"
       inkscape:collect="always">
      <path
         transform="matrix(-0.4,0,0,-0.4,-4,0)"
         style="fill:#000000;fill-opacity:1;fill-rule:evenodd;stroke:#000000;stroke-width:1.00000003pt;stroke-opacity:1"
         d="M 0,0 5,-5 -12.5,0 5,5 Z"
         id="path6491"
         inkscape:connector-curvature="0" />
    </marker>
    <marker
       inkscape:stockid="Arrow1Mend"
       orient="auto"
       refY="0"
       refX="0"
       id="marker5875"
       style="overflow:visible"
       inkscape:isstock="true"
       inkscape:collect="always">
      <path
         inkscape:connector-curvature="0"
         id="path5873"
         d="M 0,0 5,-5 -12.5,0 5,5 Z"
         style="fill:#000000;fill-opacity:1;fill-rule:evenodd;stroke:#000000;stroke-width:1.00000003pt;stroke-opacity:1"
         transform="matrix(-0.4,0,0,-0.4,-4,0)" />
    </marker>
    <marker
       inkscape:isstock="true"
       style="overflow:visible"
       id="marker5677"
       refX="0"
       refY="0"
       orient="auto"
       inkscape:stockid="Arrow1Mend"
       inkscape:collect="always">
      <path
         transform="matrix(-0.4,0,0,-0.4,-4,0)"
         style="fill:#000000;fill-opacity:1;fill-rule:evenodd;stroke:#000000;stroke-width:1.00000003pt;stroke-opacity:1"
         d="M 0,0 5,-5 -12.5,0 5,5 Z"
         id="path5675"
         inkscape:connector-curvature="0" />
    </marker>
    <marker
       inkscape:stockid="Arrow1Mend"
       orient="auto"
       refY="0"
       refX="0"
       id="marker5623"
       style="overflow:visible"
       inkscape:isstock="true"
       inkscape:collect="always">
      <path
         inkscape:connector-curvature="0"
         id="path5621"
         d="M 0,0 5,-5 -12.5,0 5,5 Z"
         style="fill:#000000;fill-opacity:1;fill-rule:evenodd;stroke:#000000;stroke-width:1.00000003pt;stroke-opacity:1"
         transform="matrix(-0.4,0,0,-0.4,-4,0)" />
    </marker>
    <marker
       inkscape:stockid="Arrow1Mend"
       orient="auto"
       refY="0"
       refX="0"
       id="marker5185"
       style="overflow:visible"
       inkscape:isstock="true">
      <path
         inkscape:connector-curvature="0"
         id="path5183"
         d="M 0,0 5,-5 -12.5,0 5,5 Z"
         style="fill:#000000;fill-opacity:1;fill-rule:evenodd;stroke:#000000;stroke-width:1.00000003pt;stroke-opacity:1"
         transform="matrix(-0.4,0,0,-0.4,-4,0)" />
    </marker>
    <marker
       inkscape:isstock="true"
       style="overflow:visible"
       id="marker11374"
       refX="0"
       refY="0"
       orient="auto"
       inkscape:stockid="Arrow1Mend"
       inkscape:collect="always">
      <path
         transform="matrix(-0.4,0,0,-0.4,-4,0)"
         style="fill:#000000;fill-opacity:1;fill-rule:evenodd;stroke:#000000;stroke-width:1.00000003pt;stroke-opacity:1"
         d="M 0,0 5,-5 -12.5,0 5,5 Z"
         id="path11376"
         inkscape:connector-curvature="0" />
    </marker>
    <marker
       inkscape:stockid="Arrow1Mend"
       orient="auto"
       refY="0"
       refX="0"
       id="marker5622"
       style="overflow:visible"
       inkscape:isstock="true">
      <path
         id="path5624"
         d="M 0,0 5,-5 -12.5,0 5,5 Z"
         style="fill:#000000;fill-opacity:1;fill-rule:evenodd;stroke:#000000;stroke-width:1.00000003pt;stroke-opacity:1"
         transform="matrix(-0.4,0,0,-0.4,-4,0)"
         inkscape:connector-curvature="0" />
    </marker>
    <marker
       inkscape:isstock="true"
       style="overflow:visible"
       id="marker7268"
       refX="0"
       refY="0"
       orient="auto"
       inkscape:stockid="Arrow1Mend">
      <path
         transform="matrix(-0.4,0,0,-0.4,-4,0)"
         style="fill:#000000;fill-opacity:1;fill-rule:evenodd;stroke:#000000;stroke-width:1.00000003pt;stroke-opacity:1"
         d="M 0,0 5,-5 -12.5,0 5,5 Z"
         id="path7270"
         inkscape:connector-curvature="0" />
    </marker>
    <linearGradient
       inkscape:collect="always"
       xlink:href="#linearGradient8741"
       id="linearGradient8743"
       x1="265.57422"
       y1="-12.084313"
       x2="265.57422"
       y2="114.2115"
       gradientUnits="userSpaceOnUse"
       gradientTransform="matrix(1.6308409,0,0,0.99359234,-171.34701,1.2320573)"
       spreadMethod="pad" />
  </defs>
  <sodipodi:namedview
     id="base"
     pagecolor="#ffffff"
     bordercolor="#666666"
     borderopacity="1.0"
     inkscape:pageopacity="0.0"
     inkscape:pageshadow="2"
     inkscape:zoom="2.6063839"
     inkscape:cx="310.80531"
     inkscape:cy="140.87856"
     inkscape:document-units="px"
     inkscape:current-layer="layer2"
     showgrid="false"
     showguides="true"
     inkscape:window-width="1858"
     inkscape:window-height="1177"
     inkscape:window-x="54"
     inkscape:window-y="-8"
     inkscape:window-maximized="1"
     units="mm"
     fit-margin-top="0"
     fit-margin-left="0"
     fit-margin-right="0"
     fit-margin-bottom="0"
     inkscape:guide-bbox="true" />
  <metadata
     id="metadata7">
    <rdf:RDF>
      <cc:Work
         rdf:about="">
        <dc:format>image/svg+xml</dc:format>
        <dc:type
           rdf:resource="http://purl.org/dc/dcmitype/StillImage" />
        <dc:title></dc:title>
      </cc:Work>
    </rdf:RDF>
  </metadata>
  <g
     inkscape:groupmode="layer"
     id="layer4"
     inkscape:label="Sample"
     style="display:inline">
    <rect
       style="display:inline;opacity:1;fill:url(#linearGradient8743);fill-opacity:1;stroke:none;stroke-width:0;stroke-miterlimit:4;stroke-dasharray:none;stroke-dashoffset:0;stroke-opacity:0"
       id="rect8735"
       width="376.59937"
       height="130.08958"
       x="79.132637"
       y="62.189388" />
  </g>
  <g
     inkscape:groupmode="layer"
     id="layer3"
     inkscape:label="Black"
     style="display:inline">
    <path
       style="opacity:1;fill:#ff6600;fill-opacity:1;stroke:none;stroke-width:0.2386615;stroke-linecap:round;stroke-linejoin:round;stroke-miterlimit:4;stroke-dasharray:none;stroke-dashoffset:0;stroke-opacity:1"
       d="m 213.20746,211.18481 c -12.76389,-7.29132 -15.28626,-18.69956 -15.28442,-32.75171 0.002,-14.05216 4.78759,-26.19089 12.19888,-38.64146 7.41129,-12.45057 39.10402,-60.803222 39.10402,-60.803222 l 31.38929,-0.01373 c 0,0 25.83043,39.162182 41.42593,67.986382 15.5955,28.82415 11.56331,55.59037 -7.33395,65.3785 -11.23386,5.81876 -19.5581,6.92815 -28.78847,8.80519 -10.79201,2.19461 -25.00466,1.67089 -38.41453,-0.0176 -17.11379,-2.15491 -21.53287,-2.651 -34.29675,-9.94232 z"
       id="path4156"
       inkscape:connector-curvature="0"
       sodipodi:nodetypes="czzcczssszc"
       inkscape:export-xdpi="404"
       inkscape:export-ydpi="404"
       inkscape:export-filename="C:\BTSync\Skola\FJFI_2015_LS\bak\images_final\sem_kapka.png" />
    <path
       style="opacity:1;fill:#ffa200;fill-opacity:1;stroke:none;stroke-width:0.2386615;stroke-linecap:round;stroke-linejoin:round;stroke-miterlimit:4;stroke-dasharray:none;stroke-dashoffset:0;stroke-opacity:1"
       d="m 259.26876,208.46359 c -15.64184,-0.5448 -29.96486,-3.57944 -38.72616,-8.73574 -20.74023,-12.20628 -21.40547,-36.22256 2.54045,-78.51301 6.26969,-11.07278 26.14289,-42.226422 26.14289,-42.226422 75.28349,-1.378005 -32.77582,1.054349 31.38929,-0.01373 0,0 15.93511,24.521642 24.65299,39.822782 14.72384,29.96851 34.35182,62.8361 1.1202,81.79348 -10.78795,5.96231 -26.92656,8.57595 -47.11966,7.87264 z"
       id="path4158"
       inkscape:connector-curvature="0"
       sodipodi:nodetypes="sssccccs"
       inkscape:export-xdpi="404"
       inkscape:export-ydpi="404"
       inkscape:export-filename="C:\BTSync\Skola\FJFI_2015_LS\bak\images_final\sem_kapka.png" />
    <path
       style="opacity:1;fill:#e4ff00;fill-opacity:1;stroke:none;stroke-width:0.2386615;stroke-linecap:round;stroke-linejoin:round;stroke-miterlimit:4;stroke-dasharray:none;stroke-dashoffset:0;stroke-opacity:1"
       d="m 216.69949,141.87222 c 0,0 16.17947,-38.30576 32.52645,-62.883802 l 31.38929,-0.01373 c 9.62175,15.119716 31.69972,63.210072 31.69972,63.210072 -31.83417,0.11292 -95.61546,-0.31254 -95.61546,-0.31254 z"
       id="path4162"
       inkscape:connector-curvature="0"
       sodipodi:nodetypes="ccccc"
       inkscape:export-xdpi="404"
       inkscape:export-ydpi="404"
       inkscape:export-filename="C:\BTSync\Skola\FJFI_2015_LS\bak\images_final\sem_kapka.png" />
    <path
       style="opacity:1;fill:#ffde00;fill-opacity:1;stroke:none;stroke-width:0.2386615;stroke-linecap:round;stroke-linejoin:round;stroke-miterlimit:4;stroke-dasharray:none;stroke-dashoffset:0;stroke-opacity:1"
       d="m 231.73691,177.03406 c -10.61233,-7.06231 -19.83193,-20.23192 -15.03742,-35.16184 l 95.61546,0.31254 c 5.0353,14.34619 -4.86001,28.36296 -15.69565,35.3483 -18.17815,11.71878 -46.87688,11.48333 -64.88239,-0.499 z"
       id="path4164"
       inkscape:connector-curvature="0"
       sodipodi:nodetypes="accaa"
       inkscape:export-xdpi="404"
       inkscape:export-ydpi="404"
       inkscape:export-filename="C:\BTSync\Skola\FJFI_2015_LS\bak\images_final\sem_kapka.png" />
    <path
       style="opacity:1;fill:#a8ff00;fill-opacity:1;stroke:none;stroke-width:0.2386615;stroke-linecap:round;stroke-linejoin:round;stroke-miterlimit:4;stroke-dasharray:none;stroke-dashoffset:0;stroke-opacity:1"
       d="m 259.11557,66.659057 11.79291,0.0102 c 3.24557,4.22404 6.10293,7.350178 9.70675,12.305431 l -31.38929,0.01373 c 4.73001,-6.306685 6.41156,-8.158501 9.88963,-12.329361 z"
       id="path4168"
       inkscape:connector-curvature="0"
       sodipodi:nodetypes="ccccc"
       inkscape:export-xdpi="404"
       inkscape:export-ydpi="404"
       inkscape:export-filename="C:\BTSync\Skola\FJFI_2015_LS\bak\images_final\sem_kapka.png" />
    <path
       style="opacity:1;fill:#61e400;fill-opacity:1;stroke:none;stroke-width:0.2386615;stroke-linecap:round;stroke-linejoin:round;stroke-miterlimit:4;stroke-dasharray:none;stroke-dashoffset:0;stroke-opacity:1"
       d="m 259.11557,66.659057 c 1.47263,-1.793225 1.98911,-2.442203 2.83304,-4.473072 l 6.65251,-0.03615 c 0.65215,2.110394 1.21497,3.046565 2.30736,4.519421 z"
       id="path4170"
       inkscape:connector-curvature="0"
       sodipodi:nodetypes="ccccc"
       inkscape:export-xdpi="404"
       inkscape:export-ydpi="404"
       inkscape:export-filename="C:\BTSync\Skola\FJFI_2015_LS\bak\images_final\sem_kapka.png" />
    <path
       style="fill:#e2c994;fill-opacity:1;fill-rule:evenodd;stroke:none;stroke-width:1.34403944px;stroke-linecap:butt;stroke-linejoin:miter;stroke-opacity:1"
       d="M 268.60112,62.149835 284.15064,9.3165487 h -38.07126 l 15.86923,52.8694363 z"
       id="path4574"
       inkscape:connector-curvature="0"
       sodipodi:nodetypes="ccccc"
       inkscape:export-xdpi="404"
       inkscape:export-ydpi="404"
       inkscape:export-filename="C:\BTSync\Skola\FJFI_2015_LS\bak\images_final\sem_kapka.png" />
  </g>
  <g
     inkscape:groupmode="layer"
     id="layer2"
     inkscape:label="popisky"
     style="display:inline"
     transform="translate(-8.2863402,17.662051)">
    <text
       xml:space="preserve"
       style="font-style:normal;font-weight:normal;font-size:15.12044525px;line-height:125%;font-family:sans-serif;letter-spacing:0px;word-spacing:0px;fill:#000000;fill-opacity:1;stroke:none;stroke-width:1.34403944px;stroke-linecap:butt;stroke-linejoin:miter;stroke-opacity:1"
       x="334.06104"
       y="12.21673"
       id="text7674"
       inkscape:export-xdpi="404"
       inkscape:export-ydpi="404"
       inkscape:export-filename="C:\BTSync\Skola\FJFI_2015_LS\bak\images_final\sem_kapka.png"><tspan
         sodipodi:role="line"
         id="tspan7676"
         x="334.06104"
         y="12.21673"
         style="font-size:11.76034451px;stroke-width:1.34403944px">Incident electron beam</tspan></text>
    <text
       id="text7678"
       y="35.567669"
       x="326.09753"
       style="font-style:normal;font-weight:normal;font-size:15.12044525px;line-height:125%;font-family:sans-serif;letter-spacing:0px;word-spacing:0px;fill:#000000;fill-opacity:1;stroke:none;stroke-width:1.34403944px;stroke-linecap:butt;stroke-linejoin:miter;stroke-opacity:1"
       xml:space="preserve"
       inkscape:export-xdpi="404"
       inkscape:export-ydpi="404"
       inkscape:export-filename="C:\BTSync\Skola\FJFI_2015_LS\bak\images_final\sem_kapka.png"><tspan
         style="font-size:11.76034451px;stroke-width:1.34403944px"
         y="35.567669"
         x="326.09753"
         id="tspan7680"
         sodipodi:role="line">Secondary electrons</tspan></text>
    <text
       xml:space="preserve"
       style="font-style:normal;font-weight:normal;font-size:15.12044525px;line-height:125%;font-family:sans-serif;letter-spacing:0px;word-spacing:0px;fill:#000000;fill-opacity:1;stroke:none;stroke-width:1.34403944px;stroke-linecap:butt;stroke-linejoin:miter;stroke-opacity:1"
       x="345.31335"
       y="114.05351"
       id="text7682"
       inkscape:export-xdpi="404"
       inkscape:export-ydpi="404"
       inkscape:export-filename="C:\BTSync\Skola\FJFI_2015_LS\bak\images_final\sem_kapka.png"><tspan
         sodipodi:role="line"
         id="tspan7684"
         x="345.31335"
         y="114.05351"
         style="font-size:11.76034451px;stroke-width:1.34403944px">Backscattered electrons</tspan></text>
    <text
       id="text7686"
       y="158.62051"
       x="351.81476"
       style="font-style:normal;font-weight:normal;font-size:15.12044525px;line-height:125%;font-family:sans-serif;letter-spacing:0px;word-spacing:0px;fill:#000000;fill-opacity:1;stroke:none;stroke-width:1.34403944px;stroke-linecap:butt;stroke-linejoin:miter;stroke-opacity:1"
       xml:space="preserve"
       inkscape:export-xdpi="404"
       inkscape:export-ydpi="404"
       inkscape:export-filename="C:\BTSync\Skola\FJFI_2015_LS\bak\images_final\sem_kapka.png"><tspan
         style="font-size:11.76034451px;stroke-width:1.34403944px"
         y="158.62051"
         x="351.81476"
         id="tspan7688"
         sodipodi:role="line">Characteristic X-ray radiation</tspan></text>
    <text
       xml:space="preserve"
       style="font-style:normal;font-weight:normal;font-size:15.12044525px;line-height:125%;font-family:sans-serif;text-align:end;letter-spacing:0px;word-spacing:0px;text-anchor:end;fill:#000000;fill-opacity:1;stroke:none;stroke-width:1.34403944px;stroke-linecap:butt;stroke-linejoin:miter;stroke-opacity:1"
       x="202.35434"
       y="28.580408"
       id="text7690"
       inkscape:export-xdpi="404"
       inkscape:export-ydpi="404"
       inkscape:export-filename="C:\BTSync\Skola\FJFI_2015_LS\bak\images_final\sem_kapka.png"><tspan
         sodipodi:role="line"
         id="tspan7692"
         x="202.35434"
         y="28.580408"
         style="font-size:11.76034451px;text-align:end;text-anchor:end;stroke-width:1.34403944px">Auger electrons</tspan></text>
    <text
       id="text7694"
       y="173.00656"
       x="174.43277"
       style="font-style:normal;font-weight:normal;font-size:15.12044525px;line-height:125%;font-family:sans-serif;text-align:end;letter-spacing:0px;word-spacing:0px;text-anchor:end;fill:#000000;fill-opacity:1;stroke:none;stroke-width:1.34403944px;stroke-linecap:butt;stroke-linejoin:miter;stroke-opacity:1"
       xml:space="preserve"
       inkscape:export-xdpi="404"
       inkscape:export-ydpi="404"
       inkscape:export-filename="C:\BTSync\Skola\FJFI_2015_LS\bak\images_final\sem_kapka.png"><tspan
         style="font-size:11.76034451px;text-align:end;text-anchor:end;stroke-width:1.34403944px"
         y="173.00656"
         x="174.43277"
         sodipodi:role="line"
         id="tspan7698">Continuum X-ray radiation</tspan></text>
    <text
       xml:space="preserve"
       style="font-style:normal;font-weight:normal;font-size:15.12044525px;line-height:125%;font-family:sans-serif;text-align:end;letter-spacing:0px;word-spacing:0px;text-anchor:end;fill:#000000;fill-opacity:1;stroke:none;stroke-width:1.34403944px;stroke-linecap:butt;stroke-linejoin:miter;stroke-opacity:1"
       x="179.45454"
       y="198.45667"
       id="text8152"
       inkscape:export-xdpi="404"
       inkscape:export-ydpi="404"
       inkscape:export-filename="C:\BTSync\Skola\FJFI_2015_LS\bak\images_final\sem_kapka.png"><tspan
         sodipodi:role="line"
         x="179.45454"
         y="198.45667"
         style="font-size:11.76034451px;text-align:end;text-anchor:end;stroke-width:1.34403944px"
         id="tspan10200">Cathodoluminescence</tspan></text>
    <path
       style="fill:none;stroke:#000000;stroke-width:0.9375px;stroke-linecap:butt;stroke-linejoin:miter;stroke-opacity:1;marker-end:url(#marker11374)"
       d="m 205.47478,26.530779 62.30461,20.578812"
       id="path4867"
       inkscape:connector-curvature="0"
       sodipodi:nodetypes="cc" />
    <path
       style="fill:none;stroke:#000000;stroke-width:0.9375px;stroke-linecap:butt;stroke-linejoin:miter;stroke-opacity:1;marker-end:url(#marker5623)"
       d="m 177.39872,169.2172 h 55.11252"
       id="path5613"
       inkscape:connector-curvature="0" />
    <path
       inkscape:connector-curvature="0"
       id="path5673"
       d="m 183.06096,195.26353 h 55.11252"
       style="fill:none;stroke:#000000;stroke-width:0.9375px;stroke-linecap:butt;stroke-linejoin:miter;stroke-opacity:1;marker-end:url(#marker5677)" />
    <path
       style="fill:none;stroke:#000000;stroke-width:0.9375px;stroke-linecap:butt;stroke-linejoin:miter;stroke-opacity:1;marker-end:url(#marker5875)"
       d="M 349.20252,155.09804 H 294.09"
       id="path5871"
       inkscape:connector-curvature="0" />
    <path
       inkscape:connector-curvature="0"
       id="path6489"
       d="M 343.46912,109.68944 H 288.3566"
       style="fill:none;stroke:#000000;stroke-width:0.9375px;stroke-linecap:butt;stroke-linejoin:miter;stroke-opacity:1;marker-end:url(#marker6493)" />
    <path
       style="fill:none;stroke:#000000;stroke-width:0.9375px;stroke-linecap:butt;stroke-linejoin:miter;stroke-opacity:1;marker-end:url(#marker6661)"
       d="M 323.33408,32.916322 273.61697,55.217334"
       id="path6657"
       inkscape:connector-curvature="0"
       sodipodi:nodetypes="cc" />
    <path
       inkscape:connector-curvature="0"
       id="path6897"
       d="M 329.10697,8.7869256 H 273.99445"
       style="fill:none;stroke:#000000;stroke-width:0.9375px;stroke-linecap:butt;stroke-linejoin:miter;stroke-opacity:1;marker-end:url(#marker6901)" />
    <text
       xml:space="preserve"
       style="font-style:normal;font-weight:normal;font-size:37.5px;line-height:1.25;font-family:sans-serif;text-align:end;letter-spacing:0px;word-spacing:0px;text-anchor:end;fill:#000000;fill-opacity:1;stroke:none;stroke-width:0.9375"
       x="172.27852"
       y="76.78022"
       id="text9196"><tspan
         sodipodi:role="line"
         id="tspan9194"
         x="172.27852"
         y="76.78022"
         style="font-size:12.5px;text-align:end;text-anchor:end;stroke-width:0.9375">sample</tspan></text>
  </g>
</svg>
