<?xml version="1.0" encoding="UTF-8" standalone="no"?>
<!-- Created with Inkscape (http://www.inkscape.org/) -->

<svg
   xmlns:dc="http://purl.org/dc/elements/1.1/"
   xmlns:cc="http://creativecommons.org/ns#"
   xmlns:rdf="http://www.w3.org/1999/02/22-rdf-syntax-ns#"
   xmlns:svg="http://www.w3.org/2000/svg"
   xmlns="http://www.w3.org/2000/svg"
   xmlns:sodipodi="http://sodipodi.sourceforge.net/DTD/sodipodi-0.dtd"
   xmlns:inkscape="http://www.inkscape.org/namespaces/inkscape"
   width="150.96054mm"
   height="60mm"
   viewBox="0 0 150.96054 60.000001"
   version="1.1"
   id="svg8"
   inkscape:version="0.92.2 (5c3e80d, 2017-08-06)"
   sodipodi:docname="VLS.svg">
  <defs
     id="defs2">
    <marker
       inkscape:isstock="true"
       style="overflow:visible"
       id="marker7800"
       refX="0"
       refY="0"
       orient="auto"
       inkscape:stockid="Arrow1Mend">
      <path
         transform="matrix(-0.4,0,0,-0.4,-4,0)"
         style="fill:#000000;fill-opacity:1;fill-rule:evenodd;stroke:#000000;stroke-width:1.00000003pt;stroke-opacity:1"
         d="M 0,0 5,-5 -12.5,0 5,5 Z"
         id="path7798"
         inkscape:connector-curvature="0" />
    </marker>
    <marker
       inkscape:isstock="true"
       style="overflow:visible"
       id="marker6906"
       refX="0"
       refY="0"
       orient="auto"
       inkscape:stockid="Arrow1Mend">
      <path
         transform="matrix(-0.4,0,0,-0.4,-4,0)"
         style="fill:#000000;fill-opacity:1;fill-rule:evenodd;stroke:#000000;stroke-width:1.00000003pt;stroke-opacity:1"
         d="M 0,0 5,-5 -12.5,0 5,5 Z"
         id="path6904"
         inkscape:connector-curvature="0" />
    </marker>
    <marker
       inkscape:stockid="Arrow1Mend"
       orient="auto"
       refY="0"
       refX="0"
       id="marker6120"
       style="overflow:visible"
       inkscape:isstock="true"
       inkscape:collect="always">
      <path
         id="path6118"
         d="M 0,0 5,-5 -12.5,0 5,5 Z"
         style="fill:#000000;fill-opacity:1;fill-rule:evenodd;stroke:#000000;stroke-width:1.00000003pt;stroke-opacity:1"
         transform="matrix(-0.4,0,0,-0.4,-4,0)"
         inkscape:connector-curvature="0" />
    </marker>
    <marker
       inkscape:isstock="true"
       style="overflow:visible"
       id="marker5946"
       refX="0"
       refY="0"
       orient="auto"
       inkscape:stockid="Arrow1Mend"
       inkscape:collect="always">
      <path
         transform="matrix(-0.4,0,0,-0.4,-4,0)"
         style="fill:#000000;fill-opacity:1;fill-rule:evenodd;stroke:#000000;stroke-width:1.00000003pt;stroke-opacity:1"
         d="M 0,0 5,-5 -12.5,0 5,5 Z"
         id="path5944"
         inkscape:connector-curvature="0" />
    </marker>
    <marker
       inkscape:stockid="Arrow1Mend"
       orient="auto"
       refY="0"
       refX="0"
       id="marker5718"
       style="overflow:visible"
       inkscape:isstock="true"
       inkscape:collect="always">
      <path
         id="path5716"
         d="M 0,0 5,-5 -12.5,0 5,5 Z"
         style="fill:#000000;fill-opacity:1;fill-rule:evenodd;stroke:#000000;stroke-width:1.00000003pt;stroke-opacity:1"
         transform="matrix(-0.4,0,0,-0.4,-4,0)"
         inkscape:connector-curvature="0" />
    </marker>
    <marker
       inkscape:isstock="true"
       style="overflow:visible"
       id="marker5574"
       refX="0"
       refY="0"
       orient="auto"
       inkscape:stockid="Arrow1Mend"
       inkscape:collect="always">
      <path
         transform="matrix(-0.4,0,0,-0.4,-4,0)"
         style="fill:#000000;fill-opacity:1;fill-rule:evenodd;stroke:#000000;stroke-width:1.00000003pt;stroke-opacity:1"
         d="M 0,0 5,-5 -12.5,0 5,5 Z"
         id="path5572"
         inkscape:connector-curvature="0" />
    </marker>
    <marker
       inkscape:stockid="Arrow1Mend"
       orient="auto"
       refY="0"
       refX="0"
       id="marker4872"
       style="overflow:visible"
       inkscape:isstock="true"
       inkscape:collect="always">
      <path
         id="path4870"
         d="M 0,0 5,-5 -12.5,0 5,5 Z"
         style="fill:#000000;fill-opacity:1;fill-rule:evenodd;stroke:#000000;stroke-width:1.00000003pt;stroke-opacity:1"
         transform="matrix(-0.4,0,0,-0.4,-4,0)"
         inkscape:connector-curvature="0" />
    </marker>
    <marker
       inkscape:stockid="Arrow1Send"
       orient="auto"
       refY="0"
       refX="0"
       id="Arrow1Send"
       style="overflow:visible"
       inkscape:isstock="true">
      <path
         id="path4571"
         d="M 0,0 5,-5 -12.5,0 5,5 Z"
         style="fill:#000000;fill-opacity:1;fill-rule:evenodd;stroke:#000000;stroke-width:1.00000003pt;stroke-opacity:1"
         transform="matrix(-0.2,0,0,-0.2,-1.2,0)"
         inkscape:connector-curvature="0" />
    </marker>
    <marker
       inkscape:stockid="Arrow1Mend"
       orient="auto"
       refY="0"
       refX="0"
       id="Arrow1Mend"
       style="overflow:visible"
       inkscape:isstock="true">
      <path
         id="path4565"
         d="M 0,0 5,-5 -12.5,0 5,5 Z"
         style="fill:#000000;fill-opacity:1;fill-rule:evenodd;stroke:#000000;stroke-width:1.00000003pt;stroke-opacity:1"
         transform="matrix(-0.4,0,0,-0.4,-4,0)"
         inkscape:connector-curvature="0" />
    </marker>
  </defs>
  <sodipodi:namedview
     id="base"
     pagecolor="#ffffff"
     bordercolor="#666666"
     borderopacity="1.0"
     inkscape:pageopacity="0.0"
     inkscape:pageshadow="2"
     inkscape:zoom="1.583462"
     inkscape:cx="190.63034"
     inkscape:cy="146.27173"
     inkscape:document-units="mm"
     inkscape:current-layer="layer1"
     showgrid="false"
     fit-margin-top="0"
     fit-margin-left="0"
     fit-margin-right="0"
     fit-margin-bottom="0"
     inkscape:window-width="1858"
     inkscape:window-height="1177"
     inkscape:window-x="54"
     inkscape:window-y="-8"
     inkscape:window-maximized="1" />
  <metadata
     id="metadata5">
    <rdf:RDF>
      <cc:Work
         rdf:about="">
        <dc:format>image/svg+xml</dc:format>
        <dc:type
           rdf:resource="http://purl.org/dc/dcmitype/StillImage" />
        <dc:title></dc:title>
      </cc:Work>
    </rdf:RDF>
  </metadata>
  <g
     inkscape:label="Layer 1"
     inkscape:groupmode="layer"
     id="layer1"
     transform="translate(-37.977757,-9.1580537)">
    <path
       style="fill:#ffcc00;fill-opacity:1;stroke:none;stroke-width:0.33411446;stroke-miterlimit:4;stroke-dasharray:none;stroke-opacity:1"
       id="path4487"
       sodipodi:type="arc"
       sodipodi:cx="-53.964706"
       sodipodi:cy="-61.722557"
       sodipodi:rx="6.174047"
       sodipodi:ry="6.174047"
       sodipodi:start="0"
       sodipodi:end="3.1415927"
       d="m -47.790659,-61.722557 a 6.174047,6.174047 0 0 1 -3.087024,5.346882 6.174047,6.174047 0 0 1 -6.174047,-10e-7 6.174047,6.174047 0 0 1 -3.087023,-5.346881 l 6.174047,0 z"
       transform="scale(-1)" />
    <path
       transform="scale(-1)"
       d="m -78.734034,-61.722557 a 6.174047,6.174047 0 0 1 -3.087024,5.346882 6.174047,6.174047 0 0 1 -6.174047,-10e-7 6.174047,6.174047 0 0 1 -3.087023,-5.346881 l 6.174047,0 z"
       sodipodi:end="3.1415927"
       sodipodi:start="0"
       sodipodi:ry="6.174047"
       sodipodi:rx="6.174047"
       sodipodi:cy="-61.722557"
       sodipodi:cx="-84.908081"
       sodipodi:type="arc"
       id="path4498"
       style="fill:#ffcc00;fill-opacity:1;stroke:none;stroke-width:0.33411446;stroke-miterlimit:4;stroke-dasharray:none;stroke-opacity:1" />
    <path
       style="fill:#ffcc00;fill-opacity:1;stroke:none;stroke-width:0.31284124;stroke-miterlimit:4;stroke-dasharray:none;stroke-opacity:1"
       id="path4500"
       sodipodi:type="arc"
       sodipodi:cx="-118.03337"
       sodipodi:cy="-58.640503"
       sodipodi:rx="5.4128675"
       sodipodi:ry="6.174047"
       sodipodi:start="0.17453293"
       sodipodi:end="2.9670597"
       d="m -112.70274,-57.568391 a 5.4128675,6.174047 0 0 1 -5.33063,5.101935 5.4128675,6.174047 0 0 1 -5.33063,-5.101935"
       transform="scale(-1)"
       sodipodi:open="true" />
    <path
       transform="scale(-1)"
       d="m -140.47641,-35.297131 a 5.6768441,6.174047 0 0 1 -5.33449,4.062399 5.6768441,6.174047 0 0 1 -5.33449,-4.062399"
       sodipodi:end="2.7925268"
       sodipodi:start="0.34906585"
       sodipodi:ry="6.174047"
       sodipodi:rx="5.6768441"
       sodipodi:cy="-37.408779"
       sodipodi:cx="-145.8109"
       sodipodi:type="arc"
       id="path4504"
       style="fill:#ffcc00;fill-opacity:1;stroke:none;stroke-width:0.32037884;stroke-miterlimit:4;stroke-dasharray:none;stroke-opacity:1"
       sodipodi:open="true" />
    <path
       sodipodi:open="true"
       style="fill:#ffcc00;fill-opacity:1;stroke:none;stroke-width:0.33411446;stroke-miterlimit:4;stroke-dasharray:none;stroke-opacity:1"
       id="path4508"
       sodipodi:type="arc"
       sodipodi:cx="-172.53709"
       sodipodi:cy="-25.594097"
       sodipodi:rx="6.174047"
       sodipodi:ry="6.174047"
       sodipodi:start="0.52359878"
       sodipodi:end="2.6179939"
       d="m -167.19021,-22.507074 a 6.174047,6.174047 0 0 1 -5.34688,3.087024 6.174047,6.174047 0 0 1 -5.34689,-3.087024"
       transform="scale(-1)" />
    <rect
       style="fill:#84a9e0;fill-opacity:1;stroke:none;stroke-width:0.5322476;stroke-miterlimit:4;stroke-dasharray:none;stroke-opacity:1"
       id="rect4510"
       width="10.674084"
       height="39.664433"
       x="167.19022"
       y="22.507074" />
    <rect
       y="35.297134"
       x="140.47641"
       height="27.269304"
       width="10.674084"
       id="rect4512"
       style="fill:#84a9e0;fill-opacity:1;stroke:none;stroke-width:0.44131646;stroke-miterlimit:4;stroke-dasharray:none;stroke-opacity:1" />
    <rect
       style="fill:#84a9e0;fill-opacity:1;stroke:none;stroke-width:0.18583921;stroke-miterlimit:4;stroke-dasharray:none;stroke-opacity:1"
       id="rect4514"
       width="10.674084"
       height="4.8355789"
       x="112.70667"
       y="57.563766" />
    <circle
       style="fill:#84a9e0;fill-opacity:1;stroke:none;stroke-width:0.33411446;stroke-miterlimit:4;stroke-dasharray:none;stroke-opacity:1"
       id="path4520"
       cx="74.063179"
       cy="39.940472"
       r="1.1102308" />
    <circle
       r="1.1102308"
       cy="34.062775"
       cx="78.242882"
       id="circle4522"
       style="fill:#84a9e0;fill-opacity:1;stroke:none;stroke-width:0.33411446;stroke-miterlimit:4;stroke-dasharray:none;stroke-opacity:1" />
    <circle
       style="fill:#84a9e0;fill-opacity:1;stroke:none;stroke-width:0.33411446;stroke-miterlimit:4;stroke-dasharray:none;stroke-opacity:1"
       id="circle4524"
       cx="92.104507"
       cy="18.831453"
       r="1.1102308" />
    <circle
       r="1.1102308"
       cy="27.137762"
       cx="74.576263"
       id="circle4526"
       style="fill:#84a9e0;fill-opacity:1;stroke:none;stroke-width:0.33411446;stroke-miterlimit:4;stroke-dasharray:none;stroke-opacity:1" />
    <circle
       style="fill:#84a9e0;fill-opacity:1;stroke:none;stroke-width:0.33411446;stroke-miterlimit:4;stroke-dasharray:none;stroke-opacity:1"
       id="circle4528"
       cx="83.519257"
       cy="31.137478"
       r="1.1102308" />
    <circle
       r="1.1102308"
       cy="36.936317"
       cx="88.30027"
       id="circle4530"
       style="fill:#84a9e0;fill-opacity:1;stroke:none;stroke-width:0.33411446;stroke-miterlimit:4;stroke-dasharray:none;stroke-opacity:1" />
    <circle
       style="fill:#84a9e0;fill-opacity:1;stroke:none;stroke-width:0.33411446;stroke-miterlimit:4;stroke-dasharray:none;stroke-opacity:1"
       id="circle4532"
       cx="95.092262"
       cy="36.413857"
       r="1.1102308" />
    <circle
       r="1.1102308"
       cy="41.526642"
       cx="108.34315"
       id="circle4534"
       style="fill:#84a9e0;fill-opacity:1;stroke:none;stroke-width:0.33411446;stroke-miterlimit:4;stroke-dasharray:none;stroke-opacity:1" />
    <circle
       style="fill:#84a9e0;fill-opacity:1;stroke:none;stroke-width:0.33411446;stroke-miterlimit:4;stroke-dasharray:none;stroke-opacity:1"
       id="circle4536"
       cx="112.65106"
       cy="49.949589"
       r="1.1102308" />
    <circle
       r="1.1102308"
       cy="42.430466"
       cx="119.836"
       id="circle4538"
       style="fill:#84a9e0;fill-opacity:1;stroke:none;stroke-width:0.33411446;stroke-miterlimit:4;stroke-dasharray:none;stroke-opacity:1" />
    <circle
       style="fill:#84a9e0;fill-opacity:1;stroke:none;stroke-width:0.33411446;stroke-miterlimit:4;stroke-dasharray:none;stroke-opacity:1"
       id="circle4540"
       cx="114.86453"
       cy="39.135593"
       r="1.1102308" />
    <circle
       r="1.1102308"
       cy="29.433575"
       cx="92.908272"
       id="circle4542"
       style="fill:#84a9e0;fill-opacity:1;stroke:none;stroke-width:0.33411446;stroke-miterlimit:4;stroke-dasharray:none;stroke-opacity:1" />
    <circle
       style="fill:#84a9e0;fill-opacity:1;stroke:none;stroke-width:0.33411446;stroke-miterlimit:4;stroke-dasharray:none;stroke-opacity:1"
       id="circle4544"
       cx="121.73997"
       cy="47.944485"
       r="1.1102308" />
    <circle
       r="1.1102308"
       cy="40.322922"
       cx="125.91617"
       id="circle4546"
       style="fill:#84a9e0;fill-opacity:1;stroke:none;stroke-width:0.33411446;stroke-miterlimit:4;stroke-dasharray:none;stroke-opacity:1" />
    <circle
       style="fill:#84a9e0;fill-opacity:1;stroke:none;stroke-width:0.33411446;stroke-miterlimit:4;stroke-dasharray:none;stroke-opacity:1"
       id="circle4548"
       cx="105.71072"
       cy="53.00108"
       r="1.1102308" />
    <circle
       r="1.1102308"
       cy="43.863518"
       cx="113.69378"
       id="circle4550"
       style="fill:#84a9e0;fill-opacity:1;stroke:none;stroke-width:0.33411446;stroke-miterlimit:4;stroke-dasharray:none;stroke-opacity:1" />
    <circle
       style="fill:#84a9e0;fill-opacity:1;stroke:none;stroke-width:0.33411446;stroke-miterlimit:4;stroke-dasharray:none;stroke-opacity:1"
       id="circle4552"
       cx="126.88425"
       cy="48.666752"
       r="1.1102308" />
    <path
       style="fill:none;stroke:#000000;stroke-width:0.33411446;stroke-linecap:butt;stroke-linejoin:miter;stroke-miterlimit:4;stroke-dasharray:none;stroke-opacity:1;marker-end:url(#marker4872)"
       d="m 78.308183,36.348547 v 7.706308"
       id="path4554"
       inkscape:connector-curvature="0"
       sodipodi:nodetypes="cc" />
    <path
       sodipodi:nodetypes="cc"
       inkscape:connector-curvature="0"
       id="path5570"
       d="m 73.967378,42.004748 v 7.706308"
       style="fill:none;stroke:#000000;stroke-width:0.33411446;stroke-linecap:butt;stroke-linejoin:miter;stroke-miterlimit:4;stroke-dasharray:none;stroke-opacity:1;marker-end:url(#marker5574)" />
    <path
       style="fill:none;stroke:#000000;stroke-width:0.33411446;stroke-linecap:butt;stroke-linejoin:miter;stroke-miterlimit:4;stroke-dasharray:none;stroke-opacity:1;marker-end:url(#marker5718)"
       d="m 88.436729,39.242417 v 7.706308"
       id="path5714"
       inkscape:connector-curvature="0"
       sodipodi:nodetypes="cc" />
    <path
       sodipodi:nodetypes="cc"
       inkscape:connector-curvature="0"
       id="path5942"
       d="m 95.145246,38.716259 v 7.706307"
       style="fill:none;stroke:#000000;stroke-width:0.33411446;stroke-linecap:butt;stroke-linejoin:miter;stroke-miterlimit:4;stroke-dasharray:none;stroke-opacity:1;marker-end:url(#marker5946)" />
    <path
       style="fill:none;stroke:#000000;stroke-width:0.33411446;stroke-linecap:butt;stroke-linejoin:miter;stroke-miterlimit:4;stroke-dasharray:none;stroke-opacity:1;marker-end:url(#marker6120)"
       d="m 106.21565,54.764085 c 1.00847,2.722232 2.60887,3.800219 5.59043,5.207056"
       id="path6116"
       inkscape:connector-curvature="0"
       sodipodi:nodetypes="cc" />
    <path
       sodipodi:nodetypes="cc"
       inkscape:connector-curvature="0"
       id="path6902"
       d="m 127.4593,50.225971 c 0.81115,3.708779 1.57954,6.339734 -3.06119,9.339047"
       style="fill:none;stroke:#000000;stroke-width:0.33411446;stroke-linecap:butt;stroke-linejoin:miter;stroke-miterlimit:4;stroke-dasharray:none;stroke-opacity:1;marker-end:url(#marker6906)" />
    <path
       sodipodi:nodetypes="cc"
       inkscape:connector-curvature="0"
       id="path7796"
       d="m 153.58542,59.442431 0,-20.134004"
       style="fill:none;stroke:#000000;stroke-width:0.33411446;stroke-linecap:butt;stroke-linejoin:miter;stroke-miterlimit:4;stroke-dasharray:none;stroke-opacity:1;marker-end:url(#marker7800)" />
    <circle
       style="fill:#84a9e0;fill-opacity:1;stroke:none;stroke-width:0.33411446;stroke-miterlimit:4;stroke-dasharray:none;stroke-opacity:1"
       id="circle8465"
       cx="79.373848"
       cy="16.734606"
       r="1.1102308" />
    <circle
       r="1.1102308"
       cy="26.927198"
       cx="97.419746"
       id="circle8467"
       style="fill:#84a9e0;fill-opacity:1;stroke:none;stroke-width:0.33411446;stroke-miterlimit:4;stroke-dasharray:none;stroke-opacity:1" />
  </g>
  <g
     inkscape:groupmode="layer"
     id="layer3"
     inkscape:label="Substrate"
     style="display:inline">
    <rect
       transform="translate(-37.977757,-9.1580536)"
       style="fill:#b3b3b3;fill-opacity:1;stroke:none;stroke-width:0.54503912;stroke-miterlimit:4;stroke-dasharray:none;stroke-opacity:1"
       id="rect4485"
       width="146.20413"
       height="5.9279494"
       x="40.651222"
       y="61.72628" />
  </g>
  <g
     inkscape:groupmode="layer"
     id="layer2"
     inkscape:label="Labels"
     transform="translate(-37.977757,-9.1580537)"
     style="display:inline">
    <text
       xml:space="preserve"
       style="font-style:normal;font-variant:normal;font-weight:normal;font-stretch:normal;font-size:5.78221178px;line-height:8.33972836px;font-family:'Courier New';-inkscape-font-specification:'Courier New';letter-spacing:0px;word-spacing:0px;fill:#000000;fill-opacity:1;stroke:none;stroke-width:0.33358914"
       x="42.13126"
       y="65.93367"
       id="text8423"><tspan
         sodipodi:role="line"
         id="tspan8421"
         x="42.13126"
         y="65.93367"
         style="font-style:normal;font-variant:normal;font-weight:normal;font-stretch:normal;font-size:3.52777767px;font-family:sans-serif;-inkscape-font-specification:sans-serif;text-align:start;text-anchor:start;stroke-width:0.33358914">substrate</tspan></text>
    <text
       xml:space="preserve"
       style="font-style:normal;font-variant:normal;font-weight:normal;font-stretch:normal;font-size:5.78221178px;line-height:8.33972836px;font-family:'Courier New';-inkscape-font-specification:'Courier New';letter-spacing:0px;word-spacing:0px;fill:#000000;fill-opacity:1;stroke:none;stroke-width:0.33358914"
       x="42.146763"
       y="52.901394"
       id="text8423-4"><tspan
         sodipodi:role="line"
         id="tspan8421-7"
         x="42.146763"
         y="52.901394"
         style="font-style:normal;font-variant:normal;font-weight:normal;font-stretch:normal;font-size:3.52777767px;font-family:sans-serif;-inkscape-font-specification:sans-serif;text-align:start;text-anchor:start;stroke-width:0.33358914">metal particle</tspan></text>
    <text
       xml:space="preserve"
       style="font-style:normal;font-variant:normal;font-weight:normal;font-stretch:normal;font-size:4.58611107px;line-height:6.61458302px;font-family:'Courier New';-inkscape-font-specification:'Courier New';letter-spacing:0px;word-spacing:0px;fill:#000000;fill-opacity:1;stroke:none;stroke-width:0.26458332"
       x="77.4114"
       y="17.025448"
       id="text8445"><tspan
         sodipodi:role="line"
         id="tspan8443"
         x="77.4114"
         y="21.547039"
         style="stroke-width:0.26458332" /></text>
    <text
       xml:space="preserve"
       style="font-style:normal;font-variant:normal;font-weight:normal;font-stretch:normal;font-size:5.78221178px;line-height:8.33972836px;font-family:'Courier New';-inkscape-font-specification:'Courier New';letter-spacing:0px;word-spacing:0px;fill:#000000;fill-opacity:1;stroke:none;stroke-width:0.33358914"
       x="77.820183"
       y="25.028595"
       id="text8423-4-6"><tspan
         sodipodi:role="line"
         id="tspan8421-7-3"
         x="77.820183"
         y="25.028595"
         style="font-style:normal;font-variant:normal;font-weight:normal;font-stretch:normal;font-size:3.52777767px;font-family:sans-serif;-inkscape-font-specification:sans-serif;text-align:start;text-anchor:start;stroke-width:0.33358914">precursor</tspan></text>
    <text
       xml:space="preserve"
       style="font-style:normal;font-variant:normal;font-weight:normal;font-stretch:normal;font-size:5.78221178px;line-height:8.33972836px;font-family:'Courier New';-inkscape-font-specification:'Courier New';letter-spacing:0px;word-spacing:0px;fill:#000000;fill-opacity:1;stroke:none;stroke-width:0.33358914"
       x="108.37949"
       y="35.705246"
       id="text8423-4-6-6"><tspan
         sodipodi:role="line"
         id="tspan8421-7-3-7"
         x="108.37949"
         y="35.705246"
         style="font-style:normal;font-variant:normal;font-weight:normal;font-stretch:normal;font-size:3.52777767px;font-family:sans-serif;-inkscape-font-specification:sans-serif;text-align:start;text-anchor:start;stroke-width:0.33358914">deposition</tspan></text>
    <text
       xml:space="preserve"
       style="font-style:normal;font-variant:normal;font-weight:normal;font-stretch:normal;font-size:5.78221178px;line-height:8.33972836px;font-family:'Courier New';-inkscape-font-specification:'Courier New';letter-spacing:0px;word-spacing:0px;fill:#000000;fill-opacity:1;stroke:none;stroke-width:0.33358914"
       x="-55.070507"
       y="157.19427"
       id="text8423-4-6-6-1"
       transform="rotate(-90)"><tspan
         sodipodi:role="line"
         id="tspan8421-7-3-7-6"
         x="-55.070507"
         y="157.19427"
         style="font-style:normal;font-variant:normal;font-weight:normal;font-stretch:normal;font-size:3.52777767px;font-family:sans-serif;-inkscape-font-specification:sans-serif;text-align:start;text-anchor:start;stroke-width:0.33358914">growth</tspan></text>
    <text
       id="text8603"
       y="15.305765"
       x="159.61221"
       style="font-style:normal;font-variant:normal;font-weight:normal;font-stretch:normal;font-size:5.78221178px;line-height:8.33972836px;font-family:'Courier New';-inkscape-font-specification:'Courier New';letter-spacing:0px;word-spacing:0px;fill:#000000;fill-opacity:1;stroke:none;stroke-width:0.33358914"
       xml:space="preserve"><tspan
         style="font-style:normal;font-variant:normal;font-weight:normal;font-stretch:normal;font-size:3.52777767px;font-family:sans-serif;-inkscape-font-specification:sans-serif;text-align:start;text-anchor:start;stroke-width:0.33358914"
         y="15.305765"
         x="159.61221"
         id="tspan8601"
         sodipodi:role="line">metal particle</tspan></text>
    <text
       xml:space="preserve"
       style="font-style:normal;font-variant:normal;font-weight:normal;font-stretch:normal;font-size:5.78221178px;line-height:8.33972836px;font-family:'Courier New';-inkscape-font-specification:'Courier New';letter-spacing:0px;word-spacing:0px;fill:#000000;fill-opacity:1;stroke:none;stroke-width:0.33358914"
       x="-53.7243"
       y="173.79657"
       id="text8423-4-6-6-1-0"
       transform="rotate(-90)"><tspan
         sodipodi:role="line"
         id="tspan8421-7-3-7-6-6"
         x="-53.7243"
         y="173.79657"
         style="font-style:normal;font-variant:normal;font-weight:normal;font-stretch:normal;font-size:3.52777767px;font-family:sans-serif;-inkscape-font-specification:sans-serif;text-align:start;text-anchor:start;stroke-width:0.33358914">nanorod</tspan></text>
  </g>
</svg>
