#  Measurement ID: 2017_11_29__19:37_NMIV_snr656-iv4p
#  Start:	0.0 V
#  Stop:	10.0 V
#  \# of points:	41
#  Averaging 2 measurements.
#  Measuring one way.
# U [V] 			 I[A]
0.0000000e+00 2.8550000e-12
2.5000000e-01 7.8315000e-11
5.0000000e-01 4.2718500e-10
7.5000000e-01 1.2473000e-09
1.0000000e+00 2.5827000e-09
1.2500000e+00 4.3619500e-09
1.5000000e+00 6.5908500e-09
1.7500000e+00 9.2025000e-09
2.0000000e+00 1.2062000e-08
2.2500000e+00 1.5208000e-08
2.5000000e+00 1.8491500e-08
2.7500000e+00 2.2071500e-08
3.0000000e+00 2.5855500e-08
3.2500000e+00 2.9767500e-08
3.5000000e+00 3.3838000e-08
3.7500000e+00 3.8012000e-08
4.0000000e+00 4.2426000e-08
4.2500000e+00 4.6831000e-08
4.5000000e+00 5.1588500e-08
4.7500000e+00 5.6195500e-08
5.0000000e+00 6.1192500e-08
5.2500000e+00 6.6016500e-08
5.5000000e+00 7.1121000e-08
5.7500000e+00 7.6278500e-08
6.0000000e+00 8.1510000e-08
6.2500000e+00 9.0650500e-08
6.5000000e+00 9.6460000e-08
6.7500000e+00 1.0229500e-07
7.0000000e+00 1.0795500e-07
7.2500000e+00 1.1409500e-07
7.5000000e+00 1.1996000e-07
7.7500000e+00 1.2615000e-07
8.0000000e+00 1.3246000e-07
8.2500000e+00 1.3876500e-07
8.5000000e+00 1.4513000e-07
8.7500000e+00 1.5156500e-07
9.0000000e+00 1.5831000e-07
9.2500000e+00 1.6477500e-07
9.5000000e+00 1.7171500e-07
9.7500000e+00 1.7854500e-07
1.0000000e+01 1.8504000e-07
