#  Measurement ID: 2018_01_22__16:25_NMIV_527_nr3_pos
#  Start:	0.0 V
#  Stop:	10.0 V
#  \# of points:	61
#  Averaging 3 measurements.
#  Measuring both ways.
# U [V] 			 I[A]
0.0000000e+00 3.4356667e-11
1.6666667e-01 1.1245000e-10
3.3333333e-01 2.3965000e-10
5.0000000e-01 4.4452667e-10
6.6666667e-01 7.0839333e-10
8.3333333e-01 1.0198000e-09
1.0000000e+00 1.4455333e-09
1.1666667e+00 1.9995000e-09
1.3333333e+00 2.7220333e-09
1.5000000e+00 3.5714667e-09
1.6666667e+00 4.3089000e-09
1.8333333e+00 4.9979000e-09
2.0000000e+00 6.2938333e-09
2.1666667e+00 7.6225667e-09
2.3333333e+00 9.3343333e-09
2.5000000e+00 1.1208333e-08
2.6666667e+00 1.3676000e-08
2.8333333e+00 1.5550333e-08
3.0000000e+00 1.7570333e-08
3.1666667e+00 2.1111000e-08
3.3333333e+00 2.4353000e-08
3.5000000e+00 2.8088000e-08
3.6666667e+00 3.2148333e-08
3.8333333e+00 3.8168667e-08
4.0000000e+00 4.3907667e-08
4.1666667e+00 5.1709667e-08
4.3333333e+00 5.7538333e-08
4.5000000e+00 6.4991667e-08
4.6666667e+00 7.4762333e-08
4.8333333e+00 8.4174000e-08
5.0000000e+00 9.6486667e-08
5.1666667e+00 1.0938333e-07
5.3333333e+00 1.1993333e-07
5.5000000e+00 1.3142333e-07
5.6666667e+00 1.4498667e-07
5.8333333e+00 1.5593000e-07
6.0000000e+00 1.7538000e-07
6.1666667e+00 1.9530000e-07
6.3333333e+00 2.0979000e-07
6.5000000e+00 2.2559000e-07
6.6666667e+00 2.5627667e-07
6.8333333e+00 2.7403333e-07
7.0000000e+00 3.0385667e-07
7.1666667e+00 3.3023000e-07
7.3333333e+00 3.5377333e-07
7.5000000e+00 4.0590667e-07
7.6666667e+00 4.3628333e-07
7.8333333e+00 4.6337667e-07
8.0000000e+00 4.8193000e-07
8.1666667e+00 5.0197667e-07
8.3333333e+00 5.3616333e-07
8.5000000e+00 5.7301667e-07
8.6666667e+00 6.3754000e-07
8.8333333e+00 6.7056000e-07
9.0000000e+00 7.2810333e-07
9.1666667e+00 7.6661667e-07
9.3333333e+00 7.9020667e-07
9.5000000e+00 8.0177667e-07
9.6666667e+00 8.6667000e-07
9.8333333e+00 9.0069667e-07
1.0000000e+01 9.5870000e-07
1.0000000e+01 9.1450000e-07
9.8333333e+00 8.9719000e-07
9.6666667e+00 8.4005000e-07
9.5000000e+00 7.7686333e-07
9.3333333e+00 7.1148667e-07
9.1666667e+00 6.9904667e-07
9.0000000e+00 6.7844667e-07
8.8333333e+00 6.5051000e-07
8.6666667e+00 6.0356667e-07
8.5000000e+00 5.7418000e-07
8.3333333e+00 5.2827000e-07
8.1666667e+00 4.8543333e-07
8.0000000e+00 4.3663000e-07
7.8333333e+00 3.9480000e-07
7.6666667e+00 3.7701667e-07
7.5000000e+00 3.5396667e-07
7.3333333e+00 3.2118667e-07
7.1666667e+00 3.0196000e-07
7.0000000e+00 2.7915000e-07
6.8333333e+00 2.4472667e-07
6.6666667e+00 2.0666000e-07
6.5000000e+00 1.9854667e-07
6.3333333e+00 1.8187000e-07
6.1666667e+00 1.6772000e-07
6.0000000e+00 1.5262333e-07
5.8333333e+00 1.4397667e-07
5.6666667e+00 1.3193333e-07
5.5000000e+00 1.1532667e-07
5.3333333e+00 1.0747333e-07
5.1666667e+00 9.9643333e-08
5.0000000e+00 9.0513667e-08
4.8333333e+00 8.3117000e-08
4.6666667e+00 7.4745333e-08
4.5000000e+00 6.7047333e-08
4.3333333e+00 6.0546667e-08
4.1666667e+00 5.2634000e-08
4.0000000e+00 4.7572333e-08
3.8333333e+00 4.4169333e-08
3.6666667e+00 3.7524000e-08
3.5000000e+00 3.1735000e-08
3.3333333e+00 2.6910000e-08
3.1666667e+00 2.2938333e-08
3.0000000e+00 2.0798333e-08
2.8333333e+00 1.7306333e-08
2.6666667e+00 1.5290000e-08
2.5000000e+00 1.2625000e-08
2.3333333e+00 1.0898667e-08
2.1666667e+00 9.0082000e-09
2.0000000e+00 7.4982667e-09
1.8333333e+00 6.1915333e-09
1.6666667e+00 5.2511333e-09
1.5000000e+00 4.1354667e-09
1.3333333e+00 3.2255000e-09
1.1666667e+00 2.5297333e-09
1.0000000e+00 1.9109000e-09
8.3333333e-01 1.3896000e-09
6.6666667e-01 9.4360000e-10
5.0000000e-01 5.9074333e-10
3.3333333e-01 3.3952000e-10
1.6666667e-01 1.3996333e-10
0.0000000e+00 3.3026667e-11
