#  Measurement ID: 2017_07_25__14:58_NMIV_692_12#4_iv3n
#  Start:	0.0 V
#  Stop:	-20.0 V
#  \# of points:	41
#  Averaging 3 measurements.
#  Measuring both ways.
# U [V] 			 I[A]
0.0000000e+00 4.0333333e-13
-5.0000000e-01 -1.7500000e-12
-1.0000000e+00 -2.0600000e-12
-1.5000000e+00 -2.4833333e-12
-2.0000000e+00 -2.1833333e-12
-2.5000000e+00 -4.0233333e-12
-3.0000000e+00 -6.6966667e-12
-3.5000000e+00 -7.0133333e-12
-4.0000000e+00 -1.0656667e-11
-4.5000000e+00 -1.8653333e-11
-5.0000000e+00 -2.8113333e-11
-5.5000000e+00 -4.0970000e-11
-6.0000000e+00 -6.2083333e-11
-6.5000000e+00 -9.1050000e-11
-7.0000000e+00 -1.2892333e-10
-7.5000000e+00 -1.7797000e-10
-8.0000000e+00 -2.4467000e-10
-8.5000000e+00 -3.3266667e-10
-9.0000000e+00 -4.4511667e-10
-9.5000000e+00 -5.9779333e-10
-1.0000000e+01 -8.0447333e-10
-1.0500000e+01 -1.0057333e-09
-1.1000000e+01 -1.2881333e-09
-1.1500000e+01 -1.6737000e-09
-1.2000000e+01 -2.0340333e-09
-1.2500000e+01 -2.7101000e-09
-1.3000000e+01 -3.4598000e-09
-1.3500000e+01 -4.3162333e-09
-1.4000000e+01 -5.3666333e-09
-1.4500000e+01 -6.5393000e-09
-1.5000000e+01 -7.7940000e-09
-1.5500000e+01 -9.5563333e-09
-1.6000000e+01 -1.1321333e-08
-1.6500000e+01 -1.3527667e-08
-1.7000000e+01 -1.5990333e-08
-1.7500000e+01 -1.8535333e-08
-1.8000000e+01 -2.0736000e-08
-1.8500000e+01 -2.3819333e-08
-1.9000000e+01 -2.7217667e-08
-1.9500000e+01 -3.0819667e-08
-2.0000000e+01 -3.4656000e-08
-2.0000000e+01 -3.2677000e-08
-1.9500000e+01 -2.7215667e-08
-1.9000000e+01 -2.3072333e-08
-1.8500000e+01 -1.9926667e-08
-1.8000000e+01 -1.6610667e-08
-1.7500000e+01 -1.4240000e-08
-1.7000000e+01 -1.2135667e-08
-1.6500000e+01 -9.9520000e-09
-1.6000000e+01 -8.4920333e-09
-1.5500000e+01 -6.9663667e-09
-1.5000000e+01 -5.8899000e-09
-1.4500000e+01 -4.9358000e-09
-1.4000000e+01 -4.0728000e-09
-1.3500000e+01 -3.3131000e-09
-1.3000000e+01 -2.7456667e-09
-1.2500000e+01 -2.1764333e-09
-1.2000000e+01 -1.7514000e-09
-1.1500000e+01 -1.4245333e-09
-1.1000000e+01 -1.1332000e-09
-1.0500000e+01 -8.8538000e-10
-1.0000000e+01 -6.9385667e-10
-9.5000000e+00 -5.2662333e-10
-9.0000000e+00 -3.9603000e-10
-8.5000000e+00 -3.0658333e-10
-8.0000000e+00 -2.3084667e-10
-7.5000000e+00 -1.6635667e-10
-7.0000000e+00 -1.2092667e-10
-6.5000000e+00 -8.5833333e-11
-6.0000000e+00 -5.7730000e-11
-5.5000000e+00 -3.7546667e-11
-5.0000000e+00 -2.4693333e-11
-4.5000000e+00 -1.4893333e-11
-4.0000000e+00 -7.5800000e-12
-3.5000000e+00 -3.8966667e-12
-3.0000000e+00 -2.8500000e-12
-2.5000000e+00 -4.4333333e-13
-2.0000000e+00 6.4666667e-13
-1.5000000e+00 3.6666667e-13
-1.0000000e+00 5.6000000e-13
-5.0000000e-01 1.9100000e-12
0.0000000e+00 2.3700000e-12
