#692 ni-gan-ni iv
Teplota:0.0E+0Merene cislo:1Rezim V - IPolarita-

1.000E-1	1.358E-5
1.100E-1	1.493E-5
1.200E-1	1.628E-5
1.300E-1	1.763E-5
1.400E-1	1.899E-5
1.500E-1	2.035E-5
1.600E-1	2.171E-5
1.700E-1	2.306E-5
1.800E-1	2.443E-5
1.900E-1	2.580E-5
2.000E-1	2.717E-5
2.100E-1	2.855E-5
2.200E-1	2.993E-5
2.300E-1	3.131E-5
2.400E-1	3.270E-5
2.500E-1	3.409E-5
2.600E-1	3.549E-5
2.700E-1	3.690E-5
2.800E-1	3.830E-5
2.900E-1	3.971E-5
3.000E-1	4.112E-5
3.100E-1	4.255E-5
3.200E-1	4.398E-5
3.300E-1	4.542E-5
3.400E-1	4.686E-5
3.500E-1	4.831E-5
3.600E-1	4.977E-5
3.700E-1	5.123E-5
3.800E-1	5.270E-5
3.900E-1	5.418E-5
4.000E-1	5.566E-5
4.100E-1	5.715E-5
4.200E-1	5.864E-5
4.300E-1	6.014E-5
4.400E-1	6.165E-5
4.500E-1	6.316E-5
4.600E-1	6.469E-5
4.700E-1	6.621E-5
4.800E-1	6.774E-5
4.900E-1	6.928E-5
5.000E-1	7.083E-5
5.100E-1	7.238E-5
5.200E-1	7.395E-5
5.300E-1	7.552E-5
5.400E-1	7.709E-5
5.500E-1	7.867E-5
5.600E-1	8.025E-5
5.700E-1	8.184E-5
5.800E-1	8.343E-5
5.900E-1	8.504E-5
6.000E-1	8.665E-5
6.100E-1	8.826E-5
6.200E-1	8.988E-5
6.300E-1	9.147E-5
6.400E-1	9.311E-5
6.500E-1	9.472E-5
6.600E-1	9.638E-5
6.700E-1	9.805E-5
6.800E-1	9.968E-5
6.900E-1	1.013E-4
7.000E-1	1.030E-4
7.100E-1	1.047E-4
7.200E-1	1.064E-4
7.300E-1	1.081E-4
7.400E-1	1.097E-4
7.500E-1	1.114E-4
7.600E-1	1.132E-4
7.700E-1	1.148E-4
7.800E-1	1.165E-4
7.900E-1	1.182E-4
8.000E-1	1.199E-4
8.100E-1	1.217E-4
8.200E-1	1.234E-4
8.300E-1	1.251E-4
8.400E-1	1.268E-4
8.500E-1	1.286E-4
8.600E-1	1.303E-4
8.700E-1	1.321E-4
8.800E-1	1.338E-4
8.900E-1	1.355E-4
9.000E-1	1.373E-4
9.100E-1	1.391E-4
9.200E-1	1.408E-4
9.300E-1	1.426E-4
9.400E-1	1.444E-4
9.500E-1	1.461E-4
9.600E-1	1.479E-4
9.700E-1	1.497E-4
9.800E-1	1.515E-4
9.900E-1	1.532E-4
1.000E+0	1.551E-4
