-10	-3.30986E-9
-8.66667	-2.76806E-9
-7.33333	-2.24652E-9
-6	-1.74576E-9
-4.66667	-1.2825E-9
-3.33333	-8.47378E-10
-2	-4.58732E-10
-0.66667	-1.1645E-10
0.66667	1.83492E-10
2	5.33772E-10
3.33333	9.3872E-10
4.66667	1.3683E-9
6	1.8394E-9
7.33333	2.33316E-9
8.66667	2.8229E-9
10	3.34814E-9
